<OPEN>;<HIGH>;<LOW>;<CLOSE>;<VOL>
78.5;79.13;78.0;78.04;20143
78.01;78.09;77.56;77.84;36758
77.89;78.72;77.81;78.64;24176
78.64;78.96;78.64;78.91;23215
78.94;79.08;78.79;78.85;31437
78.84;79.21;78.82;79.19;32797
79.19;79.33;78.41;78.49;75306
78.5;78.5;78.5;78.5;23
79.14;79.14;79.09;79.09;13
79.53;79.53;78.97;79.06;33
79.49;79.49;79.49;79.49;1
79.22;79.77;78.97;79.34;55539
79.39;79.96;79.39;79.78;73059
79.79;79.93;79.51;79.83;46079
79.83;80.31;79.49;80.31;36853
80.33;80.33;79.88;79.91;41540
79.9;80.12;79.84;80.07;46329
80.07;80.09;79.64;79.71;147624
79.71;81.79;79.71;81.79;63
79.76;79.76;79.76;79.76;8
80.37;80.37;80.37;80.37;1
79.67;79.67;79.67;79.67;3
79.4;80.33;79.4;80.16;19298
80.17;80.6;80.12;80.37;37532
80.4;81.0;80.32;80.94;38386
80.98;81.61;80.87;81.56;29547
81.55;81.99;81.51;81.6;51841
81.6;81.67;81.2;81.37;46257
81.35;81.61;81.22;81.32;108731
81.27;81.27;81.27;81.27;6
81.06;81.26;81.06;81.26;3
81.46;81.46;81.46;81.46;1
81.82;81.82;81.13;81.13;2
81.85;81.85;81.85;81.85;1
81.49;81.71;80.92;81.45;20959
81.46;81.95;81.37;81.92;40469
81.92;82.3;81.74;81.96;49307
81.96;82.0;81.68;81.84;30114
81.82;81.83;81.16;81.25;27986
81.22;81.28;80.88;80.91;46698
80.9;80.95;79.79;79.83;148300
79.85;79.85;79.85;79.85;17
79.87;79.87;79.87;79.87;1
79.85;81.73;79.8;81.29;68349
81.29;81.93;81.23;81.3;125134
81.3;81.57;80.4;80.76;68994
80.76;80.85;79.79;80.1;60607
80.12;80.12;79.35;79.4;66823
79.35;79.88;79.03;79.22;41642
79.23;80.25;79.06;80.17;132984
80.16;80.16;80.16;80.16;39
