<OPEN>;<HIGH>;<LOW>;<CLOSE>;<VOL>
7.87;8.01;7.72;7.78;122465
7.78;7.79;7.64;7.64;243258
7.64;7.69;7.58;7.67;175864
7.67;7.76;7.6;7.63;193271
7.63;7.64;7.54;7.58;150130
7.58;7.66;7.42;7.43;244683
7.42;7.51;7.36;7.48;276786
7.5;7.58;7.47;7.57;10485
7.58;7.58;7.52;7.52;139
7.58;7.58;7.52;7.52;213
7.47;7.82;7.47;7.65;5342
7.65;7.67;7.53;7.66;1231
7.67;7.7;7.63;7.69;1948
7.7;7.7;7.64;7.67;803
7.68;7.69;7.59;7.62;4938
7.64;7.69;7.58;7.65;11896
7.63;7.74;7.48;7.68;205368
7.69;7.76;7.61;7.72;263692
7.73;7.86;7.7;7.82;191212
7.82;7.84;7.73;7.8;99317
7.8;7.93;7.76;7.93;123623
7.93;8.0;7.9;7.98;183113
7.98;8.08;7.97;8.06;323448
8.07;8.09;7.89;8.0;18069
7.92;8.04;7.92;8.03;396
7.95;8.05;7.95;8.02;226
8.05;8.15;8.05;8.13;5389
8.14;8.15;8.08;8.1;3799
8.08;8.09;7.93;7.96;3598
7.97;8.04;7.97;7.97;1150
7.97;8.02;7.83;7.85;5220
7.88;7.96;7.82;7.85;9991
7.87;8.0;7.72;7.72;127766
7.72;7.8;7.66;7.76;148302
7.76;7.82;7.71;7.79;107002
7.79;7.85;7.79;7.84;96786
7.84;7.91;7.78;7.78;81483
7.78;7.82;7.76;7.78;76903
7.78;7.82;7.74;7.77;198571
7.77;7.9;7.75;7.81;7289
7.81;7.81;7.81;7.81;10
7.81;7.81;7.81;7.81;798
7.81;7.89;7.81;7.87;3352
7.87;7.87;7.8;7.83;1193
7.8;7.84;7.8;7.84;740
7.84;7.85;7.8;7.83;1065
7.83;7.9;7.81;7.9;1281
7.89;7.9;7.85;7.86;3266
7.88;7.96;7.68;7.7;121511
7.71;7.73;7.61;7.64;130469
7.64;7.67;7.58;7.61;112831
7.62;7.64;7.57;7.61;79216
7.61;7.61;7.44;7.5;125982
7.51;7.51;7.38;7.46;157937
7.46;7.5;7.28;7.29;353658
7.3;7.4;7.28;7.35;19476
7.34;7.4;7.26;7.39;2269
7.28;7.4;7.25;7.3;3428
7.37;7.46;7.35;7.46;3455
7.46;7.46;7.36;7.42;1610
7.41;7.42;7.36;7.42;1470
7.42;7.44;7.4;7.43;1250
7.43;7.45;7.4;7.42;2100
7.44;7.45;7.35;7.37;1743
7.39;7.43;7.06;7.06;195250
7.06;7.18;7.04;7.04;225214
7.05;7.06;6.9;6.94;349839
6.94;7.03;6.87;6.97;221733
6.97;7.1;6.95;7.03;97363
7.03;7.03;6.96;6.98;91830
6.98;7.03;6.92;6.97;193521
6.98;7.08;6.95;7.08;15352
7.08;7.08;7.01;7.07;83
7.07;7.09;7.07;7.09;25
7.07;7.16;7.07;7.14;4569
