<OPEN>;<HIGH>;<LOW>;<CLOSE>;<VOL>
67.1;68.95;66.6;68.07;17624
68.26;69.92;67.0;69.71;21907
69.74;70.31;69.24;69.81;27104
69.81;69.96;69.18;69.77;23394
69.74;71.65;69.58;71.04;40726
71.01;71.38;70.29;70.92;26109
70.92;70.93;69.52;70.25;82203
70.25;76.5;70.25;74.07;45824
75.92;75.92;75.92;75.92;3
75.92;75.92;75.92;75.92;2
75.92;76.86;75.92;76.83;255
76.67;85.64;76.25;85.56;200995
85.67;85.67;81.36;83.13;152744
83.16;85.52;82.48;84.25;67818
84.25;86.32;84.2;85.87;43761
85.94;86.45;84.2;84.71;41961
84.61;84.78;83.53;84.63;40644
84.68;86.21;84.65;86.13;153041
86.13;86.28;85.41;85.41;67570
84.5;86.28;84.5;86.28;125
86.09;86.09;85.13;85.13;126
85.95;89.44;85.13;88.3;67944
88.43;88.51;84.74;84.75;80198
84.82;85.35;84.07;84.81;44832
84.85;85.74;84.85;85.25;25422
85.22;85.81;84.51;84.72;23762
84.73;85.32;84.73;85.14;26435
85.15;85.75;84.5;84.93;88027
84.92;84.92;84.92;84.92;114848
85.65;85.65;85.65;85.65;2
86.11;86.11;86.11;86.11;1
85.7;86.81;85.7;86.81;10
86.23;86.23;86.23;86.23;2
84.06;85.8;84.06;85.8;23
84.87;85.78;83.45;84.48;49860
84.49;85.08;83.77;84.55;41989
84.58;85.78;84.45;85.32;29319
85.3;85.49;84.78;85.49;29754
85.5;85.98;85.1;85.65;34195
85.62;85.91;85.13;85.49;19340
85.42;85.59;83.42;83.5;88329
83.48;83.48;83.0;83.0;46016
84.84;84.84;84.84;84.84;1
81.87;82.9;81.72;82.9;4
84.7;84.71;84.7;84.71;4
84.8;86.79;84.8;85.25;232
84.5;84.53;82.75;84.53;21092
84.53;84.9;83.71;83.89;19075
83.97;84.11;81.01;81.3;41120
81.37;81.65;79.05;81.2;39760
81.18;81.24;80.26;80.42;23767
80.38;81.25;80.08;80.6;23625
80.65;81.04;80.0;80.19;90726
80.17;80.17;80.0;80.17;65225
80.63;80.63;80.63;80.63;3
