<OPEN>;<HIGH>;<LOW>;<CLOSE>;<VOL>
189.0;190.99;187.24;187.45;21673
187.69;189.6;187.69;188.99;13466
189.03;189.85;188.12;189.61;17162
189.61;190.84;189.2;190.66;13186
190.64;192.24;190.2;191.48;16998
191.41;191.79;190.6;190.83;14447
190.84;192.35;188.18;188.34;99399
188.39;188.39;187.5;188.33;51636
191.11;191.11;191.11;191.11;1
191.45;191.45;190.95;190.95;3
189.7;189.7;189.7;189.7;1
189.71;189.71;189.71;189.71;1
189.98;189.98;186.93;187.73;14354
187.81;190.0;187.52;189.03;15448
188.99;190.28;188.62;189.18;12135
189.36;189.42;188.35;188.73;11158
188.72;188.96;186.9;187.5;12354
187.46;187.65;186.0;187.21;15042
187.32;187.86;186.81;187.11;34742
187.07;187.07;186.51;186.51;23355
186.5;188.71;186.0;188.71;21
187.97;187.97;186.01;186.01;10
186.12;186.12;186.01;186.01;14
186.33;186.33;186.0;186.0;12
185.6;185.6;185.6;185.6;1
185.12;185.12;185.0;185.0;4
184.0;191.34;184.0;190.62;30443
190.33;191.84;190.0;191.5;16251
191.39;193.71;191.39;193.44;12185
193.76;196.83;193.44;196.72;17308
196.8;197.47;195.77;196.12;19802
196.1;197.42;195.48;196.72;14410
196.74;197.16;194.59;194.6;37059
194.61;194.61;194.61;194.61;22585
192.16;192.16;192.15;192.15;2
192.26;194.52;192.26;192.36;11
193.5;194.0;193.5;194.0;6
193.0;194.0;193.0;194.0;6
193.33;195.72;193.33;195.72;11
196.09;196.09;196.09;196.09;1
196.0;196.09;194.1;194.1;9
193.03;196.99;191.45;192.1;21451
192.18;194.0;190.44;193.76;18354
193.86;196.79;193.74;195.69;18446
195.57;197.8;195.57;196.69;18350
196.64;196.97;195.8;196.27;14920
196.24;196.76;195.32;196.4;15998
196.36;196.6;191.23;191.23;45712
191.29;191.29;190.0;190.0;27066
190.3;190.3;189.33;189.33;6
189.77;190.5;189.77;190.5;22
190.5;190.5;190.15;190.5;45
192.47;192.47;192.0;192.0;13
191.0;193.07;190.04;191.53;14019
191.26;193.25;190.88;191.65;15726
191.89;192.34;186.36;186.68;21337
186.78;187.1;180.8;183.57;37536
183.59;185.03;183.27;184.16;12189
184.14;185.04;183.44;183.92;11980
184.05;186.68;183.66;185.6;32642
185.6;185.6;183.0;183.0;25661
183.5;183.5;183.5;183.5;1
186.7;186.7;184.0;184.0;12
