<OPEN>;<HIGH>;<LOW>;<CLOSE>;<VOL>
108.0;108.0;106.26;106.42;39168
106.45;106.66;105.88;106.15;33927
106.23;107.21;106.13;106.98;27999
106.99;107.12;106.65;107.12;29955
107.11;107.43;106.84;106.98;33500
106.95;107.03;106.57;106.74;32590
106.74;107.0;106.12;106.34;107992
106.35;106.7;106.35;106.7;164602
106.61;106.61;106.61;106.61;500
106.61;106.61;106.0;106.0;449
106.61;106.61;106.61;106.61;1
108.23;108.23;108.23;108.23;8
107.99;108.01;107.81;107.84;506
108.63;108.63;106.5;107.93;68526
107.91;109.12;107.87;108.17;45430
108.2;109.2;107.93;108.99;35309
109.0;109.62;108.92;109.6;37977
109.6;109.69;108.82;109.05;34747
109.04;109.67;108.86;109.43;44689
109.48;109.87;109.32;109.77;120491
109.83;109.83;109.83;109.83;181087
110.78;110.78;110.78;110.78;1
108.17;108.17;107.55;107.55;24
108.0;111.0;107.23;107.35;85092
107.29;107.95;107.27;107.37;61754
107.4;108.23;107.34;108.22;33854
108.26;108.47;108.08;108.39;24360
108.4;109.46;108.34;109.1;33183
109.12;109.15;108.69;109.02;35885
109.01;109.29;108.41;108.41;97394
108.42;108.42;108.42;108.42;158373
108.71;108.71;108.71;108.71;1
109.0;109.0;109.0;109.0;1
109.71;109.83;108.1;109.02;55675
109.09;110.08;108.95;109.41;83557
109.33;109.98;109.25;109.97;46297
109.99;110.61;109.84;110.45;40697
110.45;110.67;109.12;109.58;60677
109.58;109.58;108.7;108.99;38870
108.95;109.08;106.46;106.5;280958
106.6;106.6;105.99;105.99;363519
105.69;105.69;105.69;105.69;3
107.36;107.36;107.36;107.36;1
107.5;108.37;107.5;107.87;577
106.61;107.14;105.2;105.8;46843
105.82;106.93;105.46;105.5;142691
105.48;105.89;104.13;104.51;101998
104.46;104.69;103.57;103.92;84132
103.92;104.04;103.21;103.33;57820
103.32;103.64;102.72;102.79;87518
102.79;104.05;102.36;103.86;203019
103.8;103.8;103.73;103.8;266347
