<OPEN>;<HIGH>;<LOW>;<CLOSE>;<VOL>
182.81;183.88;180.81;183.16;59789
183.33;183.53;181.57;182.43;44272
182.57;185.46;182.57;183.45;44070
183.54;184.1;183.04;183.57;30551
183.68;185.89;183.56;185.78;44459
185.76;186.49;184.07;184.14;61204
184.17;184.76;183.46;184.02;135007
184.0;184.99;184.0;184.99;107697
184.31;184.31;184.31;184.31;211
184.8;184.8;184.78;184.78;13
186.48;186.48;185.64;185.64;12
185.96;185.96;185.96;185.96;1
186.56;186.56;186.56;186.56;1
186.54;186.54;185.64;186.3;6
186.25;187.0;186.06;187.0;172
186.75;189.84;183.28;185.26;39162
185.19;187.13;185.11;186.56;36915
186.55;186.92;185.64;186.77;24876
186.86;186.86;185.86;186.42;33387
186.44;186.49;184.21;184.79;27197
184.85;184.91;183.59;183.59;30643
183.77;184.56;183.24;184.29;120882
184.29;184.29;184.29;184.29;95948
184.7;185.78;184.7;184.9;10
185.69;185.69;184.06;184.06;43
184.34;184.34;184.03;184.03;5
183.19;183.19;183.18;183.18;10
183.16;183.69;183.16;183.69;12
183.1;183.1;182.73;182.73;31
182.7;184.89;182.7;184.2;29513
184.03;185.18;183.39;183.66;51666
183.75;184.72;183.03;184.56;37633
184.57;184.73;183.72;184.38;22758
184.31;185.34;184.16;185.01;31565
185.1;185.39;184.28;185.39;28990
185.42;186.05;183.94;184.4;102530
184.4;184.4;184.1;184.16;95741
185.96;185.96;185.96;185.96;1
183.01;183.01;183.01;183.01;1
183.35;184.91;183.35;183.7;12
184.61;184.61;184.61;184.61;1
184.0;184.58;184.0;184.58;13
184.55;184.55;184.24;184.24;4
185.03;185.03;185.03;185.03;2
184.88;185.48;184.72;184.9;122
184.84;185.77;181.22;182.88;40723
182.82;185.77;182.73;185.53;41298
185.53;186.42;184.9;185.4;28080
185.42;187.16;185.31;186.84;30044
186.9;186.97;185.02;186.24;23204
186.22;186.37;185.35;186.18;24469
186.06;186.4;180.97;181.05;125251
180.97;181.47;179.01;179.01;97382
179.78;179.78;179.78;179.78;1
187.83;187.83;187.83;187.83;1
181.62;181.62;180.13;180.13;5
180.36;181.29;180.02;181.29;22
182.23;182.23;181.29;181.29;5
182.09;182.09;182.09;182.09;1
182.15;182.15;182.15;182.15;3
181.06;182.0;176.61;180.47;41002
180.55;182.7;179.53;179.53;36512
179.56;180.41;176.91;177.61;47589
177.67;177.92;173.88;175.32;59288
175.47;175.47;173.86;174.81;43769
174.69;175.69;173.89;174.08;45156
174.12;177.08;173.87;176.67;99121
176.86;176.86;176.86;176.86;100837
177.71;177.92;177.71;177.91;12
