<OPEN>;<HIGH>;<LOW>;<CLOSE>;<VOL>
80.11;86.65;80.11;86.33;3158
86.42;86.42;83.36;83.62;6250
83.66;84.17;83.08;83.89;3694
83.7;83.86;83.17;83.79;3694
83.72;84.08;83.65;83.7;2190
83.65;83.9;82.85;83.01;4929
83.05;83.44;82.93;82.96;19717
83.0;83.55;83.0;83.0;7308
85.0;85.0;83.0;83.0;1175
82.32;83.55;82.32;83.27;3783
83.41;83.63;82.62;82.8;5507
82.9;83.3;82.56;83.16;2074
83.02;83.86;82.98;83.3;3596
83.23;83.62;82.94;83.09;3218
83.11;83.2;82.05;82.59;8944
82.61;82.61;82.61;82.61;10723
86.4;86.4;80.79;80.79;6
78.83;78.83;75.0;75.0;5
83.83;84.1;81.18;82.38;2144
81.57;83.72;81.57;83.2;5900
83.26;83.65;82.51;83.56;10080
83.67;85.5;83.67;85.4;6432
85.33;85.92;85.25;85.25;2519
85.32;86.35;84.43;85.07;5725
85.07;85.11;83.75;84.17;28986
83.77;83.77;83.77;83.77;44055
79.99;79.99;79.99;79.99;1
84.42;84.57;83.0;83.17;1942
83.32;84.3;83.19;83.69;2456
83.86;84.3;83.64;83.96;2931
83.91;83.97;83.49;83.49;952
83.46;83.85;83.33;83.85;1047
83.69;83.74;83.38;83.41;3616
83.5;83.53;82.35;82.35;11461
82.34;82.34;82.34;82.34;7639
82.01;82.03;81.4;81.98;820
82.98;83.26;81.78;82.19;2805
82.25;83.18;81.89;82.13;4583
81.98;81.98;80.95;81.46;2990
81.46;81.88;80.85;80.96;2224
80.76;81.58;80.63;80.7;3849
80.73;81.94;80.33;81.4;8343
81.57;81.57;81.57;81.57;6049
