<OPEN>;<HIGH>;<LOW>;<CLOSE>;<VOL>
40.2;40.47;39.88;40.05;2108
39.98;40.05;39.65;39.99;11745
40.0;40.0;39.68;40.0;4399
40.0;40.01;39.69;39.9;8047
39.91;40.28;39.91;40.15;12853
40.14;40.27;39.97;40.1;12727
40.11;40.36;40.0;40.14;26407
40.12;40.12;40.12;40.12;348
40.81;40.81;40.31;40.31;3
40.3;40.31;40.3;40.31;11
40.5;40.5;40.5;40.5;15
40.5;42.03;40.5;41.98;3994
41.95;42.1;41.27;41.27;5315
41.43;41.74;41.35;41.69;6183
41.73;41.91;41.73;41.77;4964
41.77;41.84;41.25;41.34;6823
41.39;41.45;41.14;41.39;6882
41.45;41.61;41.29;41.39;25243
41.47;41.47;41.47;41.47;369
41.4;41.75;41.35;41.75;5
41.7;41.7;41.7;41.7;2
40.96;40.96;40.94;40.94;7
40.68;40.8;39.98;40.02;8001
40.0;40.37;39.94;39.96;10038
39.96;40.17;39.95;40.16;14226
40.11;40.84;40.08;40.84;5712
40.81;41.19;40.79;40.99;5496
40.99;41.03;40.77;40.97;10551
40.99;41.09;40.72;40.77;27064
40.74;40.74;40.74;40.74;103
41.28;41.28;41.28;41.28;3
40.82;40.82;40.65;40.65;3
40.73;40.96;40.23;40.35;3725
40.34;40.81;40.16;40.81;4190
40.73;40.8;40.56;40.75;2904
40.71;40.76;40.53;40.6;3460
40.57;40.57;40.24;40.37;6824
40.35;40.35;40.05;40.13;8465
40.1;40.2;39.3;39.37;27116
39.3;39.3;38.9;38.9;100
39.56;39.56;39.07;39.07;40
39.51;39.53;39.51;39.53;3
39.51;39.51;39.51;39.51;1
39.66;39.66;39.66;39.66;1
39.4;39.4;39.4;39.4;1
39.02;39.06;37.85;38.87;4918
38.9;39.73;38.8;39.57;33992
39.57;39.88;39.24;39.37;9970
39.42;39.61;39.18;39.59;13745
39.54;39.67;39.24;39.3;9916
39.27;39.57;39.22;39.51;7864
39.52;39.89;39.41;39.75;27088
39.76;39.76;39.76;39.76;28
