<OPEN>;<HIGH>;<LOW>;<CLOSE>;<VOL>
62.7;65.91;62.7;65.69;1892
65.48;65.93;65.19;65.51;11017
65.54;66.2;65.36;66.14;6617
66.2;66.3;64.86;65.15;7302
65.09;65.13;64.52;64.59;5694
64.59;64.94;64.41;64.48;7305
64.48;65.16;63.98;64.23;27269
64.29;64.29;64.29;64.29;72
64.94;64.94;64.94;64.94;1
65.81;65.81;65.2;65.39;6396
65.49;66.0;64.57;64.83;6496
64.63;66.1;64.62;65.67;6228
65.85;65.91;65.28;65.64;4836
65.6;65.94;65.54;65.89;4678
65.89;66.17;65.67;66.09;12377
66.15;66.33;66.01;66.29;22219
66.28;66.28;66.28;66.28;73
65.77;65.87;64.92;65.67;6612
65.69;66.34;65.52;65.82;12164
65.85;66.75;65.8;66.56;10973
66.68;67.21;66.26;67.09;14038
67.12;67.25;66.73;66.73;9014
66.7;66.93;66.43;66.54;13431
66.6;66.89;66.25;66.27;26007
66.2;66.2;66.2;66.2;1
65.98;66.36;64.57;65.09;3521
65.07;65.63;64.05;64.23;9411
64.3;64.4;63.9;64.38;8351
64.34;64.45;63.6;63.67;4496
63.63;63.65;62.81;63.45;7189
63.45;63.63;62.47;62.51;10049
62.46;62.68;60.8;60.92;34444
60.96;60.96;60.8;60.8;137
60.08;61.7;60.08;61.7;3
61.0;61.33;61.0;61.33;3
61.43;61.43;61.43;61.43;1
60.54;60.62;59.26;59.92;6061
60.07;60.68;59.71;59.71;14119
59.72;60.02;58.72;58.92;14907
58.96;59.36;58.35;58.85;25171
58.9;59.5;58.86;59.09;14689
59.09;59.65;58.84;59.5;21425
59.53;60.09;59.16;59.8;57299
59.82;59.82;59.82;59.82;8
