<OPEN>;<HIGH>;<LOW>;<CLOSE>;<VOL>
238.99;239.44;233.0;233.33;75328
233.36;234.21;232.13;233.53;64139
233.58;236.65;233.56;235.35;58608
235.38;235.61;234.39;235.45;42005
235.47;235.47;233.57;233.81;33044
233.86;234.99;233.5;234.99;41582
234.96;235.8;232.95;233.32;145234
233.33;235.79;233.33;235.79;476052
235.61;236.14;235.61;236.14;12
234.55;234.55;234.49;234.5;3
236.51;236.51;236.51;236.51;1
236.16;236.16;236.16;236.16;1
236.24;236.24;235.0;235.16;459
235.03;235.73;231.74;232.7;76214
232.95;233.6;231.59;233.48;65662
233.43;234.25;233.21;233.92;36441
233.86;234.66;233.52;234.09;28512
234.05;234.35;232.93;233.08;31543
233.1;234.27;232.98;234.23;25909
234.26;235.26;233.71;234.83;127368
234.82;234.84;234.3;234.3;345104
233.0;233.0;233.0;233.0;1
237.73;237.73;237.0;237.0;6
235.75;235.75;235.75;235.75;1
236.0;236.74;236.0;236.74;2
236.75;236.91;236.75;236.91;3
234.97;235.08;234.82;234.82;10
234.89;237.14;231.86;236.98;95727
236.98;239.18;236.8;237.94;71461
238.0;238.88;237.37;238.71;35166
238.68;241.02;238.19;240.38;56170
240.37;241.86;240.18;241.14;47632
241.2;242.4;240.43;241.62;78837
241.87;243.5;241.57;242.87;145988
242.74;242.74;242.74;242.74;285985
240.92;241.22;240.3;241.22;4
241.4;241.49;241.4;241.49;2
241.34;241.63;241.05;241.05;3
241.5;241.5;241.5;241.5;1
242.13;242.2;241.78;242.2;4
242.42;243.0;242.22;243.0;103
243.93;245.0;239.1;241.83;110590
241.83;244.08;241.83;243.48;71202
243.56;244.5;243.08;243.81;50763
243.77;243.95;242.72;243.83;30876
243.86;243.94;242.2;242.68;38411
242.67;242.87;241.61;242.3;37780
242.23;242.34;237.05;237.05;152958
237.21;237.21;236.24;236.24;509918
236.96;237.19;236.96;237.19;3
237.19;237.72;237.19;237.72;2
237.75;238.0;237.75;238.0;2
238.82;238.82;238.82;238.82;2
238.69;238.69;237.85;237.85;2
238.0;238.0;238.0;238.0;45
236.13;241.34;235.16;240.85;93711
240.78;243.89;240.19;242.54;75881
242.48;242.81;238.73;239.23;56907
239.13;239.13;236.99;238.15;53888
238.12;238.32;236.67;237.75;36137
237.7;239.08;236.85;236.99;46317
237.04;238.54;235.79;236.83;163032
236.83;236.83;236.79;236.79;389564
236.9;236.9;236.9;236.9;1
236.79;236.79;236.79;236.79;303
