<OPEN>;<HIGH>;<LOW>;<CLOSE>;<VOL>
43.88;43.88;41.85;42.84;2215
42.84;43.68;42.53;43.17;12068
43.18;43.18;42.27;42.38;16618
42.52;42.52;41.9;42.15;7747
42.18;42.27;41.79;42.2;7197
42.16;42.28;41.97;42.21;10669
42.21;42.45;42.01;42.34;32120
42.35;42.4;42.35;42.4;192
42.4;42.4;42.4;42.4;3
42.4;42.4;42.4;42.4;4
43.99;43.99;41.51;42.91;8
42.01;43.24;42.01;43.24;3
42.12;42.12;42.12;42.12;1
43.24;43.24;43.24;43.24;1
43.24;43.78;43.07;43.46;1998
43.53;44.04;43.46;43.78;9439
43.7;44.2;43.68;44.01;9088
44.01;44.08;43.41;43.73;10734
43.71;43.71;43.33;43.33;13238
43.33;43.84;42.95;43.78;16617
43.76;44.0;43.67;43.99;20837
44.0;44.0;42.9;44.0;130
44.0;44.9;43.99;44.56;34
45.6;45.6;45.0;45.0;8
45.01;46.8;45.01;46.46;160
45.56;45.64;43.08;43.08;176
43.08;43.98;43.01;43.98;31
43.86;43.87;43.85;43.87;16
44.52;44.52;44.0;44.0;23
44.0;44.51;44.0;44.51;101
44.51;44.54;43.63;43.77;6510
43.79;43.87;43.36;43.75;9969
43.77;44.93;43.77;44.93;18336
44.9;45.44;44.72;45.43;13770
45.34;45.8;45.34;45.46;9868
45.48;46.07;45.42;46.0;15784
45.99;46.07;45.45;45.51;32216
45.5;46.2;43.2;44.39;2373
44.24;44.75;44.24;44.7;1909
44.5;44.5;44.5;44.5;50
46.0;46.0;45.19;45.44;62
44.41;45.45;44.41;45.28;24
45.28;45.39;44.88;44.88;94
44.88;45.2;44.88;45.2;11
45.2;45.45;45.01;45.4;34
45.2;45.44;44.43;44.86;199
44.5;44.5;40.51;42.51;38527
42.13;42.91;41.72;42.29;39752
42.29;42.35;40.8;41.15;31209
41.14;41.74;40.95;41.01;21948
40.96;41.77;40.75;41.36;30206
41.33;41.52;41.05;41.2;22793
41.19;41.28;39.76;40.0;89619
39.91;40.59;39.91;40.21;1136
40.53;40.53;40.5;40.5;21
40.4;40.53;40.4;40.53;51
40.52;42.0;38.83;41.4;66
41.01;41.01;40.3;41.0;42
41.0;41.0;40.61;41.0;8
41.0;41.0;41.0;41.0;16
41.0;41.0;40.6;40.6;69
40.6;40.98;40.0;40.94;255
40.16;40.75;38.95;39.18;7748
39.17;39.41;38.38;38.56;17175
38.5;38.68;37.23;37.5;27031
37.48;37.58;36.84;37.26;17589
37.23;37.63;37.02;37.31;16452
37.32;37.41;37.08;37.22;19041
37.23;37.69;37.01;37.52;55107
37.54;37.54;37.54;37.54;529
39.39;39.39;37.55;37.55;29
37.55;37.55;37.55;37.55;1
38.0;39.74;38.0;38.05;80
