<OPEN>;<HIGH>;<LOW>;<CLOSE>;<VOL>
8.9;9.2;8.35;8.37;359899
8.43;8.61;8.19;8.52;279692
8.5;8.54;8.2;8.27;144175
8.28;8.28;8.15;8.17;102285
8.17;8.26;8.16;8.22;138798
8.22;8.22;7.96;7.98;139666
7.98;8.26;7.94;8.07;360361
8.05;8.6;8.05;8.6;156073
8.6;8.6;8.6;8.6;5
7.95;8.0;7.95;7.95;6
8.03;8.19;8.03;8.19;456
8.22;8.22;8.16;8.16;43
8.19;8.19;8.16;8.16;148
8.22;8.25;8.16;8.2;13
8.19;8.19;8.1;8.1;84
8.11;8.24;8.11;8.24;41
8.24;8.48;8.01;8.03;81523
8.03;8.12;8.02;8.04;78524
8.04;8.05;7.9;7.98;78182
7.98;8.03;7.92;8.03;107016
8.03;8.05;7.98;8.04;118902
8.04;8.05;7.94;7.95;121555
7.96;8.0;7.68;7.71;343291
7.71;7.85;7.71;7.85;49408
7.85;7.85;7.75;7.85;52
7.89;7.89;7.89;7.89;1
7.81;7.82;7.75;7.75;267
7.84;7.84;7.71;7.8;20
7.74;7.75;7.72;7.75;37
7.75;7.75;7.74;7.75;105
7.75;7.89;7.72;7.8;76
7.8;7.86;7.8;7.8;64
7.81;8.07;7.75;8.0;72073
8.01;8.23;8.01;8.21;92386
8.21;8.52;8.21;8.5;119851
8.51;8.59;8.36;8.54;122137
8.54;8.92;8.52;8.79;141531
8.79;9.01;8.78;9.0;175106
9.0;9.15;8.93;9.1;327905
9.09;9.14;8.9;9.11;143299
9.15;9.22;9.0;9.15;266
9.0;9.0;8.66;8.66;57
8.94;9.15;8.94;9.13;252
9.13;9.16;9.05;9.06;319
9.06;9.09;8.98;9.08;127
9.03;9.09;9.03;9.05;56
9.05;9.14;9.05;9.05;302
9.05;9.15;9.05;9.13;154
9.11;9.93;9.11;9.33;224499
9.3;9.55;9.23;9.53;144474
9.52;10.07;9.51;10.0;228862
10.0;10.02;9.4;9.73;109793
9.73;9.78;9.59;9.74;54002
9.73;9.94;9.63;9.94;90902
9.92;9.97;9.74;9.75;263042
9.76;9.99;9.61;9.65;48196
9.62;9.98;9.3;9.98;1395
9.65;9.82;9.65;9.71;33
9.81;9.81;9.72;9.72;27
9.7;9.81;9.7;9.72;32
9.71;9.89;9.71;9.84;97
9.84;9.89;9.76;9.78;79
9.77;9.85;9.77;9.85;149
9.83;9.9;9.54;9.66;92746
9.66;10.0;9.53;9.91;139267
9.92;10.24;9.84;9.86;188356
9.87;9.89;9.52;9.87;118323
9.86;9.99;9.7;9.9;90314
9.89;9.99;9.79;9.91;99591
9.92;10.0;9.87;9.95;329697
9.96;10.2;9.75;9.75;183807
9.99;9.99;9.99;9.99;1
9.75;9.75;9.75;9.75;3
9.83;10.06;9.83;10.0;50
