<OPEN>;<HIGH>;<LOW>;<CLOSE>;<VOL>
121.1;123.54;118.45;122.84;4947
123.24;125.25;122.21;124.52;5653
124.76;125.25;123.98;124.71;3363
124.55;124.78;123.97;124.69;3843
124.69;124.91;124.07;124.75;7613
124.69;125.27;123.83;124.11;4288
123.86;124.58;123.67;124.09;15078
124.07;124.07;124.07;124.07;8857
125.0;125.0;125.0;125.0;1
127.93;127.93;127.93;127.93;1
124.99;124.99;124.99;124.99;5
126.85;126.85;124.66;125.57;2800
125.84;126.06;125.11;125.62;1770
125.73;126.81;125.07;126.46;1704
126.39;126.88;125.87;126.83;2866
126.88;127.4;124.85;125.17;7885
125.16;125.65;124.52;125.41;6886
125.43;125.9;125.2;125.9;12816
125.36;125.36;125.36;125.36;8890
125.88;125.88;125.88;125.88;1
126.05;126.5;121.94;124.75;3022
124.87;126.11;123.95;125.41;13871
125.67;125.82;124.6;125.12;7145
124.87;125.69;124.6;125.4;4915
125.24;126.45;125.15;126.24;2271
126.17;129.22;126.17;129.0;6283
129.09;129.27;126.7;127.06;12538
126.89;126.89;126.89;126.89;14340
129.3;129.3;124.32;125.32;2991
125.61;126.08;124.77;126.08;2328
125.69;126.36;124.65;124.92;3283
124.88;125.35;124.51;124.51;3903
124.5;124.5;122.01;123.61;7046
123.61;124.0;123.2;123.25;4251
123.32;123.36;120.22;120.48;10321
120.47;120.47;120.47;120.47;7383
118.46;118.46;118.46;118.46;2
120.8;121.0;116.8;120.4;4999
120.62;121.05;119.72;120.62;3274
120.63;121.66;118.6;118.79;11559
118.82;118.82;115.7;117.33;5054
116.6;118.1;116.29;117.26;4656
116.79;117.74;116.35;117.04;3470
117.07;118.94;116.77;118.78;9006
118.47;118.47;118.47;118.47;9052
