<OPEN>;<HIGH>;<LOW>;<CLOSE>;<VOL>
66.1;68.07;66.01;67.63;31088
67.62;67.62;66.65;66.92;38006
66.95;67.25;66.5;67.04;44476
67.05;67.07;65.8;65.96;32248
65.97;66.5;65.86;66.01;30666
65.99;66.03;65.42;65.45;31762
65.46;65.57;65.09;65.21;84200
65.23;65.23;65.23;65.23;6
65.02;65.02;65.02;65.02;3
67.23;67.23;67.23;67.23;4
67.23;67.23;66.82;66.82;4
66.76;68.23;66.44;67.1;22891
67.17;68.08;67.0;67.93;39735
68.0;68.56;67.76;68.34;35550
68.35;68.58;68.1;68.35;18189
68.34;68.42;68.05;68.35;17221
68.33;68.64;68.3;68.3;39790
68.31;68.43;67.99;68.09;66785
68.15;68.15;68.15;68.15;1
68.5;68.5;68.5;68.5;3
66.46;66.46;66.46;66.46;2
67.41;68.15;67.41;68.0;11
68.0;68.0;65.03;65.18;30443
65.22;66.31;65.22;66.22;47819
66.21;66.9;65.88;66.86;34153
66.93;68.12;66.83;67.71;58053
67.71;67.74;66.88;66.93;48428
66.92;67.03;66.42;66.73;49318
66.76;67.1;66.64;66.7;81950
66.71;66.71;66.71;66.71;2
67.46;67.46;67.46;67.46;1
68.02;68.02;68.02;68.02;3
66.75;67.71;66.23;66.57;18932
66.63;67.03;66.13;66.38;22511
66.42;66.47;65.85;65.96;18692
65.92;66.19;65.82;65.94;18633
65.89;65.9;65.16;65.52;23732
65.58;65.65;65.08;65.55;27449
65.49;65.65;64.48;64.5;92760
64.5;64.5;64.5;64.5;8
64.52;64.52;64.52;64.52;1
64.5;64.51;62.91;63.35;20835
63.42;63.64;62.26;62.27;30094
62.34;62.34;60.74;60.96;42305
60.97;61.2;60.47;61.0;66145
60.99;61.39;60.7;60.86;63702
60.83;61.12;60.21;60.21;28809
60.25;61.1;60.13;60.84;83430
60.79;60.79;60.79;60.79;6
