<OPEN>;<HIGH>;<LOW>;<CLOSE>;<VOL>
8.91;9.18;8.61;8.96;26008
8.96;9.04;8.72;8.98;52961
8.98;9.18;8.96;9.09;40491
9.09;9.16;8.96;9.08;34514
9.07;9.12;8.83;8.86;32879
8.86;8.93;8.72;8.76;25106
8.75;8.92;8.72;8.91;57007
8.91;8.95;8.81;8.83;4475
8.83;9.01;8.82;8.84;109
9.0;9.0;8.99;8.99;16
9.05;9.25;9.05;9.19;4993
9.22;9.22;9.03;9.09;1739
9.1;9.1;9.02;9.03;1588
9.02;9.07;9.0;9.0;708
9.04;9.12;9.0;9.03;3375
9.05;9.13;9.0;9.13;1907
9.13;9.13;8.95;9.03;17105
9.04;9.23;8.94;9.17;97163
9.17;9.31;9.17;9.28;72693
9.28;9.4;9.22;9.35;68011
9.34;9.52;9.31;9.45;65785
9.46;9.74;9.44;9.68;103661
9.68;9.92;9.67;9.92;157005
9.88;9.88;9.32;9.56;27235
9.6;9.7;9.53;9.7;3546
9.7;9.73;9.65;9.67;655
9.51;9.7;9.49;9.62;7598
9.63;9.66;9.55;9.61;4149
9.56;9.65;9.5;9.65;844
9.65;9.65;9.41;9.5;2572
9.45;9.5;9.42;9.46;678
9.49;9.63;9.47;9.5;3486
9.5;9.64;9.11;9.29;50934
9.32;9.36;9.22;9.28;56254
9.27;9.28;9.11;9.15;47454
9.17;9.4;9.12;9.4;39529
9.38;9.57;9.34;9.51;45430
9.5;9.54;9.31;9.35;33818
9.36;9.4;9.28;9.38;51666
9.36;9.36;9.22;9.26;8948
9.33;9.33;9.26;9.33;144
9.3;9.4;9.3;9.3;79
9.31;9.55;9.31;9.43;2357
9.42;9.43;9.3;9.35;1333
9.35;9.42;9.3;9.42;253
9.4;9.48;9.37;9.37;1798
9.44;9.49;9.38;9.39;1238
9.39;9.55;9.39;9.46;732
9.45;9.63;9.3;9.42;8757
9.42;9.47;9.16;9.21;22219
9.21;9.28;9.06;9.15;24788
9.16;9.26;9.1;9.14;16198
9.15;9.15;8.97;9.07;39884
9.07;9.07;8.96;9.04;34110
9.04;9.44;9.04;9.18;131681
9.17;9.2;9.02;9.13;1185
9.13;9.17;9.02;9.05;666
9.06;9.06;9.06;9.06;1
9.15;9.22;8.99;9.0;1985
9.0;9.1;8.99;9.1;703
9.1;9.1;9.0;9.06;1384
9.05;9.1;9.05;9.07;1618
9.07;9.14;9.06;9.11;860
9.11;9.34;9.11;9.29;1147
9.24;9.31;8.57;8.71;26233
8.71;8.95;8.62;8.69;47934
8.67;8.77;8.54;8.56;49279
8.56;8.68;8.5;8.63;68495
8.65;8.84;8.58;8.7;61833
8.67;8.7;8.46;8.47;53825
8.47;8.53;8.36;8.49;51034
8.47;8.76;8.4;8.63;3549
8.5;8.64;8.5;8.64;199
8.69;8.8;8.69;8.73;356
8.61;8.76;8.5;8.6;2142
