<OPEN>;<HIGH>;<LOW>;<CLOSE>;<VOL>
152.6;154.32;152.1;154.05;3845
154.11;154.27;152.05;152.06;8895
152.06;153.41;151.88;153.41;4981
153.63;153.63;152.07;152.22;7837
152.26;152.65;151.73;152.6;10881
152.63;152.69;151.2;151.39;9129
151.33;152.17;151.08;151.37;20972
151.49;151.49;151.49;151.49;16
154.18;154.18;152.6;152.6;6
153.1;154.55;153.09;153.82;4342
153.83;154.03;151.26;151.7;12496
151.58;152.72;151.58;152.12;8959
152.29;152.61;152.0;152.2;6021
152.13;152.33;151.53;151.65;8784
151.65;151.83;150.95;151.45;11103
151.5;152.26;150.95;151.6;32501
152.0;152.0;152.0;152.0;4
155.2;155.2;155.2;155.2;2
151.54;151.54;151.54;151.54;2
151.74;151.74;151.74;151.74;1
151.0;151.37;149.51;149.68;8418
149.85;151.55;149.76;151.04;10343
151.06;152.13;151.06;151.66;17545
151.66;154.15;151.66;153.18;11479
153.19;153.7;152.92;153.37;17100
153.38;153.4;152.04;152.67;10990
152.75;153.04;151.76;151.94;35888
151.8;151.8;151.8;151.8;6
151.68;151.68;151.68;151.68;1
152.0;152.0;152.0;152.0;1
150.94;150.94;147.69;148.34;7729
148.48;149.13;148.14;149.03;10968
149.02;149.34;148.62;149.16;10864
149.1;149.1;147.3;148.23;16174
148.26;149.29;147.25;149.29;12435
149.26;149.78;148.99;149.22;9172
149.14;149.25;148.24;148.35;35328
148.2;148.2;148.2;148.2;3
147.51;148.71;147.51;148.71;8
145.61;148.35;145.61;146.5;14733
146.73;147.85;146.48;146.61;13156
146.64;146.83;143.32;143.96;14018
144.06;144.09;142.76;143.34;17381
143.28;143.81;142.76;143.4;13671
143.34;143.56;142.23;142.78;17966
142.76;144.35;142.76;143.33;69561
143.46;143.46;143.46;143.46;10
144.03;144.03;144.03;144.03;2
