<OPEN>;<HIGH>;<LOW>;<CLOSE>;<VOL>
60.73;60.95;59.72;60.61;3876
60.69;60.73;59.91;60.15;6038
60.17;60.56;59.97;60.4;5713
60.47;60.5;59.62;59.74;5610
59.78;60.29;59.62;59.8;13477
59.77;59.94;59.66;59.79;7686
59.76;60.16;59.66;60.1;20070
60.06;60.06;60.06;60.06;20
61.54;61.72;61.27;61.67;3920
61.93;62.11;61.54;61.73;14698
61.71;62.2;61.56;62.03;8153
62.06;62.06;61.85;62.06;5493
62.05;62.07;61.76;61.85;6530
61.85;62.3;61.85;62.29;7749
62.31;62.5;62.02;62.28;28459
65.04;65.04;65.04;65.04;1
61.93;61.93;61.93;61.93;1
61.18;61.22;60.89;61.09;2771
61.04;61.04;60.16;60.17;6795
60.23;61.23;60.17;61.17;20449
61.24;61.67;61.19;61.59;9526
61.56;61.89;61.52;61.57;9281
61.62;61.85;61.48;61.81;13461
61.81;62.14;61.66;61.66;48806
61.66;61.66;61.66;61.66;2
58.6;58.6;58.6;58.6;1
63.06;63.06;63.06;63.06;2
62.12;62.14;60.99;61.48;4189
61.55;61.92;61.45;61.84;8214
61.84;62.01;61.65;61.78;9699
61.81;61.97;61.63;61.86;6659
61.84;61.84;61.14;61.35;4932
61.34;61.39;61.0;61.17;10206
61.15;61.21;60.0;60.05;22802
60.06;60.06;60.06;60.06;3
57.3;57.3;57.3;57.3;1
59.49;59.49;58.38;58.63;788
58.85;59.43;58.17;58.23;10043
58.13;58.21;57.01;57.08;14107
57.12;57.53;56.76;57.4;11027
57.41;57.73;57.27;57.47;7342
57.43;57.8;57.28;57.54;8432
57.56;57.78;57.22;57.74;22177
57.64;57.64;57.64;57.64;1
