<OPEN>;<HIGH>;<LOW>;<CLOSE>;<VOL>
76.25;76.25;75.05;75.24;1012
75.02;75.33;74.17;74.19;4217
74.07;74.51;73.83;74.42;4205
74.47;74.54;73.91;74.13;3349
74.21;74.38;73.93;74.06;4828
74.06;74.26;73.84;74.09;5305
74.04;74.47;73.85;74.05;12907
74.04;74.04;74.04;74.04;48
75.53;75.53;75.53;75.53;1
75.49;75.52;75.49;75.52;2
75.65;75.65;74.22;75.35;6
74.35;74.35;74.35;74.35;1
74.49;76.23;74.22;75.59;1409
75.42;75.42;74.72;75.04;3704
74.93;75.8;74.66;75.62;3708
75.67;75.95;75.52;75.52;2345
75.47;75.53;75.25;75.29;4256
75.38;75.45;74.71;74.84;7815
74.88;75.9;74.81;75.7;14524
75.74;75.74;75.74;75.74;20
76.84;76.84;76.84;76.84;17
75.68;75.68;75.67;75.68;13
75.68;76.16;75.68;76.16;27
76.0;76.0;75.98;75.98;6
75.97;75.97;75.48;75.48;2
76.87;76.87;74.93;74.93;1345
75.0;75.67;74.57;75.27;4264
75.4;76.12;75.23;76.03;1969
76.11;77.07;75.99;77.04;1747
76.94;77.26;76.85;77.18;3535
77.21;77.38;76.63;77.1;4027
77.22;77.3;76.32;76.71;11767
76.67;76.67;76.67;76.67;72
77.74;77.75;77.74;77.75;3
77.75;77.75;77.74;77.74;2
77.07;77.07;77.06;77.06;2
77.05;77.05;75.83;76.28;1058
76.52;76.61;75.24;75.68;3480
75.61;76.12;75.25;75.47;6298
75.47;75.92;75.1;75.77;8532
75.78;76.06;75.47;75.91;3792
75.96;76.12;75.51;75.51;3307
75.63;75.9;75.21;75.38;9345
75.29;75.29;75.2;75.2;23
75.01;75.01;75.01;75.01;1
74.56;75.6;74.53;75.12;4220
75.12;75.55;74.68;75.01;3359
74.88;75.32;74.5;74.9;4861
74.92;75.53;74.85;75.47;7032
75.41;75.66;75.18;75.37;1626
75.42;75.46;75.06;75.12;6560
75.2;76.23;75.19;75.94;10497
76.05;76.05;76.05;76.05;18
75.46;75.46;74.23;74.23;3
74.93;74.93;74.93;74.93;1
