<OPEN>;<HIGH>;<LOW>;<CLOSE>;<VOL>
9.51;9.51;8.0;8.58;43985
8.7;9.13;8.33;8.56;35043
8.53;8.54;8.23;8.35;47639
8.34;8.36;8.09;8.24;41516
8.25;8.32;8.15;8.27;20611
8.27;8.54;8.26;8.39;39241
8.39;8.4;8.28;8.31;63233
8.32;8.5;8.32;8.39;48013
8.39;8.5;8.35;8.5;1258
8.47;8.5;8.44;8.45;367
9.2;9.2;8.1;8.47;2190
8.46;8.5;8.46;8.46;1022
8.46;8.48;8.44;8.44;269
8.44;8.45;8.4;8.44;660
8.4;8.45;8.39;8.45;559
8.44;8.47;8.39;8.47;2350
8.47;9.28;8.4;9.08;59332
9.08;9.16;8.88;8.94;32826
8.94;9.09;8.94;8.98;28917
8.98;9.06;8.94;8.94;16706
8.93;9.0;8.82;8.88;20990
8.89;8.89;8.75;8.87;19897
8.86;9.03;8.84;8.94;43371
8.95;9.08;8.65;8.8;38514
8.99;9.0;8.8;9.0;97
9.0;9.03;8.91;9.03;78
9.04;9.59;9.03;9.26;754
9.27;9.27;9.03;9.1;245
9.03;9.03;9.01;9.01;93
9.1;9.2;9.1;9.2;126
9.11;9.11;8.9;9.0;730
8.98;9.0;8.76;8.76;219
8.96;8.96;8.68;8.69;7675
8.73;8.73;8.38;8.66;17399
8.67;9.0;8.61;8.96;40613
8.96;9.07;8.82;8.99;25824
8.97;9.08;8.83;8.91;26848
8.92;8.99;8.89;8.95;16955
8.95;8.97;8.79;8.81;35534
8.83;8.9;8.75;8.76;40808
8.75;8.75;8.75;8.75;1
9.2;9.2;8.21;8.75;111
8.9;8.9;8.75;8.9;14
8.9;8.9;8.75;8.77;45
8.89;8.89;8.76;8.87;6
8.77;8.89;8.76;8.77;56
8.84;8.9;8.77;8.9;34
8.85;8.9;8.51;8.59;8515
8.59;8.61;8.18;8.29;54511
8.28;8.28;8.1;8.25;31885
8.26;8.68;8.24;8.65;37747
8.63;8.76;8.58;8.61;32524
8.62;8.83;8.59;8.83;26191
8.83;8.86;8.71;8.71;91278
8.71;8.71;8.4;8.4;57498
8.64;8.64;8.63;8.63;9
8.41;8.59;8.4;8.59;32
8.7;8.7;8.23;8.64;49
8.63;8.65;8.6;8.6;15
8.53;8.54;8.53;8.54;22
8.54;8.54;8.54;8.54;2
8.62;8.63;8.54;8.54;11
8.54;8.62;8.54;8.55;20
8.53;8.8;8.42;8.7;7492
8.7;8.71;8.56;8.58;14336
8.58;8.62;8.37;8.52;28756
8.52;8.53;8.4;8.43;26285
8.42;8.42;8.2;8.25;18356
8.22;8.33;8.15;8.24;21514
8.25;8.3;8.18;8.29;33453
8.28;8.38;8.22;8.34;26829
8.36;8.37;8.36;8.37;3
8.4;8.4;8.38;8.38;2
