<OPEN>;<HIGH>;<LOW>;<CLOSE>;<VOL>
101.15;103.68;99.53;103.5;32873
103.35;103.67;101.94;102.46;63362
102.54;104.29;102.28;102.77;52769
102.7;102.8;100.46;102.01;45742
102.0;103.35;101.75;101.92;34174
101.94;101.94;100.44;100.67;48096
100.63;100.7;99.19;99.67;127563
99.77;99.77;99.77;99.77;30586
102.67;102.67;101.94;101.94;10
102.07;102.07;102.07;102.07;1
102.37;103.11;98.57;102.37;16527
102.58;103.04;101.71;102.01;22068
102.02;102.18;101.81;101.98;14433
101.98;102.17;101.68;101.93;15464
101.99;102.06;101.48;101.98;13923
102.0;102.0;101.23;101.44;18372
101.43;101.51;99.88;100.5;96228
100.53;100.53;100.53;100.53;17416
100.63;100.63;100.55;100.55;2
101.08;101.08;98.9;100.02;13259
99.97;100.57;99.46;100.05;26230
100.07;100.88;100.04;100.75;17395
100.77;100.9;100.27;100.79;15781
100.74;101.02;100.16;100.28;18228
100.38;100.7;99.9;100.29;19562
100.38;100.73;99.92;100.02;53207
99.93;99.93;99.93;99.93;57074
101.69;101.69;99.15;99.27;15034
99.26;99.84;99.07;99.75;16872
99.71;100.39;99.0;99.55;10607
99.52;99.95;99.38;99.79;14353
99.79;99.81;98.89;99.3;13966
99.28;99.41;98.88;99.14;19414
99.14;99.14;97.91;98.64;94661
98.6;98.62;98.6;98.62;21225
99.63;99.63;99.63;99.63;1
98.21;98.42;96.72;97.69;6297
97.82;98.62;97.57;97.57;16928
97.61;97.72;95.37;95.83;31345
95.83;95.86;94.0;94.81;23669
94.77;94.77;93.48;93.52;15926
93.27;93.95;92.34;92.34;15124
92.46;93.7;91.97;93.7;40801
93.52;93.52;93.52;93.52;22601
