<OPEN>;<HIGH>;<LOW>;<CLOSE>;<VOL>
5.73;5.88;5.7;5.76;255391
5.77;5.82;5.66;5.79;294068
5.79;5.91;5.78;5.87;240152
5.88;5.89;5.78;5.82;107634
5.82;5.82;5.76;5.8;90110
5.79;5.8;5.72;5.73;127379
5.73;5.78;5.71;5.78;239483
5.78;5.8;5.74;5.8;139289
5.8;5.8;5.77;5.8;574
5.79;5.81;5.78;5.8;152
5.71;5.9;5.64;5.82;3381
5.83;5.86;5.82;5.85;437
5.85;5.86;5.84;5.86;1000
5.85;5.86;5.81;5.86;2060
5.86;5.87;5.81;5.86;1069
5.85;5.94;5.82;5.9;13773
5.89;5.92;5.8;5.9;136799
5.9;6.18;5.88;6.04;406062
6.04;6.1;6.03;6.06;121744
6.06;6.1;6.05;6.08;64953
6.08;6.22;6.07;6.2;151664
6.2;6.4;6.17;6.33;366958
6.33;6.48;6.32;6.45;616098
6.46;6.46;6.25;6.4;331084
6.41;6.43;6.39;6.43;1932
6.41;6.41;6.37;6.37;1818
6.25;6.49;6.13;6.46;7699
6.42;6.47;6.38;6.4;4155
6.4;6.44;6.38;6.4;2821
6.39;6.41;6.38;6.41;1692
6.4;6.41;6.3;6.3;6210
6.3;6.4;6.21;6.29;23207
6.28;6.39;6.15;6.18;294682
6.18;6.22;6.05;6.13;299254
6.13;6.27;6.12;6.25;187501
6.25;6.33;6.22;6.25;152208
6.26;6.34;6.25;6.27;128836
6.26;6.28;6.18;6.18;180714
6.18;6.26;6.18;6.21;253802
6.2;6.22;6.18;6.19;300403
6.2;6.23;6.19;6.22;835
6.22;6.23;6.22;6.23;4051
6.23;6.23;6.1;6.17;3821
6.2;6.27;6.17;6.24;1442
6.24;6.24;6.18;6.21;422
6.21;6.24;6.2;6.22;1202
6.24;6.3;6.22;6.3;2273
6.3;6.3;6.27;6.29;477
6.28;6.3;6.05;6.16;369274
6.16;6.19;6.05;6.09;147448
6.1;6.17;6.08;6.12;118095
6.12;6.16;6.08;6.12;88770
6.13;6.13;5.97;6.02;214473
6.02;6.02;5.92;5.98;139229
5.98;6.0;5.86;5.86;321259
5.86;5.88;5.83;5.84;189859
5.82;5.85;5.82;5.82;2576
5.81;5.83;5.81;5.83;596
5.81;5.94;5.72;5.92;4240
5.91;5.92;5.85;5.91;2333
5.86;5.9;5.83;5.88;1392
5.88;5.9;5.84;5.89;3018
5.9;6.0;5.9;5.98;2425
5.98;5.98;5.94;5.95;15937
5.95;5.95;5.61;5.75;310158
5.75;5.82;5.58;5.6;237807
5.6;5.61;5.42;5.51;380038
5.51;5.55;5.42;5.54;215427
5.53;5.57;5.42;5.45;158884
5.45;5.51;5.39;5.39;158717
5.4;5.46;5.36;5.44;333966
5.45;5.6;5.44;5.58;238243
5.57;5.59;5.55;5.56;564
5.56;5.57;5.55;5.57;4773
5.56;5.7;5.47;5.7;2737
