<OPEN>;<HIGH>;<LOW>;<CLOSE>;<VOL>
24.45;25.2;24.34;24.75;17617
24.77;24.82;24.47;24.5;28502
24.51;25.05;24.5;24.95;21255
24.98;25.07;24.66;24.81;21723
24.81;24.86;24.64;24.75;16008
24.73;24.76;24.58;24.61;21742
24.63;24.94;24.57;24.88;43242
24.9;24.9;24.9;24.9;1082
25.18;25.18;25.18;25.18;1
25.18;25.18;25.18;25.18;1
25.19;25.37;25.19;25.19;33
25.2;25.35;25.18;25.18;48
25.18;25.37;25.17;25.18;12
25.17;25.38;25.17;25.38;14
25.38;25.38;25.0;25.0;927
25.08;25.15;25.08;25.1;600
25.16;25.42;24.97;25.22;21825
25.3;25.6;25.3;25.54;25336
25.53;25.73;25.51;25.55;27125
25.57;25.78;25.54;25.76;23048
25.76;25.88;25.62;25.78;22225
25.77;25.94;25.68;25.93;28400
25.95;26.18;25.83;26.12;61404
26.13;26.49;26.13;26.15;828
25.01;25.8;25.01;25.8;9
26.29;26.29;25.98;25.98;50
25.81;25.81;25.8;25.8;8
25.55;25.74;25.55;25.74;9
25.59;25.59;25.59;25.59;1
25.57;25.98;25.31;25.72;32256
25.74;26.14;25.72;25.9;31809
25.88;26.3;25.85;26.27;20677
26.27;26.62;26.25;26.62;14102
26.59;26.78;26.53;26.58;17153
26.59;26.76;26.42;26.7;17575
26.7;26.78;26.43;26.51;37645
25.66;26.5;25.3;25.3;187
26.2;26.2;26.2;26.2;1
26.2;26.2;26.2;26.2;2
26.17;26.58;26.17;26.58;12
26.51;26.51;26.5;26.5;14
26.69;26.82;26.46;26.75;15685
26.8;26.88;26.62;26.77;18823
26.78;27.12;26.63;27.11;19536
27.08;27.09;26.79;26.81;18937
26.81;26.9;26.56;26.9;17374
26.93;26.95;26.68;26.85;16072
26.84;26.86;26.38;26.47;55381
26.5;26.5;26.3;26.3;93
26.4;26.4;26.4;26.4;5
26.43;26.43;26.43;26.43;1
26.25;26.25;26.23;26.23;10
26.02;26.54;25.97;26.1;23305
26.12;26.74;26.09;26.27;15120
26.26;26.56;26.14;26.54;64602
26.52;26.61;25.58;26.06;38357
26.1;26.56;25.95;26.25;17618
26.24;26.42;26.21;26.23;17809
26.25;26.71;26.2;26.58;42903
26.57;26.57;26.5;26.5;282
