<OPEN>;<HIGH>;<LOW>;<CLOSE>;<VOL>
48.12;48.82;48.12;48.71;35352
48.72;48.76;48.32;48.49;47056
48.55;49.03;48.38;48.9;69211
48.92;48.99;48.63;48.75;47263
48.79;48.98;48.7;48.75;47751
48.74;48.74;48.35;48.47;40097
48.48;48.64;48.35;48.5;86242
48.52;48.52;48.52;48.52;198
49.56;49.56;48.8;49.0;27
49.5;49.61;48.7;49.61;93
49.49;49.49;49.49;49.49;1
49.4;49.4;48.6;48.82;28837
48.88;48.94;48.12;48.28;38312
48.26;48.85;48.26;48.78;40370
48.81;49.0;48.77;48.97;36241
48.96;49.15;48.94;48.96;53321
48.96;50.09;48.96;50.03;111243
50.04;50.24;49.76;49.89;198921
49.88;49.88;49.81;49.81;184
50.15;50.15;50.15;50.15;2
50.6;50.7;50.3;50.68;686
50.69;50.69;50.43;50.46;218
50.31;51.54;50.3;51.54;140
51.54;51.81;51.0;51.81;209
52.0;59.63;51.84;53.78;2670
53.78;54.52;53.47;53.85;4125
53.76;54.1;52.15;53.92;158953
53.88;54.2;52.41;52.57;144356
52.58;53.0;52.13;52.71;95553
52.74;53.26;52.44;53.13;69248
53.13;53.37;52.86;53.15;55036
53.14;53.29;52.83;53.23;60392
53.23;53.56;53.05;53.25;125277
52.95;53.24;52.31;52.31;1571
53.3;53.33;52.9;53.24;512
52.47;53.31;52.47;52.65;22
52.66;52.69;52.59;52.6;48
52.58;53.3;52.58;53.15;48
53.2;53.41;53.12;53.37;56
53.29;53.5;53.12;53.5;43
53.5;53.99;53.16;53.36;93
53.57;54.27;52.52;52.63;40354
52.66;52.69;51.78;51.91;58602
51.93;51.96;51.62;51.71;38174
51.68;51.79;51.48;51.63;29006
51.62;51.62;50.97;51.11;32013
51.07;51.49;50.98;51.46;44878
51.41;51.41;50.09;50.09;102328
50.1;52.07;49.82;49.82;255
52.05;52.05;49.75;50.0;1630
52.05;52.05;52.05;52.05;1
50.21;50.21;49.14;50.02;78
50.02;50.03;49.31;50.03;14
50.17;50.17;50.17;50.17;10
50.3;50.3;50.3;50.3;1
50.9;51.0;50.9;51.0;23
50.26;50.5;49.18;49.19;30307
49.22;49.44;48.67;48.81;62625
48.8;48.83;48.0;48.25;56977
48.23;48.25;47.78;48.1;50085
48.11;48.15;47.84;47.9;34185
47.86;47.98;47.4;47.42;36588
47.43;47.7;47.27;47.58;145846
47.6;50.99;47.6;50.99;153
49.97;49.97;49.97;49.97;10
49.97;49.97;47.33;47.33;66
47.03;47.75;47.0;47.75;45
