<OPEN>;<HIGH>;<LOW>;<CLOSE>;<VOL>
151.29;152.98;151.29;151.42;5650
151.55;151.55;148.22;149.11;9155
149.39;151.59;148.98;151.5;6855
151.4;151.51;150.52;150.81;6010
150.94;151.18;149.44;149.66;8563
149.69;149.78;147.79;148.46;12973
148.41;148.59;145.9;146.15;41858
146.16;146.16;146.16;146.16;21769
149.0;149.42;147.84;148.46;6209
148.5;148.94;147.75;148.13;12280
148.26;149.04;147.93;148.93;13596
149.01;151.39;149.01;151.39;11261
151.4;151.58;150.75;151.14;10024
151.22;152.27;150.93;152.17;15172
152.1;152.41;151.28;151.83;28866
151.82;151.82;151.82;151.82;20271
152.73;153.49;150.9;153.3;4750
153.49;153.49;149.55;149.55;8530
149.71;149.71;148.48;149.03;9436
149.17;149.67;148.46;148.87;8971
148.88;149.0;148.37;148.51;8468
148.58;148.62;147.38;148.39;13121
148.42;148.46;147.37;148.04;42807
147.99;147.99;147.99;147.99;61957
149.9;149.9;147.14;147.18;3804
147.51;147.82;146.17;146.83;8569
146.85;147.92;146.5;146.81;8265
146.77;147.03;146.04;147.03;6235
146.93;146.96;145.6;146.03;7096
146.02;146.36;145.32;146.0;12395
145.92;146.56;143.45;143.56;41660
143.56;143.56;143.43;143.43;19404
143.45;144.65;141.41;144.44;6382
144.44;144.84;143.17;143.17;7117
143.1;143.19;139.82;140.16;14692
140.22;141.8;139.37;141.58;6828
141.69;142.39;141.23;142.14;8119
142.13;142.6;141.28;141.28;9637
141.44;142.42;140.93;142.32;37075
142.29;142.29;142.29;142.29;18421
