<OPEN>;<HIGH>;<LOW>;<CLOSE>;<VOL>
67.64;67.77;66.9;67.19;72755
67.18;67.4;66.68;66.87;46464
66.94;67.55;66.94;67.41;42530
67.43;67.54;67.06;67.27;28183
67.28;67.34;66.88;67.08;41796
67.08;67.36;66.9;67.15;51746
67.17;67.29;66.8;66.99;171055
66.99;66.99;66.99;66.99;286887
68.18;68.18;68.18;68.18;3
68.1;68.1;68.1;68.1;1
67.6;67.6;67.6;67.6;475
67.83;68.74;67.52;67.64;55695
67.66;67.82;67.41;67.46;91752
67.46;68.27;67.36;68.22;76061
68.22;68.58;68.22;68.53;40844
68.5;68.53;68.04;68.14;38835
68.14;68.52;68.06;68.5;45151
68.51;68.94;68.48;68.75;145478
68.75;68.75;68.75;68.75;152643
68.75;68.75;68.75;68.75;1
68.75;68.75;68.75;68.75;1
68.9;68.9;68.9;68.9;1
69.13;69.57;68.46;68.59;47243
68.57;68.8;68.18;68.28;60703
68.28;68.5;68.19;68.3;39603
68.32;68.44;68.17;68.4;47720
68.41;68.84;68.23;68.72;66788
68.74;68.74;68.24;68.52;54042
68.53;68.66;68.28;68.45;112166
68.44;68.44;68.44;68.44;156744
69.74;69.74;67.7;67.79;57293
67.81;67.91;67.31;67.48;77783
67.48;67.55;66.82;67.12;83659
67.1;67.1;66.27;66.57;98938
66.62;67.08;66.48;67.05;84900
67.04;67.51;66.83;67.35;166512
67.34;67.4;66.22;66.22;354000
66.23;66.23;66.0;66.0;300184
65.75;65.75;65.75;65.75;3
66.06;66.06;66.06;66.06;5
66.05;66.35;65.41;66.17;44752
66.2;66.32;65.64;65.66;58036
65.66;65.98;64.83;64.97;57950
64.94;65.12;64.67;65.07;49772
65.06;65.1;64.68;64.82;57231
64.79;65.01;64.63;64.64;45362
64.65;65.09;64.44;64.95;158938
64.95;64.96;64.94;64.94;228312
64.98;64.98;64.98;64.98;1
65.02;65.02;65.02;65.02;1
