<OPEN>;<HIGH>;<LOW>;<CLOSE>;<VOL>
38.58;38.84;38.2;38.33;13357
38.32;38.32;38.14;38.15;16164
38.16;38.34;38.16;38.34;13232
38.35;38.35;38.21;38.27;19303
38.28;38.29;38.19;38.24;10286
38.24;38.24;38.14;38.17;12705
38.17;38.23;38.12;38.18;28326
38.16;38.16;38.1;38.1;1395
38.11;38.11;38.1;38.1;18
38.55;39.85;38.55;39.85;31
38.52;38.68;38.52;38.66;122
38.51;38.65;38.51;38.65;2
38.63;38.64;38.5;38.5;20
38.62;38.64;38.49;38.49;37
38.49;38.57;38.49;38.56;9
38.56;38.64;38.56;38.64;7
38.45;38.64;38.32;38.43;9547
38.45;38.61;38.45;38.51;18818
38.5;38.54;38.45;38.5;13408
38.48;38.5;38.41;38.45;13632
38.44;38.44;38.38;38.41;11305
38.42;38.46;38.4;38.43;15709
38.44;38.52;38.4;38.47;42945
38.48;38.8;38.38;38.38;410
38.75;38.75;38.75;38.75;5
38.9;38.93;38.56;38.7;91
38.92;38.94;38.51;38.94;78
38.7;38.72;38.67;38.72;15
38.73;38.73;38.38;38.38;281
38.31;38.31;38.25;38.25;90
38.28;38.45;38.25;38.45;52
38.26;38.48;37.92;37.92;13947
37.92;37.97;37.78;37.78;28016
37.78;37.94;37.69;37.92;42265
37.93;38.1;37.91;38.07;34262
38.06;38.12;37.99;37.99;21677
37.99;38.0;37.92;37.97;17462
37.98;38.06;37.92;37.92;50394
37.92;38.3;37.74;37.78;1877
37.9;37.9;37.9;37.9;10
37.9;38.06;37.72;38.05;158
38.01;38.04;38.01;38.04;13
38.0;38.04;37.83;38.03;42
38.0;38.0;37.8;37.8;35
37.78;37.93;37.78;37.92;725
37.92;37.97;37.62;37.64;2072
37.6;37.91;37.55;37.63;15058
37.66;37.76;37.6;37.72;32243
37.72;37.76;37.63;37.72;16067
37.71;37.74;37.66;37.69;14784
37.69;37.69;37.48;37.53;29064
37.53;37.62;37.46;37.61;15695
37.59;37.59;37.17;37.18;53945
37.13;37.87;37.08;37.78;4635
37.08;37.08;37.08;37.08;1000
37.26;37.29;36.9;37.23;108
37.05;37.27;37.0;37.26;125
37.1;37.27;37.1;37.27;45
37.47;37.52;37.32;37.32;23
37.33;37.38;37.33;37.37;144
37.35;37.79;37.22;37.55;314
37.75;37.75;37.14;37.16;7360
37.18;37.32;37.13;37.13;21508
37.12;37.19;36.9;36.95;15389
36.95;36.97;36.83;36.96;20679
36.96;36.99;36.88;36.91;10051
36.89;36.92;36.85;36.89;11683
36.9;37.05;36.84;37.02;49925
36.99;36.99;36.99;36.99;619
37.39;37.51;37.39;37.46;114
37.46;37.46;37.46;37.46;10
37.15;37.15;37.14;37.15;13
