<OPEN>;<HIGH>;<LOW>;<CLOSE>;<VOL>
14.1;14.5;13.86;14.15;62893
14.15;14.16;13.74;13.91;174485
13.93;14.31;13.93;14.12;64960
14.11;14.17;13.92;14.04;46617
14.04;14.07;13.82;13.86;43425
13.87;13.9;13.37;13.52;84474
13.52;13.67;13.42;13.6;133953
13.6;13.7;13.51;13.7;991
13.65;14.25;13.52;14.25;297
12.96;13.7;12.95;13.7;122
13.58;14.0;13.55;14.0;107
14.0;14.0;13.64;13.9;3
13.98;14.03;13.98;14.03;68
14.2;14.2;14.2;14.2;70
14.1;14.26;13.83;14.2;34155
14.2;14.44;13.95;14.21;74004
14.23;14.26;14.04;14.23;62446
14.24;14.43;14.17;14.4;52636
14.41;14.48;14.34;14.44;61036
14.44;14.95;14.4;14.94;119922
14.95;15.14;14.77;15.09;224394
15.15;15.2;13.93;15.15;2593
15.18;15.5;15.18;15.48;5354
14.31;14.31;14.31;14.31;2
15.3;15.56;14.83;15.26;419
15.26;15.27;14.9;14.98;57
14.97;14.98;14.8;14.95;90
14.95;15.35;14.73;14.94;88
14.75;14.75;14.31;14.41;215
14.69;15.01;14.65;14.65;921
14.63;15.64;14.4;14.5;109126
14.49;14.6;14.08;14.51;145240
14.5;14.79;14.36;14.69;75829
14.69;14.99;14.6;14.97;61268
14.96;14.99;14.59;14.62;58080
14.62;14.62;14.19;14.37;90289
14.38;14.4;14.0;14.02;191938
14.0;14.0;14.0;14.0;384
14.07;14.07;14.07;14.07;142
14.07;14.8;14.07;14.8;36
14.19;14.79;14.1;14.79;47
14.15;14.19;14.15;14.19;78
14.16;14.18;14.16;14.18;82
14.43;14.43;14.2;14.39;29
14.26;14.43;14.25;14.3;1941
14.31;14.78;14.05;14.48;54842
14.47;14.67;14.21;14.37;177595
14.36;14.7;14.31;14.7;113830
14.69;15.11;14.65;14.98;76054
14.99;14.99;14.63;14.71;57557
14.73;14.79;14.59;14.75;70743
14.75;14.97;14.42;14.44;198121
14.44;14.8;14.4;14.4;795
14.44;14.44;14.42;14.42;5
14.42;14.42;14.42;14.42;2
14.65;14.65;14.1;14.31;44
14.26;14.49;14.26;14.49;11
14.29;14.29;14.29;14.29;20
14.54;14.6;14.54;14.6;21
14.59;14.59;14.5;14.59;10
14.6;14.7;14.55;14.7;82
14.51;14.95;13.54;13.69;117447
13.74;13.8;13.06;13.07;302396
13.08;13.22;12.8;12.83;213489
12.83;12.97;12.54;12.75;173798
12.75;12.94;12.61;12.68;132830
12.69;12.76;12.52;12.58;214092
12.58;12.81;12.5;12.63;227242
12.65;14.0;12.63;14.0;5322
13.8;13.8;12.9;12.9;2300
12.9;13.7;12.9;13.7;5855
13.08;13.09;13.05;13.06;46
