<OPEN>;<HIGH>;<LOW>;<CLOSE>;<VOL>
176.99;180.17;175.02;179.97;83583
180.06;181.25;178.7;180.92;74129
181.03;182.31;180.32;182.26;60760
182.35;182.45;180.49;180.85;36061
180.78;181.09;179.91;180.0;29817
180.0;180.0;178.94;179.32;71220
179.27;179.49;177.93;178.48;171127
178.49;178.49;178.49;178.49;116189
178.94;182.16;178.94;182.16;8
181.56;181.56;181.56;181.56;60
181.0;181.0;181.0;181.0;11
183.65;183.65;179.7;180.97;51117
181.01;181.45;180.33;180.36;65857
180.4;180.94;179.89;180.55;29742
180.46;180.82;180.26;180.47;21874
180.48;180.78;179.93;180.13;27707
180.16;180.52;179.91;180.03;52404
180.04;181.81;180.02;181.53;144194
181.53;181.54;181.5;181.54;127750
182.0;182.0;182.0;182.0;1
181.13;181.13;181.13;181.13;3
180.01;180.01;179.89;179.89;3
179.99;180.0;179.99;180.0;3
179.01;181.31;179.01;181.31;2
179.03;183.88;178.39;183.62;63777
183.63;184.48;182.29;184.16;85945
184.16;184.85;183.9;184.54;38515
184.57;184.74;184.16;184.41;24905
184.42;185.1;184.38;184.56;26801
184.52;184.61;183.37;184.58;31026
184.58;184.93;184.0;184.32;110383
184.17;185.15;184.17;184.63;395085
184.32;184.32;184.32;184.32;1
185.22;185.24;185.22;185.24;2
184.5;186.41;181.22;181.38;53968
181.35;182.39;180.78;181.53;35935
181.44;182.0;179.99;180.61;48132
180.59;181.56;180.5;181.23;34471
181.21;181.39;180.59;181.05;23765
181.04;181.61;180.52;181.48;35671
181.43;181.64;179.0;179.18;128998
179.18;179.18;179.13;179.18;126889
180.6;180.6;177.2;177.2;7
177.2;178.97;177.2;178.97;4
179.93;179.93;179.93;179.93;1
178.67;178.67;174.41;176.59;123905
176.47;179.06;176.23;178.02;52033
177.97;179.0;176.63;177.17;56438
177.11;178.68;176.64;178.56;43345
178.64;178.7;177.42;178.24;38015
178.24;178.99;177.54;177.7;30904
177.67;178.85;176.71;177.96;101779
177.96;177.96;177.96;177.96;131455
177.96;177.96;177.96;177.96;5
179.64;179.68;179.64;179.68;2
