<OPEN>;<HIGH>;<LOW>;<CLOSE>;<VOL>
297.45;299.95;297.45;299.28;1827
298.95;300.48;297.3;297.6;5038
297.36;301.7;297.06;301.22;5505
301.38;302.53;300.75;302.21;5158
302.29;303.74;302.05;302.47;4754
302.44;302.56;301.61;302.49;3981
302.35;304.86;302.19;303.73;34160
308.05;308.54;305.35;305.99;1578
305.83;306.77;303.15;304.25;9811
304.3;307.9;303.69;307.67;7137
307.79;308.17;304.88;305.28;10000
305.37;305.56;303.08;304.22;4859
304.06;304.27;302.54;303.48;5911
303.45;305.57;303.01;304.4;14507
304.52;304.52;304.52;304.52;8
304.43;307.04;303.6;305.68;1513
305.56;308.43;305.42;307.53;14691
307.59;308.27;306.68;307.55;7528
307.63;307.81;306.28;306.95;10056
306.73;309.84;306.48;309.32;7020
309.47;309.53;306.33;308.25;11161
308.38;309.06;307.23;307.82;14802
308.82;309.8;306.99;309.48;3115
309.25;313.75;309.02;313.75;11330
313.47;313.52;310.42;310.66;3207
310.78;311.02;309.65;310.56;3594
310.41;310.55;308.99;310.4;4931
310.22;310.67;307.86;307.86;7074
307.86;308.07;303.67;303.88;19562
303.05;303.05;298.46;301.18;4226
301.32;303.84;299.51;301.93;7307
302.08;302.36;297.5;299.2;9529
299.34;299.57;296.21;296.96;9295
296.99;296.99;294.49;294.96;6756
294.83;296.17;293.21;293.31;6888
293.42;296.83;293.12;296.63;18032
296.42;296.42;296.42;296.42;6
