<OPEN>;<HIGH>;<LOW>;<CLOSE>;<VOL>
9.99;10.29;9.4;9.68;387294
9.68;9.92;9.52;9.87;328461
9.87;10.06;9.82;9.82;242646
9.83;9.84;9.66;9.75;146883
9.76;9.83;9.67;9.73;132299
9.72;9.77;9.6;9.62;139579
9.62;9.64;9.5;9.51;555315
9.52;9.68;9.52;9.57;6161
9.57;9.57;9.55;9.57;377
9.57;9.57;9.57;9.57;184
9.55;9.77;9.55;9.71;144
9.7;9.77;9.68;9.77;79
9.77;9.78;9.62;9.7;147
9.7;9.7;9.66;9.7;157
9.7;9.7;9.7;9.7;29
9.66;9.69;9.56;9.6;1322
9.67;10.02;9.59;9.98;168958
9.99;10.12;9.78;9.82;222869
9.82;9.9;9.82;9.88;139339
9.88;9.94;9.85;9.86;54915
9.87;9.89;9.84;9.87;85718
9.87;9.93;9.83;9.92;84020
9.92;9.99;9.9;9.93;241573
9.94;10.0;9.86;10.0;1051
9.94;10.09;9.84;10.09;211
10.09;10.1;9.92;9.92;94
10.01;10.01;9.95;10.0;22
9.99;9.99;9.91;9.98;48
9.98;9.98;9.92;9.92;19
9.92;9.92;9.85;9.89;990
9.89;9.9;9.66;9.77;104677
9.76;9.78;9.66;9.66;271249
9.66;9.82;9.65;9.78;129821
9.78;9.88;9.78;9.88;100613
9.88;9.9;9.82;9.82;63010
9.82;9.82;9.72;9.73;134695
9.74;9.76;9.64;9.66;561466
9.67;9.73;9.67;9.7;2292
9.89;9.9;9.75;9.75;24
9.88;9.88;9.8;9.8;2
9.74;9.79;9.65;9.78;61
9.8;9.8;9.77;9.78;312
9.76;9.8;9.76;9.8;15
9.79;9.82;9.79;9.82;36
9.82;9.82;9.8;9.82;91
9.76;9.82;9.76;9.76;170
9.75;9.9;9.71;9.88;106531
9.88;9.95;9.81;9.85;157306
9.85;9.92;9.82;9.86;98028
9.86;9.96;9.86;9.94;91236
9.94;9.94;9.84;9.85;64902
9.84;9.85;9.78;9.82;67794
9.82;9.84;9.72;9.72;315365
9.73;9.73;9.73;9.73;1890
9.7;9.84;9.7;9.84;8
9.7;9.7;9.7;9.7;4
9.7;9.8;9.7;9.78;18
9.79;9.8;9.73;9.76;20
9.78;9.79;9.77;9.79;28
9.81;9.81;9.81;9.81;8
9.81;9.81;9.8;9.81;16
9.81;9.86;9.81;9.84;181
9.79;9.81;9.42;9.46;158845
9.47;9.5;9.17;9.18;294795
9.18;9.18;8.95;9.03;429271
9.03;9.17;8.99;9.16;288823
9.16;9.27;9.1;9.14;244280
9.13;9.16;9.09;9.09;132370
9.1;9.21;9.02;9.18;416704
9.19;9.45;9.15;9.45;3678
9.45;9.45;9.45;9.45;20
9.24;9.31;9.23;9.29;300
