<OPEN>;<HIGH>;<LOW>;<CLOSE>;<VOL>
151.42;154.17;149.01;153.0;680
153.5;155.09;151.42;153.76;1140
153.75;154.86;153.49;154.86;201
155.15;155.15;153.05;153.22;1378
154.71;155.95;154.3;154.56;356
154.2;155.38;153.65;155.04;806
154.8;154.8;152.86;154.21;2172
153.73;153.73;153.73;153.73;1856
158.52;158.52;155.0;157.39;567
157.4;158.04;156.75;157.54;416
156.07;158.72;156.07;157.71;677
158.1;159.77;157.78;159.77;687
159.2;159.48;158.03;158.72;362
158.77;160.0;158.51;159.46;1309
159.48;161.16;159.48;161.08;3574
161.39;161.39;161.39;161.39;9990
161.79;161.79;156.78;157.9;658
157.14;157.15;154.98;156.24;507
155.76;158.25;155.58;157.51;165
158.33;162.06;158.31;160.28;396
161.18;162.66;160.96;162.01;817
162.57;162.57;160.85;161.14;919
161.25;162.79;159.1;159.34;2962
160.05;160.05;160.05;160.05;8041
162.7;162.7;154.16;155.06;919
155.06;157.52;154.85;157.28;670
157.3;157.34;156.5;156.61;765
156.95;158.29;155.66;157.91;955
157.2;157.26;155.7;156.74;926
156.73;157.64;154.17;155.25;570
155.59;155.59;149.33;149.34;3581
149.44;149.44;149.44;149.44;7312
146.93;148.39;143.83;143.84;742
143.84;145.81;143.46;143.92;412
144.27;144.27;140.24;140.57;882
141.32;141.81;138.0;140.44;858
140.87;142.29;139.0;140.92;1000
140.9;142.85;140.22;140.5;1067
142.32;142.32;140.5;140.6;5364
140.97;140.97;140.97;140.97;7836
