<OPEN>;<HIGH>;<LOW>;<CLOSE>;<VOL>
175.0;175.48;173.86;174.59;21704
174.58;174.77;173.83;174.28;27650
174.29;175.81;174.29;175.11;17931
175.18;175.82;175.13;175.45;14780
175.4;175.56;174.68;174.68;13052
174.71;174.76;174.1;174.63;28624
174.68;175.29;173.25;173.54;50644
173.6;176.0;173.6;176.0;15
175.84;175.99;175.84;175.99;2
174.81;174.81;173.5;173.73;21616
173.82;174.45;173.39;173.85;26742
173.92;175.47;173.72;175.46;30673
175.48;175.82;175.05;175.11;21799
175.12;175.8;175.0;175.21;24737
175.2;176.15;175.19;175.67;44409
175.71;176.79;175.44;176.28;71673
176.36;176.36;176.3;176.3;93
177.92;177.92;177.92;177.92;1
177.0;177.0;177.0;177.0;13
176.29;180.9;176.29;180.38;29442
180.54;183.02;180.54;181.65;59817
181.76;183.12;181.29;182.26;43555
182.3;184.48;182.22;184.41;44480
184.41;184.95;183.88;184.57;47566
184.56;184.66;183.11;183.5;44381
183.52;183.83;182.61;183.0;79404
183.04;183.04;183.0;183.0;293
183.04;183.04;183.04;183.04;1
182.83;182.83;182.83;182.83;3
183.0;183.0;183.0;183.0;3
182.9;182.9;182.9;182.9;1
183.16;183.16;183.16;183.16;1
184.0;185.0;184.0;184.0;18
184.0;184.91;182.08;184.3;33247
184.34;184.75;182.4;182.99;38373
182.99;183.22;182.14;182.16;19276
182.16;182.55;181.75;182.0;29409
182.04;183.07;181.91;182.94;50820
183.03;183.54;182.42;183.04;48591
183.0;183.0;181.53;181.79;95039
181.73;181.73;180.75;180.75;290
178.8;180.75;178.8;180.75;8
181.99;181.99;181.99;181.99;2
182.94;183.0;182.94;183.0;32
183.0;183.25;181.5;182.07;37197
182.2;183.81;182.2;182.82;95496
182.86;183.27;180.65;181.08;96087
181.0;182.12;179.03;181.82;89938
181.84;181.85;180.57;180.96;111243
180.88;181.55;179.92;180.15;55955
180.2;181.92;180.08;181.89;65483
181.57;181.57;181.57;181.57;7
182.3;182.3;182.3;182.3;1
