<OPEN>;<HIGH>;<LOW>;<CLOSE>;<VOL>
17.09;17.14;16.63;16.63;3299
16.55;16.85;16.45;16.77;8140
16.78;17.12;16.75;17.09;4418
17.13;17.13;16.89;17.05;3876
17.05;17.07;16.81;16.82;3630
16.81;16.81;16.62;16.64;4606
16.62;16.87;16.62;16.83;19011
16.81;16.81;16.81;16.81;10269
17.59;17.59;17.59;17.59;2
17.23;17.32;17.13;17.32;1350
17.4;17.4;17.21;17.3;2998
17.33;17.54;17.3;17.4;5015
17.4;17.46;17.37;17.4;3260
17.4;17.5;17.37;17.47;7861
17.47;17.5;17.4;17.43;5449
17.48;17.52;17.4;17.5;19596
17.5;17.5;17.3;17.3;71899
17.08;17.39;17.07;17.24;7663
17.25;17.28;17.13;17.23;23622
17.21;17.34;17.2;17.33;7690
17.33;17.59;17.33;17.55;5844
17.55;17.63;17.43;17.46;4951
17.48;17.48;17.36;17.39;3192
17.41;17.55;17.4;17.47;13708
17.47;17.47;17.47;17.47;29707
17.95;17.95;17.95;17.95;1
17.53;17.53;17.12;17.27;1516
17.21;17.27;16.78;17.03;6174
16.99;17.0;16.74;16.87;3955
16.93;17.06;16.87;17.03;2924
17.01;17.02;16.81;17.0;4497
16.95;17.05;16.92;16.97;3673
16.97;16.97;16.65;16.68;27691
16.7;16.7;16.7;16.7;21948
16.47;16.69;15.84;15.96;6341
15.99;16.25;15.66;15.66;8557
15.64;15.69;15.26;15.36;5490
15.38;15.62;15.18;15.36;14258
15.31;15.41;15.24;15.25;5956
15.26;15.27;15.1;15.13;8107
15.1;15.41;15.1;15.34;23489
15.36;15.36;15.36;15.36;18742
