<OPEN>;<HIGH>;<LOW>;<CLOSE>;<VOL>
22.0;22.0;19.92;21.14;279933
21.14;21.55;20.7;21.18;349345
21.18;21.2;20.54;20.56;193309
20.56;20.75;20.45;20.55;270601
20.56;20.56;20.1;20.19;229944
20.17;20.41;19.94;19.95;223662
19.96;20.03;19.76;19.87;634054
19.88;20.2;19.88;20.17;1922
20.0;20.2;19.75;20.2;576
20.52;20.52;20.3;20.3;23
20.3;20.35;20.3;20.35;19
20.35;20.35;20.28;20.28;25
20.14;20.36;20.14;20.14;12
20.14;20.14;20.1;20.1;14
20.21;20.37;20.21;20.37;800
20.3;20.59;19.25;20.08;112097
20.08;20.4;19.96;20.12;173293
20.12;20.43;20.1;20.26;135672
20.25;20.27;20.04;20.1;124037
20.1;20.12;19.64;19.66;218287
19.65;19.67;19.28;19.59;382306
19.59;20.01;19.42;19.84;523256
19.84;20.12;19.84;20.12;539
20.1;20.1;20.1;20.1;1
20.43;20.43;19.91;20.17;65
20.15;20.24;20.01;20.01;78
20.2;20.4;20.2;20.4;13
20.1;20.34;20.1;20.34;3
20.1;20.1;19.8;19.84;127
19.84;19.84;19.67;19.67;71
19.84;20.11;19.41;19.88;112346
19.89;20.1;19.89;19.95;228055
19.95;20.34;19.93;20.29;130930
20.3;20.42;20.19;20.38;93739
20.38;20.71;20.24;20.59;175351
20.6;20.83;20.53;20.79;115611
20.79;21.05;20.75;20.78;327723
20.77;20.77;20.77;20.77;328
20.4;21.4;20.4;21.4;3
20.63;20.63;20.62;20.62;3
20.64;20.64;20.63;20.63;17
20.95;20.95;20.95;20.95;1
20.95;20.95;20.51;20.73;62975
20.75;20.82;20.18;20.27;128732
20.28;20.42;20.22;20.28;99158
20.27;20.58;20.23;20.57;169048
20.57;20.6;20.42;20.51;134843
20.52;20.52;20.32;20.49;115409
20.48;20.49;19.95;19.97;317338
19.98;19.98;19.98;19.98;372
19.98;20.1;19.98;20.1;3
20.09;20.09;20.09;20.09;1
19.98;19.98;19.32;19.42;75954
19.42;19.56;19.12;19.13;61503
19.14;19.29;18.9;18.99;82748
18.99;19.13;18.8;19.08;58247
19.09;19.19;19.01;19.05;40921
19.04;19.29;18.96;19.25;97425
19.25;19.44;19.11;19.28;217608
19.29;19.29;19.29;19.29;7
