<OPEN>;<HIGH>;<LOW>;<CLOSE>;<VOL>
4.43;4.6;4.21;4.28;447607
4.28;4.4;4.24;4.29;187556
4.3;4.34;4.24;4.34;90694
4.33;4.4;4.32;4.4;94664
4.4;4.42;4.3;4.32;133649
4.33;4.33;4.17;4.19;136821
4.2;4.23;4.12;4.15;228391
4.16;4.18;4.12;4.13;229741
4.18;4.21;4.16;4.16;767
4.21;4.23;4.2;4.23;190
4.29;4.29;4.19;4.22;2091
4.21;4.22;4.21;4.22;916
4.22;4.22;4.17;4.2;1861
4.19;4.22;4.17;4.19;1547
4.18;4.19;4.16;4.19;1086
4.2;4.26;4.17;4.23;1387
4.22;4.3;4.12;4.17;170898
4.17;4.17;4.04;4.05;238341
4.04;4.07;4.04;4.06;71754
4.05;4.07;4.02;4.06;84705
4.06;4.07;4.02;4.02;97667
4.02;4.09;4.0;4.08;142899
4.09;4.15;4.08;4.08;181249
4.08;4.15;4.08;4.11;258005
4.11;4.12;4.05;4.05;1344
4.06;4.12;4.06;4.08;332
4.32;4.32;4.08;4.18;11577
4.15;4.15;4.07;4.08;3545
4.08;4.14;4.08;4.11;1621
4.11;4.14;4.09;4.1;990
4.1;4.13;4.05;4.12;4663
4.1;4.14;4.05;4.09;4083
4.09;4.11;3.89;4.08;176238
4.07;4.1;3.93;3.94;217532
3.93;4.04;3.92;4.04;189662
4.04;4.06;4.02;4.04;88717
4.04;4.05;4.0;4.04;96971
4.04;4.04;3.98;4.0;135224
3.99;4.16;3.99;4.13;330924
4.12;4.12;3.97;4.1;607963
4.1;4.13;4.1;4.1;228
4.1;4.1;4.1;4.1;119
4.1;4.1;4.05;4.09;913
4.05;4.09;4.04;4.08;811
4.08;4.08;4.06;4.07;1117
4.07;4.08;4.06;4.08;777
4.06;4.09;4.03;4.09;2778
4.1;4.15;4.07;4.1;3846
4.09;4.23;4.09;4.2;113476
4.21;4.34;4.2;4.28;257607
4.28;4.41;4.24;4.39;156444
4.39;4.45;4.35;4.43;158038
4.43;4.43;4.34;4.4;121667
4.4;4.44;4.39;4.44;163176
4.43;4.45;4.26;4.28;252015
4.28;4.32;4.25;4.25;187018
4.26;4.31;4.25;4.25;156
4.25;4.29;4.24;4.29;24
4.17;4.34;4.17;4.34;3045
4.3;4.31;4.29;4.29;726
4.29;4.33;4.29;4.29;820
4.29;4.36;4.29;4.35;472
4.35;4.38;4.3;4.38;605
4.38;4.4;4.31;4.31;862
4.31;4.38;4.18;4.23;171068
4.24;4.26;4.12;4.13;161500
4.12;4.15;4.0;4.03;188352
4.03;4.06;3.95;4.02;137910
4.02;4.03;3.96;3.98;140038
3.98;4.02;3.96;3.96;119565
3.96;3.99;3.92;3.95;270838
3.95;4.04;3.95;4.04;274628
4.04;4.06;3.99;4.06;2696
4.04;4.04;4.04;4.04;4
4.04;4.08;4.0;4.01;749
