<OPEN>;<HIGH>;<LOW>;<CLOSE>;<VOL>
76.5;82.13;76.05;81.5;95422
81.65;82.62;81.17;82.01;75017
82.02;83.69;81.42;81.51;64558
81.56;83.07;81.49;82.84;36343
82.85;83.15;82.43;83.03;45460
83.1;83.32;82.39;82.9;68398
82.98;83.11;82.3;82.86;132149
82.85;82.85;82.71;82.71;63454
82.84;82.84;82.84;82.84;91
86.07;86.07;83.6;84.18;28
84.0;84.0;84.0;84.0;1
83.45;83.45;83.45;83.45;13
83.5;83.5;83.5;83.5;10
83.1;84.89;80.72;82.96;46369
83.09;83.9;82.75;83.31;83922
83.42;84.27;83.09;84.0;56115
83.95;84.9;83.5;84.59;40534
84.6;84.69;83.1;83.3;36966
83.28;83.47;82.22;82.56;29620
82.64;82.76;81.6;82.0;122460
82.01;82.01;81.4;81.4;89153
83.97;83.97;82.99;82.99;2
82.84;82.84;82.84;82.84;2
82.48;82.48;82.48;82.48;1
81.89;81.89;81.89;81.89;1
81.76;81.76;81.27;81.27;14
81.46;81.7;81.2;81.69;1037
81.7;82.49;80.35;80.97;48134
81.0;81.55;80.66;81.14;66686
81.15;81.98;80.94;81.57;45451
81.62;82.7;81.44;82.69;42711
82.66;83.5;82.66;83.23;25661
83.26;84.52;82.63;84.38;39371
84.36;84.6;83.82;84.06;98671
83.95;84.05;83.95;83.95;144771
84.49;84.49;84.49;84.49;7
84.06;84.06;83.9;83.9;17
84.0;84.0;83.51;83.51;5
84.1;84.1;84.1;84.1;1
84.28;84.28;84.28;84.28;6
84.93;85.85;83.15;83.68;48929
83.64;84.8;83.32;84.8;37945
84.81;86.72;84.76;86.27;55206
86.26;86.64;85.43;86.54;47231
86.55;86.87;85.7;86.61;44342
86.66;86.74;85.82;86.36;46137
86.32;86.49;83.11;83.2;142469
83.35;83.35;83.0;83.0;93149
82.75;82.75;82.5;82.5;108
84.0;84.0;83.99;83.99;218
83.99;84.42;81.5;83.85;49932
83.96;88.75;83.72;85.41;242819
85.33;86.94;84.13;84.58;118307
84.68;84.68;81.51;84.31;62442
84.14;84.15;83.01;83.61;63239
83.6;85.16;83.42;83.75;49690
83.8;84.7;83.52;84.6;91313
84.59;84.59;84.5;84.5;61267
84.68;84.68;84.68;84.68;1
84.01;84.01;84.01;84.01;2
