<OPEN>;<HIGH>;<LOW>;<CLOSE>;<VOL>
3.85;3.97;3.79;3.89;29765
3.86;3.9;3.78;3.8;41064
3.8;3.86;3.78;3.84;6217
3.84;3.87;3.8;3.83;5770
3.83;3.87;3.81;3.85;5052
3.85;3.88;3.81;3.83;8790
3.82;3.91;3.82;3.91;43081
3.89;4.19;3.81;4.05;25362
4.05;4.05;3.8;3.86;2967
3.92;3.95;3.86;3.95;4794
3.96;4.04;3.92;4.0;4662
3.98;4.03;3.96;3.98;2355
3.98;4.0;3.95;3.95;1278
3.95;3.98;3.94;3.98;391
3.98;3.98;3.93;3.95;2081
3.94;3.98;3.93;3.97;1571
3.97;4.39;3.92;4.38;108548
4.38;4.53;4.2;4.44;150758
4.44;4.46;4.37;4.43;79050
4.43;4.91;4.42;4.9;158371
4.9;5.18;4.75;4.8;234048
4.78;4.97;4.71;4.87;121308
4.87;4.93;4.66;4.74;123866
4.73;4.89;4.69;4.8;51485
4.8;4.9;4.7;4.8;1356
4.8;4.85;4.71;4.83;556
4.75;5.02;4.75;4.85;4973
4.85;4.86;4.77;4.8;1683
4.78;4.8;4.76;4.8;934
4.8;4.81;4.72;4.72;1426
4.74;4.8;4.7;4.73;3700
4.73;4.74;4.7;4.74;760
4.72;4.87;4.5;4.79;98733
4.8;5.38;4.8;5.15;122457
5.14;5.22;5.04;5.12;81529
5.12;5.13;5.1;5.12;22640
5.11;5.11;4.78;4.8;59890
4.78;4.84;4.6;4.71;49758
4.7;4.78;4.6;4.65;59789
4.66;4.74;4.64;4.73;35664
4.64;4.73;4.55;4.73;682
4.67;4.68;4.67;4.67;19
4.85;4.86;4.53;4.63;1808
4.63;4.66;4.59;4.66;535
4.65;4.75;4.62;4.75;679
4.75;4.8;4.72;4.74;986
4.78;4.8;4.69;4.8;2111
4.8;4.9;4.7;4.8;2204
4.8;4.88;4.66;4.77;47206
4.79;4.83;4.54;4.59;34471
4.58;4.58;4.49;4.51;34557
4.51;4.51;4.41;4.43;11080
4.43;4.55;4.43;4.54;24293
4.54;4.59;4.53;4.57;26394
4.58;4.58;4.43;4.47;37528
4.48;4.6;4.4;4.57;57608
4.48;4.56;4.45;4.48;339
4.5;4.5;4.5;4.5;5
4.5;4.5;4.43;4.47;462
4.47;4.52;4.38;4.52;1863
4.44;4.5;4.44;4.5;38
4.5;4.53;4.45;4.53;377
4.52;4.65;4.46;4.59;1357
4.59;4.6;4.54;4.57;609
4.55;4.58;4.27;4.35;19481
4.35;4.4;4.1;4.1;39196
4.1;4.17;3.98;4.05;70444
4.05;4.07;3.91;4.06;40239
4.07;4.15;4.04;4.05;32978
4.05;4.07;4.01;4.04;8397
4.03;4.18;4.03;4.12;56815
4.13;4.18;4.1;4.18;40183
4.16;4.26;4.16;4.26;178
4.26;4.26;4.11;4.22;406
