<OPEN>;<HIGH>;<LOW>;<CLOSE>;<VOL>
24.78;25.92;24.46;25.2;32621
25.12;25.44;24.67;25.0;21910
25.01;25.12;24.86;24.99;14872
25.02;25.06;24.8;24.97;11167
24.97;25.23;24.92;25.04;11958
25.0;25.0;24.81;24.97;12293
24.99;25.12;24.8;25.02;59953
25.09;25.27;25.09;25.27;72114
25.5;25.5;25.5;25.5;350
25.5;25.5;25.35;25.35;200
25.99;25.99;25.46;25.65;13645
25.67;25.93;25.55;25.57;19293
25.55;25.67;25.45;25.45;11985
25.47;25.47;25.2;25.21;17934
25.21;25.28;25.01;25.1;15328
25.1;25.3;25.01;25.23;17111
25.26;25.32;25.12;25.31;48278
25.28;25.28;25.28;25.28;57622
25.82;25.82;23.85;24.42;31104
24.43;24.83;24.4;24.62;18860
24.61;24.78;24.57;24.7;12432
24.74;24.9;24.66;24.87;12377
24.86;24.96;24.82;24.83;8113
24.84;24.85;24.71;24.8;11434
24.82;24.85;24.62;24.68;47907
24.67;24.67;24.67;24.67;83710
25.47;25.47;24.13;24.38;13017
24.43;24.69;24.33;24.68;17652
24.65;24.71;24.51;24.65;6596
24.65;24.8;24.63;24.73;6870
24.75;24.75;24.45;24.66;13162
24.67;24.67;24.4;24.41;8321
24.42;24.5;23.9;23.93;35120
23.92;23.92;23.92;23.92;53579
23.69;23.78;23.38;23.75;15154
23.76;23.87;23.38;23.38;10250
23.4;23.58;23.1;23.26;15872
23.26;23.35;22.86;22.88;27981
22.87;23.5;22.84;22.98;41792
22.95;23.23;22.86;23.08;25653
23.09;23.46;23.03;23.41;54884
23.39;23.39;23.39;23.39;68727
