<OPEN>;<HIGH>;<LOW>;<CLOSE>;<VOL>
52.13;53.92;51.51;51.7;19403
51.54;54.11;50.85;54.11;27491
54.06;55.56;53.7;55.1;16759
55.02;55.43;54.82;55.05;17650
55.06;55.49;54.87;55.08;12746
55.02;55.23;54.47;54.47;14670
54.52;54.97;53.88;54.22;57160
54.2;54.2;54.2;54.2;26651
54.04;54.04;54.04;54.04;1
54.15;56.96;54.15;56.28;8270
56.35;57.14;56.16;56.4;12511
56.29;57.35;56.24;57.14;7207
57.25;58.08;57.25;57.55;8640
57.62;57.8;56.79;56.83;7647
56.86;57.1;56.7;56.91;12614
56.93;57.23;56.71;56.77;37401
56.77;56.77;56.77;56.77;25222
58.13;58.13;58.13;58.13;1
58.59;58.59;55.02;55.41;6195
55.68;56.47;55.68;55.81;11604
55.77;56.88;55.47;56.65;7887
56.9;57.86;56.78;57.64;9989
57.6;58.33;57.58;58.15;11330
58.27;58.49;58.0;58.4;10260
58.42;58.77;57.57;57.96;33009
57.95;57.95;57.95;57.95;58164
59.02;59.6;58.04;59.36;23582
59.48;59.85;58.7;59.0;21048
58.99;59.39;58.75;58.89;16999
58.89;60.07;58.78;59.53;13782
59.49;59.95;58.95;59.95;14092
59.95;59.95;59.25;59.53;19442
59.52;59.6;58.95;59.09;75744
59.05;59.46;59.05;59.46;31201
59.05;59.1;57.46;58.07;6738
58.24;58.65;57.55;57.85;16522
57.85;58.03;57.32;57.89;28834
57.65;57.84;56.09;57.03;52825
57.01;58.27;57.01;57.41;18128
57.32;58.35;57.18;57.86;16116
57.9;58.11;55.98;56.23;59983
56.32;56.32;56.2;56.2;59613
