<OPEN>;<HIGH>;<LOW>;<CLOSE>;<VOL>
58.74;58.84;58.46;58.75;54980
58.75;58.8;58.28;58.5;43399
58.51;58.77;58.46;58.65;56460
58.65;58.72;58.36;58.65;32330
58.64;58.67;58.44;58.58;33998
58.57;58.58;58.32;58.33;42007
58.31;58.34;57.73;57.9;174265
57.93;57.93;57.93;57.93;1
57.98;57.98;57.98;57.98;20
58.67;58.75;58.15;58.55;27387
58.59;58.91;58.47;58.73;79687
58.73;59.04;58.63;58.93;61705
58.95;59.04;58.63;59.04;41678
59.08;59.21;58.97;59.15;77175
59.19;59.37;59.06;59.35;62802
59.34;59.5;59.2;59.31;105731
59.27;59.27;59.27;59.27;1
59.77;59.77;59.77;59.77;1
58.68;59.12;58.2;58.21;37539
58.2;58.56;57.85;58.06;41830
58.08;58.97;58.08;58.92;22554
58.99;59.5;58.91;59.27;31926
59.26;59.71;59.25;59.28;37513
59.3;59.31;58.92;59.24;38331
59.25;59.3;58.8;58.81;93490
58.82;58.82;58.82;58.82;1
58.12;59.12;58.12;59.12;2
59.0;59.56;59.0;59.44;12785
59.47;59.54;58.61;58.79;37005
58.79;59.1;58.66;58.82;37634
58.82;58.82;58.22;58.26;34804
58.31;58.31;57.65;57.66;29645
57.66;57.74;57.11;57.47;43913
57.44;57.52;56.15;56.15;112257
56.16;56.16;56.16;56.16;24
56.78;56.78;56.78;56.78;10
56.4;56.43;55.34;55.59;37948
55.66;55.76;54.85;55.22;84433
55.26;55.47;54.17;54.28;51960
54.41;54.82;54.17;54.75;32976
54.8;54.93;54.35;54.37;32545
54.35;54.54;53.98;53.98;32072
54.0;54.53;53.78;54.49;110813
54.46;54.46;54.46;54.46;32
