<OPEN>;<HIGH>;<LOW>;<CLOSE>;<VOL>
35.09;35.28;34.59;34.63;2823
34.68;34.73;34.24;34.24;20459
34.33;34.53;34.27;34.5;11522
34.53;34.53;34.17;34.24;8262
34.25;34.34;34.17;34.24;8251
34.28;34.28;33.96;34.04;17364
34.04;34.22;33.91;34.07;24861
34.09;34.09;34.09;34.09;11
34.77;35.26;34.77;35.2;1159
35.37;35.56;35.29;35.36;3279
35.42;35.71;35.3;35.65;6919
35.69;35.74;35.58;35.71;4863
35.7;35.86;35.62;35.85;5270
35.9;36.06;35.82;36.06;6435
36.04;36.34;35.99;36.34;23672
36.37;36.37;36.37;36.37;5
35.44;35.6;35.07;35.09;2084
35.12;35.86;35.03;35.53;14665
35.5;35.79;35.42;35.77;9431
35.82;36.04;35.79;35.86;8247
35.85;36.11;35.73;35.75;10053
35.76;35.77;35.67;35.71;18467
35.71;36.0;35.71;35.84;34085
36.0;36.07;35.39;35.48;5136
35.52;35.65;35.35;35.38;5660
35.33;35.49;35.26;35.31;5218
35.31;35.4;35.24;35.25;4254
35.23;35.23;34.89;35.01;6869
35.02;35.02;34.78;34.84;8549
34.83;34.89;34.28;34.43;26358
33.84;33.84;33.35;33.5;1905
33.77;33.8;33.25;33.25;3390
33.26;33.39;32.65;32.71;6782
32.74;32.86;32.4;32.44;15757
32.46;32.62;32.3;32.43;9548
32.41;32.42;32.14;32.14;6488
32.15;32.26;31.92;32.06;25676
32.08;32.08;32.08;32.08;15
