<OPEN>;<HIGH>;<LOW>;<CLOSE>;<VOL>
16.14;16.3;16.05;16.3;1678
16.24;16.39;16.03;16.26;4878
16.26;16.38;16.17;16.38;4537
16.4;16.55;16.23;16.29;6831
16.3;16.47;16.29;16.44;6580
16.43;16.47;16.28;16.28;7537
16.21;16.3;16.16;16.23;12622
16.22;16.22;16.22;16.22;198
16.23;16.23;16.23;16.23;3
16.55;16.8;16.35;16.8;3950
16.89;17.03;16.62;16.62;15036
16.65;16.94;16.57;16.9;5795
16.89;16.89;16.71;16.85;5982
16.88;16.99;16.81;16.99;4233
16.98;17.16;16.98;17.15;7760
17.16;17.29;17.13;17.27;16410
17.27;17.3;17.27;17.3;3432
16.86;16.86;16.56;16.71;5912
16.74;17.0;16.6;16.87;8335
16.78;16.91;16.64;16.83;5107
16.87;17.09;16.84;17.07;4160
17.07;17.18;17.04;17.05;3468
17.07;17.1;16.95;17.06;4937
17.05;17.08;16.8;16.91;12185
16.9;16.9;16.9;16.9;1
16.89;16.89;16.89;16.89;2
16.9;16.9;16.9;16.9;2
17.1;17.1;16.5;16.61;2801
16.6;16.68;16.44;16.56;3644
16.54;16.66;16.47;16.66;3762
16.64;16.77;16.59;16.7;3506
16.66;16.66;16.49;16.61;4221
16.61;16.61;16.39;16.43;6618
16.42;16.54;16.08;16.11;16516
16.1;16.1;16.1;16.1;11
16.28;16.28;16.28;16.28;1
16.27;16.27;16.27;16.27;1
16.27;16.27;16.27;16.27;3
16.51;16.51;16.51;16.51;2
16.5;16.5;15.73;15.8;3359
15.96;15.96;15.66;15.74;5809
15.76;15.81;15.54;15.71;8209
15.68;15.82;15.52;15.82;12953
15.79;16.08;15.76;15.78;5856
15.8;15.91;15.74;15.76;5392
15.77;15.94;15.73;15.93;18155
15.92;15.92;15.92;15.92;161
16.12;16.12;15.65;15.65;2
