<OPEN>;<HIGH>;<LOW>;<CLOSE>;<VOL>
123.92;124.97;122.46;124.53;24744
124.53;126.38;124.21;125.85;58103
125.89;126.88;125.4;126.84;36334
126.86;127.33;126.45;126.81;28933
126.86;127.36;126.62;127.08;29827
127.08;127.24;126.73;126.89;46635
126.89;127.23;126.5;127.18;123203
127.13;127.87;127.13;127.87;366
127.2;128.89;127.2;128.87;18
127.46;127.46;127.18;127.18;86
127.41;128.31;127.41;128.25;61
128.39;128.4;127.77;128.39;52
127.91;128.45;127.91;128.34;19
128.32;128.32;127.14;127.14;95
128.0;128.79;127.82;128.79;315
128.59;131.23;128.49;131.2;21963
131.25;131.4;130.07;130.37;63940
130.4;131.76;130.21;131.44;50264
131.44;131.69;131.02;131.61;32294
131.64;132.28;131.2;132.28;43118
132.26;133.57;132.26;133.57;56047
133.57;135.57;133.42;135.4;165661
135.89;135.89;134.02;135.28;451
135.35;136.12;134.59;136.12;40
135.35;135.35;135.35;135.35;8
134.62;136.35;134.62;135.9;57
135.44;135.99;135.4;135.4;19
135.78;135.78;135.36;135.36;63
135.36;135.36;135.1;135.3;19
135.11;135.19;135.1;135.1;12
134.5;135.1;133.46;134.29;289
134.3;136.9;133.4;136.17;53601
136.17;136.2;133.24;133.83;46198
133.83;134.15;133.1;134.02;39461
134.03;134.93;133.78;134.58;29599
134.58;134.76;134.0;134.07;19992
134.0;134.03;133.18;133.69;29201
133.7;134.36;133.68;133.88;64759
133.81;135.1;133.0;134.74;658
133.5;133.5;133.5;133.5;3
132.98;134.17;132.97;134.17;24
134.69;134.69;134.12;134.17;5
134.04;134.26;134.01;134.01;4
134.5;134.5;134.5;134.5;1
134.01;134.55;133.9;134.55;9
134.69;134.69;133.81;133.81;36
135.12;135.12;133.64;134.11;18597
134.12;134.72;133.52;134.29;43354
134.25;134.62;133.43;133.66;31433
133.65;134.06;133.13;133.93;32154
133.92;134.06;133.71;133.98;51903
133.99;134.11;133.3;133.8;47348
133.8;133.96;131.73;131.94;142414
132.04;133.95;130.91;131.0;414
131.75;133.95;130.92;133.95;8
133.96;133.97;133.67;133.67;3
132.53;132.53;131.34;131.99;67
131.51;132.3;131.51;132.03;17
132.3;132.3;132.02;132.02;37
132.02;132.02;131.97;131.97;3
131.72;131.98;131.72;131.98;7
131.98;131.98;131.95;131.95;93
131.72;131.72;130.78;131.16;40244
131.18;132.05;130.88;131.04;52213
131.06;131.37;129.99;130.26;69005
130.3;130.46;129.97;130.27;61299
130.32;130.89;129.99;130.3;53582
130.29;131.09;130.09;130.7;79166
130.67;131.51;130.39;131.51;170253
135.0;135.0;131.5;131.5;134
131.47;131.47;131.01;131.46;36
131.46;131.46;131.46;131.46;3
132.34;132.49;131.66;131.86;48
