<OPEN>;<HIGH>;<LOW>;<CLOSE>;<VOL>
29.45;29.45;29.45;29.45;100
30.05;30.25;29.79;29.91;1709
29.94;30.44;29.81;30.3;1808
30.34;30.38;30.1;30.17;2924
30.23;30.35;30.11;30.16;3017
30.17;30.21;29.94;30.02;5305
30.0;30.01;29.73;29.82;11225
29.8;29.8;29.8;29.8;8
31.0;31.0;31.0;31.0;1
29.35;29.77;29.06;29.77;3161
29.9;30.4;29.82;30.37;4715
30.24;30.4;30.18;30.24;3975
30.22;30.25;30.04;30.1;3974
30.11;30.17;29.98;30.17;4010
30.18;30.39;30.17;30.21;5303
30.22;30.57;30.22;30.54;8408
30.55;30.55;30.55;30.55;16
30.0;30.0;29.58;29.89;960
29.48;29.7;29.36;29.47;1645
29.54;29.62;29.28;29.56;659
29.64;30.16;29.62;30.14;1568
30.13;30.21;29.93;29.95;1109
29.87;29.92;29.66;29.78;2877
29.79;29.86;29.44;29.71;8741
29.65;29.65;29.65;29.65;1
29.31;30.41;29.22;29.52;497
29.48;29.52;29.1;29.34;959
29.37;29.49;29.1;29.14;3250
29.12;29.13;28.85;28.95;4358
28.94;29.14;28.87;28.9;3829
28.83;29.21;28.78;29.16;2702
29.17;29.24;28.55;28.55;12994
28.6;28.6;28.6;28.6;7
28.51;28.51;28.51;28.51;54
28.44;28.44;28.0;28.22;2701
28.36;28.81;28.09;28.17;13659
28.2;28.38;28.0;28.11;9406
28.12;28.43;28.07;28.43;4860
28.39;28.59;28.38;28.47;2868
28.48;28.49;28.25;28.29;6495
28.3;28.36;27.93;28.26;13244
28.25;28.25;28.25;28.25;15
