<OPEN>;<HIGH>;<LOW>;<CLOSE>;<VOL>
345.92;352.99;345.92;352.99;124
352.0;352.0;342.4;347.15;291
347.02;349.0;347.02;349.0;53
355.75;355.75;349.76;349.76;519
350.0;353.23;348.35;353.23;14
350.32;352.04;350.32;350.74;164
346.76;347.21;346.4;346.45;89
345.87;345.87;345.87;345.87;2
354.25;354.25;354.25;354.25;13
347.18;347.18;347.18;347.18;8
348.49;352.76;348.49;352.76;4
353.5;357.03;353.5;356.02;74
355.9;361.23;355.9;361.23;312
361.2;362.23;359.76;362.23;102
359.74;363.18;359.45;363.18;498
362.96;372.76;362.96;370.94;480
370.09;374.47;369.59;370.55;825
372.2;372.2;372.2;372.2;11
374.79;374.79;374.79;374.79;1
372.19;372.2;372.19;372.2;3
365.0;365.0;350.92;350.92;103
350.09;351.24;345.9;348.72;391
347.72;349.81;342.87;344.88;1366
344.26;351.78;344.06;351.78;860
351.4;351.4;348.1;349.5;350
346.72;348.0;341.0;344.05;1068
344.51;345.0;341.5;344.8;1078
342.97;350.1;342.0;350.1;72
349.95;349.95;344.5;344.5;2
344.64;344.66;344.59;344.59;3
344.0;344.0;344.0;344.0;1
340.6;348.86;340.01;346.72;31
355.98;356.97;347.03;349.96;467
350.0;351.2;343.68;349.67;326
347.99;351.24;344.12;344.12;697
344.12;347.0;341.98;345.99;1032
347.46;347.46;341.85;342.51;357
343.36;344.26;340.05;340.05;1069
341.11;344.3;333.76;334.45;1462
335.6;335.6;335.6;335.6;69
331.18;331.18;331.0;331.0;4
332.0;332.0;332.0;332.0;1
332.0;332.0;332.0;332.0;2
332.0;332.0;332.0;332.0;2
335.6;335.6;325.27;325.27;166
323.27;326.64;321.48;324.01;499
323.93;323.93;314.08;316.63;777
318.31;319.45;313.28;319.45;987
319.82;323.99;317.56;321.84;231
319.13;320.82;316.48;317.71;176
317.25;321.32;313.29;315.96;1080
317.54;319.0;317.54;319.0;146
