<OPEN>;<HIGH>;<LOW>;<CLOSE>;<VOL>
11.95;12.04;11.6;12.04;14149
12.05;12.6;11.93;12.55;27677
12.54;13.08;12.54;12.84;42789
12.84;12.84;12.47;12.55;24150
12.57;12.62;12.39;12.41;20339
12.43;12.56;12.27;12.43;30528
12.43;12.6;12.36;12.5;56320
12.51;12.78;12.31;12.31;2216
12.63;12.63;12.63;12.63;7
12.96;12.96;12.96;12.96;4
12.87;12.87;12.7;12.7;4
12.55;12.69;12.55;12.69;2
12.55;12.56;12.55;12.56;7
12.68;12.68;12.68;12.68;10
12.56;12.56;12.56;12.56;50
12.4;12.49;12.38;12.48;15
12.67;13.5;12.5;13.07;5287
13.07;13.17;12.62;12.69;18447
12.73;13.04;12.68;12.95;18783
12.94;12.99;12.78;12.86;19098
12.87;12.97;12.83;12.91;13764
12.91;13.14;12.9;13.08;21967
13.11;13.23;13.1;13.17;51186
13.15;13.3;13.0;13.0;203
13.0;13.0;12.9;12.9;6
13.42;13.42;13.24;13.35;66
13.1;13.1;13.09;13.09;17
13.1;13.2;13.1;13.11;29
13.2;13.2;13.1;13.2;114
13.09;13.09;13.08;13.08;37
13.0;13.15;13.0;13.15;124
13.0;13.0;12.44;12.44;8333
12.44;12.7;12.38;12.52;21458
12.52;12.78;12.45;12.66;24629
12.67;12.88;12.54;12.86;13629
12.86;13.0;12.86;12.91;12974
12.91;12.92;12.77;12.83;19364
12.81;13.03;12.77;12.77;41617
12.75;12.79;12.75;12.79;422
12.96;12.96;12.79;12.79;43
12.78;12.78;12.78;12.78;1
12.92;12.92;12.92;12.92;6
12.93;12.93;12.82;12.82;101
12.83;12.98;12.54;12.73;9833
12.78;13.02;12.74;12.92;24367
12.94;13.01;12.83;12.85;10680
12.88;12.95;12.87;12.91;30901
12.9;12.9;12.8;12.86;23019
12.85;12.86;12.79;12.83;20816
12.83;12.88;12.34;12.41;39297
12.4;12.99;12.1;12.24;206
12.24;12.24;12.24;12.24;4
12.34;12.5;12.34;12.37;22
12.49;12.49;12.38;12.38;2
12.37;12.38;12.37;12.38;10
12.5;12.5;12.5;12.5;44
12.51;12.52;12.51;12.52;5
12.53;12.53;12.42;12.42;10
12.57;12.57;12.16;12.25;14959
12.24;12.39;12.08;12.1;30605
12.1;12.1;11.5;11.5;27449
11.53;11.76;11.46;11.61;21428
11.61;11.72;11.49;11.53;14240
11.52;11.64;11.45;11.46;43442
11.47;12.01;11.47;11.94;88790
11.94;11.94;11.94;11.94;173
11.95;11.95;11.5;11.5;27
12.18;12.18;11.87;11.87;127
