<OPEN>;<HIGH>;<LOW>;<CLOSE>;<VOL>
100.79;103.18;100.46;102.91;20679
102.86;104.79;102.72;103.38;59483
103.22;103.89;102.65;103.55;45982
103.65;104.03;103.2;103.45;24982
103.42;103.68;102.94;103.27;25494
103.22;103.31;102.4;102.5;30270
102.48;102.86;102.14;102.54;103340
102.54;102.54;102.54;102.54;58
104.36;104.4;103.46;104.17;9
104.18;104.29;104.18;104.18;5
104.3;104.48;104.3;104.48;11
104.31;104.31;104.3;104.3;5
104.41;104.41;104.28;104.28;48
104.34;104.34;103.31;103.31;31
104.25;105.95;104.17;105.85;27223
105.96;106.06;104.34;105.29;61546
105.3;106.66;105.18;106.53;28218
106.57;106.93;106.49;106.56;34111
106.58;106.7;106.27;106.45;24485
106.47;107.0;106.26;106.95;43489
107.05;108.14;106.85;107.9;126608
107.92;108.55;103.5;103.5;502
108.0;109.0;107.79;107.79;15
109.0;109.0;109.0;109.0;1
108.41;108.8;108.33;108.59;58
108.46;108.46;107.58;107.65;16
107.6;107.6;107.6;107.6;2
107.7;107.7;107.0;107.0;21
107.0;107.0;106.99;106.99;43
107.09;107.92;106.75;107.01;19
106.07;107.07;103.47;104.08;52666
104.09;104.36;103.11;103.84;46900
103.85;104.79;103.62;104.52;35414
104.55;106.17;104.38;105.86;32239
105.84;106.43;105.72;105.82;23800
105.74;105.86;104.85;105.5;50758
105.47;105.69;104.09;104.09;90860
104.14;104.6;104.14;104.6;898
104.6;107.4;104.58;105.98;112
104.92;105.0;104.16;104.31;36
104.31;104.31;104.19;104.19;4
104.49;104.64;104.4;104.4;5
104.65;105.0;104.0;104.95;27
105.0;105.0;104.51;104.51;2
105.19;105.24;105.19;105.21;12
105.0;105.05;102.35;102.85;46594
102.9;103.23;101.38;101.84;73300
101.86;102.2;101.35;101.68;34480
101.63;101.75;100.9;101.16;27029
101.19;101.24;100.22;100.88;31631
100.81;101.63;100.25;101.55;36987
101.55;101.61;99.46;99.55;108103
99.55;100.76;99.07;99.48;1219
99.15;104.54;99.05;99.48;441
100.09;100.17;99.06;99.68;16
99.81;100.0;99.01;99.89;11
100.06;100.06;100.05;100.05;6
100.47;100.47;100.2;100.2;6
100.3;100.43;100.3;100.43;9
100.51;100.55;100.48;100.55;38
100.55;101.28;98.76;100.75;43830
100.77;101.25;99.84;100.6;77105
100.58;100.64;98.64;99.34;67894
99.2;99.77;98.36;99.33;47892
99.34;100.29;98.95;99.5;57298
99.44;100.29;99.14;99.43;33577
99.46;100.6;98.99;100.33;85044
100.31;101.0;99.56;100.31;316
101.35;101.41;101.35;101.41;5
99.5;100.49;99.5;99.87;13
