<OPEN>;<HIGH>;<LOW>;<CLOSE>;<VOL>
226.74;228.84;226.25;228.24;84199
228.26;228.85;227.56;228.76;79329
228.72;230.12;228.69;230.11;96885
230.1;231.07;229.87;231.0;92602
231.02;231.5;230.7;231.11;74577
231.1;231.37;230.68;231.22;63240
231.22;231.61;229.01;229.36;138605
229.45;233.0;229.27;233.0;431
233.0;233.0;233.0;233.0;1
230.47;230.47;230.47;230.47;20
233.68;233.99;233.68;233.99;2
233.05;233.05;231.73;231.73;7
232.29;232.89;232.29;232.89;6
233.32;233.43;232.5;233.43;20
232.21;232.63;231.65;232.32;57
231.9;233.21;231.42;233.15;38
232.5;233.8;231.21;233.29;66841
233.22;235.54;233.22;234.86;98388
234.82;235.55;234.5;234.62;68232
234.64;234.93;234.29;234.71;56552
234.7;234.82;232.87;233.22;70908
233.25;234.33;232.78;232.88;65284
232.86;234.5;232.82;234.39;129281
234.72;234.8;234.43;234.8;109
234.8;234.99;234.8;234.99;12
234.45;234.92;234.45;234.92;6
236.44;237.83;236.12;237.36;45
236.37;236.37;235.21;235.21;8
235.3;236.42;235.3;236.16;4
234.12;234.67;232.2;232.2;767
232.65;232.99;231.56;232.99;1009
233.0;235.08;231.26;234.9;68103
234.91;235.98;234.09;234.86;84681
234.86;235.55;234.69;235.43;42508
235.42;237.6;235.31;237.33;64467
237.34;238.77;237.11;237.95;90353
237.93;238.6;237.58;237.94;79866
237.95;238.44;236.56;236.69;145404
236.61;237.0;236.53;236.74;1022
236.97;236.97;236.53;236.53;22
236.97;236.98;236.89;236.98;329
235.08;236.49;235.01;236.24;12
236.31;236.9;236.15;236.15;9
236.84;236.88;236.08;236.24;40
237.0;237.0;236.74;236.74;2
237.0;238.67;237.0;238.17;94
238.16;238.99;237.88;238.62;492
238.4;239.0;236.6;237.85;68406
238.05;238.9;237.21;238.65;83914
238.71;239.15;238.37;238.9;65446
238.94;239.25;238.19;239.18;68145
239.1;239.18;237.55;238.54;71021
238.48;238.5;236.88;237.79;50726
237.74;237.74;232.96;232.98;185473
232.9;234.79;230.52;230.52;1588
231.59;231.65;231.59;231.65;11
231.51;231.88;231.14;231.5;218
231.99;231.99;231.13;231.15;13
231.15;232.98;231.14;232.41;32
232.31;232.31;232.3;232.3;2
233.1;233.12;233.1;233.12;8
233.37;234.64;233.37;234.61;181
234.0;234.88;233.0;233.55;1543
233.54;233.97;231.6;233.47;105207
233.51;236.3;233.41;234.74;120875
234.72;235.2;232.22;232.97;76531
232.87;233.44;230.46;231.6;101130
231.63;232.06;230.5;231.01;75576
230.95;231.57;229.12;229.22;72054
229.23;230.48;228.56;229.92;155364
230.1;230.1;229.49;229.49;67
230.5;230.5;230.5;230.5;26
230.65;230.65;230.56;230.56;92
231.14;231.14;230.88;230.88;2
