<OPEN>;<HIGH>;<LOW>;<CLOSE>;<VOL>
29.99;29.99;29.34;29.67;25726
29.69;30.08;29.53;29.94;33269
29.94;30.03;29.76;29.93;30576
29.94;29.98;29.49;29.64;18445
29.63;29.78;29.57;29.61;23299
29.6;29.62;29.33;29.39;17772
29.38;29.44;29.1;29.13;99490
29.13;29.13;29.13;29.13;239032
30.15;30.15;29.54;30.0;12569
29.95;30.04;29.6;29.61;21864
29.63;29.82;29.59;29.69;25672
29.69;29.71;29.45;29.45;30284
29.46;29.5;29.32;29.38;25149
29.38;29.68;29.38;29.66;23520
29.67;29.72;29.51;29.55;75069
29.56;29.56;29.56;29.56;58513
30.1;30.1;30.1;30.1;1
29.79;29.79;28.6;28.61;10532
28.64;28.8;28.4;28.63;27818
28.63;29.01;28.63;28.97;19858
28.99;29.22;28.86;29.19;48843
29.18;29.39;29.15;29.31;16614
29.31;29.48;29.15;29.37;32302
29.36;29.48;29.06;29.16;59693
29.17;29.17;29.16;29.16;160353
29.89;29.89;28.78;28.87;6547
28.85;28.92;28.42;28.61;40767
28.6;28.69;28.4;28.52;23420
28.5;28.55;28.24;28.33;43716
28.32;28.32;28.02;28.3;74517
28.31;28.35;28.03;28.07;58703
28.05;28.1;27.54;27.6;76063
27.6;27.6;27.6;27.6;214772
27.3;27.5;26.81;27.13;37084
27.12;27.42;27.12;27.18;42270
27.16;27.21;26.78;26.82;30898
26.85;26.93;26.67;26.74;32025
26.75;26.85;26.38;26.4;24982
26.37;26.44;26.15;26.2;27136
26.2;26.45;26.14;26.39;82131
26.39;26.39;26.39;26.39;67138
