<OPEN>;<HIGH>;<LOW>;<CLOSE>;<VOL>
46.3;48.65;46.06;47.26;77976
47.26;47.54;46.47;47.27;51217
47.24;48.18;47.24;47.84;54771
47.86;48.01;47.01;47.34;54042
47.32;47.44;46.52;46.64;45170
46.65;46.83;46.23;46.25;41505
46.23;46.56;45.74;46.39;136116
46.4;46.4;46.4;46.4;412
46.4;46.4;46.4;46.4;100
47.64;47.64;47.44;47.44;3
47.31;47.31;47.31;47.31;2
47.41;47.92;47.27;47.73;42233
47.73;48.49;47.54;47.93;73353
47.91;48.1;47.49;47.68;40353
47.66;47.91;47.62;47.65;39584
47.64;47.66;47.33;47.49;38779
47.49;48.34;47.39;48.3;51799
48.27;48.51;48.11;48.47;127777
48.48;48.48;48.48;48.48;5
48.05;48.05;48.05;48.05;30
47.68;47.68;47.68;47.68;1
48.08;48.33;48.08;48.12;52
48.54;48.54;47.5;47.75;26669
47.75;48.04;47.2;47.35;38031
47.33;47.75;47.31;47.53;36071
47.55;47.79;47.36;47.69;30851
47.69;47.85;47.32;47.37;33980
47.34;47.51;47.02;47.08;43486
47.09;47.43;46.82;47.17;112160
47.13;47.13;47.13;47.13;178
47.82;47.82;47.82;47.82;3
47.95;47.95;47.95;47.95;2
48.44;48.54;46.1;46.56;58467
46.58;46.89;45.92;46.18;54386
46.16;46.26;45.72;46.21;95442
46.19;46.94;46.13;46.6;58583
46.62;46.62;45.78;46.0;48961
46.04;46.06;45.54;45.84;48773
45.82;45.99;44.59;44.8;158679
44.8;44.8;44.8;44.8;6
44.0;44.61;44.0;44.61;8
44.49;44.49;44.49;44.49;2
45.05;46.05;42.78;42.95;63271
43.04;43.93;42.58;42.65;101766
42.67;42.92;42.22;42.33;63936
42.37;42.66;41.88;42.5;77311
42.56;42.95;42.08;42.36;51321
42.37;42.79;42.23;42.25;40452
42.26;42.67;42.0;42.36;170541
42.36;42.36;42.36;42.36;12
