<OPEN>;<HIGH>;<LOW>;<CLOSE>;<VOL>
132.29;132.96;130.81;130.92;14298
130.86;131.96;130.36;131.36;15351
131.42;131.43;129.89;131.23;18497
131.27;131.41;130.3;130.73;14927
130.66;131.69;130.28;131.46;16916
131.41;131.86;131.19;131.37;24530
131.42;131.42;130.13;130.23;40828
130.28;130.28;130.28;130.28;156
132.26;132.7;131.48;132.59;5175
132.55;133.09;132.04;132.81;6918
133.05;134.11;132.92;133.89;6840
133.92;134.1;133.39;133.65;7377
133.7;133.84;132.99;133.79;7015
133.8;134.08;133.38;134.08;8540
134.07;135.0;133.81;134.43;30753
134.47;134.47;134.47;134.47;3
135.23;135.25;135.23;135.25;6
135.01;135.01;134.0;134.32;133
133.45;133.45;133.44;133.44;2
133.1;133.22;132.64;133.22;387
134.0;134.0;132.43;133.29;9257
133.34;133.4;131.42;131.83;14780
131.88;133.37;131.88;133.06;16753
133.03;133.2;132.14;132.38;13782
132.31;133.12;131.96;132.04;16899
131.99;132.99;131.27;132.94;19063
132.88;133.18;132.3;132.61;39697
132.63;135.0;132.63;135.0;164
133.17;137.22;133.17;137.22;10
135.26;139.46;135.26;139.46;145
140.58;140.58;139.26;139.26;90
143.0;143.61;141.77;141.77;3370
141.5;143.1;138.36;140.87;77705
140.95;141.39;135.5;135.99;56132
135.77;137.15;134.75;137.06;49167
137.05;137.27;136.14;136.34;26033
136.27;136.27;134.09;134.52;29329
134.51;134.7;133.14;134.47;53363
134.38;135.17;133.16;133.33;80418
133.33;133.33;132.52;132.52;30
133.33;133.5;131.99;131.99;149
133.12;134.86;133.12;134.63;34
134.62;135.63;134.6;134.62;8
135.62;135.62;134.08;134.09;42
134.3;135.24;134.3;134.63;59
133.97;133.97;130.39;131.08;12746
131.28;133.01;131.28;131.76;9205
131.95;132.66;130.23;130.56;11957
130.57;130.97;129.41;130.18;14081
130.14;130.14;128.13;128.2;12649
128.19;129.02;127.34;127.95;24299
128.0;129.71;127.69;129.51;55859
129.34;129.34;129.34;129.34;254
