<OPEN>;<HIGH>;<LOW>;<CLOSE>;<VOL>
34.0;34.48;33.57;33.81;36480
33.83;34.2;33.58;33.9;41603
33.92;34.14;33.71;34.12;34355
34.12;34.21;33.96;34.19;27424
34.17;34.44;34.16;34.39;35853
34.39;34.53;34.29;34.47;32721
34.48;34.85;34.41;34.84;98071
34.8;34.8;34.8;34.8;39414
35.57;35.57;35.57;35.57;4
35.5;35.5;34.93;35.18;38380
35.19;35.24;34.89;34.98;58344
34.99;35.68;34.99;35.68;63196
35.66;35.8;35.52;35.73;25158
35.73;35.83;35.39;35.44;26594
35.42;35.47;35.29;35.36;16191
35.39;35.85;35.34;35.84;117199
35.83;35.88;35.83;35.88;73571
36.14;36.14;36.14;36.14;2
36.0;36.0;36.0;36.0;20
35.94;35.94;35.94;35.94;7
35.9;35.9;35.8;35.8;101
35.77;35.77;34.79;35.13;26898
35.13;35.72;34.6;35.51;83897
35.52;36.11;35.48;35.79;61748
35.88;36.32;35.72;36.31;41949
36.31;36.52;36.1;36.1;67239
36.09;36.78;36.04;36.76;57291
36.76;36.77;36.21;36.3;175429
36.24;44.72;36.24;44.02;286532
44.0;45.0;44.0;45.0;4327
45.34;45.5;45.0;45.25;781
45.48;45.64;44.84;45.64;62
45.64;45.64;44.84;45.64;22
45.64;45.89;44.77;44.82;244
45.3;46.9;45.3;46.34;75
46.61;47.07;46.01;46.44;1062
46.25;46.25;44.1;44.67;10623
44.79;48.67;44.5;45.79;759361
45.78;46.98;45.01;46.35;342189
46.34;47.04;45.27;45.43;229284
45.44;46.02;45.44;45.71;184492
45.69;45.78;44.64;44.84;169935
44.82;45.1;44.21;44.97;158361
44.98;45.27;43.66;43.85;362670
43.85;45.47;43.66;45.47;173991
43.66;43.66;43.66;43.66;151
43.92;43.92;43.92;43.92;5
43.65;44.44;43.38;44.43;109
44.44;44.44;44.44;44.44;16
43.93;44.33;43.92;43.96;152
43.85;44.36;43.85;44.36;103
44.4;44.4;42.44;44.25;165827
44.23;45.49;44.2;45.06;226488
45.05;45.64;44.81;45.13;141771
45.15;45.18;43.94;44.64;95397
44.64;44.7;44.15;44.34;108877
44.32;45.31;44.16;44.78;105466
44.82;45.16;44.38;44.76;259978
44.77;44.77;44.77;44.77;148494
44.33;44.33;44.33;44.33;1
