<OPEN>;<HIGH>;<LOW>;<CLOSE>;<VOL>
16.46;16.98;16.46;16.73;104819
16.73;16.88;16.52;16.72;150135
16.72;16.86;16.71;16.78;106840
16.78;16.82;16.5;16.56;138787
16.56;16.59;16.42;16.43;101003
16.42;16.42;16.23;16.28;118538
16.29;16.33;16.2;16.28;274678
16.27;16.27;15.7;15.7;56
16.44;16.44;16.44;16.44;1
16.67;16.92;16.49;16.92;61172
16.92;17.01;16.64;16.67;80546
16.66;16.88;16.65;16.87;49441
16.87;16.89;16.74;16.83;41420
16.82;17.06;16.82;17.06;108346
17.06;17.28;17.06;17.27;133537
17.27;17.4;17.27;17.32;271517
17.32;17.32;17.32;17.32;38
17.35;17.35;17.35;17.35;20
17.42;17.42;17.42;17.42;1
17.22;17.22;16.45;16.45;46670
16.45;16.53;16.32;16.45;51294
16.44;16.7;16.4;16.68;44059
16.68;16.89;16.68;16.89;54603
16.88;16.97;16.86;16.89;41257
16.88;16.88;16.71;16.72;44210
16.72;16.76;16.65;16.68;122624
16.69;16.69;16.69;16.69;270
16.69;16.69;16.69;16.69;2
16.69;16.69;16.69;16.69;1
16.84;16.84;16.84;16.84;30
16.93;16.93;16.93;16.93;4
16.83;16.87;16.54;16.66;24963
16.65;16.67;16.42;16.57;47694
16.56;16.73;16.5;16.68;61661
16.67;16.78;16.66;16.73;38429
16.73;16.73;16.44;16.51;27634
16.52;16.52;16.34;16.41;39482
16.41;16.47;16.12;16.13;120670
16.13;16.38;16.13;16.38;46
16.19;16.2;16.19;16.2;5
16.26;16.26;16.26;16.26;1
16.15;16.17;15.46;15.55;63180
15.57;15.66;15.39;15.41;156519
15.41;15.44;15.04;15.14;84849
15.13;15.25;15.0;15.19;96086
15.21;15.28;14.99;15.0;79607
15.0;15.08;14.81;14.84;115910
14.85;15.21;14.85;15.13;340604
15.13;15.13;15.13;15.13;97
15.26;15.26;15.26;15.26;1
