<OPEN>;<HIGH>;<LOW>;<CLOSE>;<VOL>
112.49;119.52;111.01;117.82;18041
118.44;118.52;113.12;114.58;20300
114.77;115.75;114.16;114.87;30339
114.93;116.92;114.82;116.51;27488
116.59;117.65;116.38;116.65;20112
116.59;116.8;116.0;116.1;32030
116.1;121.41;116.0;120.0;69343
119.65;120.01;119.65;119.65;17541
120.0;120.0;120.0;120.0;7
120.0;125.59;116.18;122.9;29496
122.75;130.08;122.75;125.87;28248
125.29;127.57;124.24;124.42;23777
124.68;125.96;123.01;124.85;35108
124.79;126.82;123.46;124.9;31623
125.13;126.03;122.88;123.68;33505
123.63;124.87;123.63;124.71;47410
124.52;124.52;124.52;124.52;25959
128.0;128.0;128.0;128.0;1
125.25;125.62;122.81;122.94;6764
122.98;129.46;122.98;128.89;22874
129.13;133.24;128.97;131.99;16921
132.07;134.29;132.07;133.42;20806
133.25;133.43;130.39;130.56;14885
130.66;133.1;130.59;132.85;15887
133.09;134.41;131.0;131.21;55894
131.03;131.03;131.03;131.03;35585
135.49;135.49;135.49;135.49;3
135.49;135.49;135.49;135.49;1
133.0;133.0;133.0;133.0;46
131.01;132.52;128.44;132.32;40108
132.4;133.19;131.35;131.62;28106
131.56;135.89;131.56;135.71;27684
135.72;136.39;134.16;136.39;18901
136.36;136.54;133.57;135.19;28037
135.19;135.23;133.72;133.84;23151
133.76;133.77;126.12;126.12;74589
126.12;126.12;126.12;126.12;85145
130.58;130.58;130.58;130.58;1
128.0;129.87;124.14;129.23;10372
129.13;130.0;127.81;128.11;23610
127.82;128.67;124.02;124.56;10434
124.75;125.64;122.11;125.0;13778
124.97;126.41;123.49;125.34;10332
125.28;127.11;124.79;126.37;8165
126.49;131.27;126.49;129.76;49831
129.73;129.73;129.73;129.73;31408
