<OPEN>;<HIGH>;<LOW>;<CLOSE>;<VOL>
9.07;9.17;9.07;9.13;325
9.13;9.16;9.09;9.14;453
9.12;9.19;9.12;9.14;3091
9.14;9.14;9.11;9.13;1321
9.12;9.13;9.1;9.1;549
9.1;9.11;9.06;9.09;2922
9.09;9.11;9.08;9.08;3206
9.1;9.1;8.82;8.95;123
8.95;9.2;8.95;9.2;4
9.35;9.35;9.35;9.35;6
9.27;9.27;9.27;9.27;12
9.26;9.26;9.26;9.26;4
9.25;9.25;9.25;9.25;2
9.02;9.02;9.02;9.02;7
9.2;9.2;9.0;9.12;2375
9.12;9.12;9.09;9.09;1152
9.08;9.1;8.99;9.08;4122
9.08;9.1;9.08;9.09;3
9.09;9.1;9.09;9.1;162
9.09;9.09;9.05;9.08;528
9.08;9.14;9.07;9.08;2472
9.09;9.15;9.07;9.14;90
9.15;9.15;9.15;9.15;1
9.14;9.14;9.14;9.14;1
9.14;9.14;9.14;9.14;6
8.98;9.18;8.98;9.18;35
9.09;9.1;9.01;9.01;11
9.01;9.18;9.01;9.18;25
9.06;9.1;9.0;9.1;80
9.1;9.11;9.1;9.11;14
9.02;9.02;8.83;8.86;2060
8.86;8.89;8.79;8.83;655
8.81;8.87;8.8;8.8;1705
8.8;8.81;8.79;8.8;352
8.8;8.84;8.78;8.78;3147
8.8;8.8;8.77;8.77;2274
8.77;8.77;8.72;8.73;3211
8.72;8.72;8.72;8.72;497
8.72;8.72;8.72;8.72;1
8.5;9.05;8.5;8.72;7
8.9;8.9;8.75;8.9;22
8.74;8.8;8.74;8.8;3
8.88;8.9;8.88;8.9;4
8.9;8.9;8.9;8.9;26
8.9;8.9;8.9;8.9;40
8.84;8.89;8.73;8.73;1306
8.72;8.73;8.69;8.69;2567
8.71;8.72;8.69;8.7;597
8.7;8.7;8.68;8.69;875
8.69;8.7;8.68;8.7;1149
8.69;8.7;8.65;8.66;1024
8.66;8.66;8.59;8.62;3485
8.63;8.63;8.63;8.63;156
8.8;8.8;8.8;8.8;1
8.94;8.94;8.61;8.61;4
8.75;8.75;8.61;8.61;36
8.61;8.61;8.61;8.61;2
8.83;8.83;8.61;8.61;55
8.75;8.75;8.75;8.75;1
8.83;8.94;8.75;8.79;4682
8.8;8.93;8.76;8.87;3694
8.88;8.9;8.86;8.86;964
8.82;8.82;8.7;8.7;2949
8.72;8.73;8.71;8.73;641
8.74;8.77;8.7;8.71;2360
8.71;8.72;8.66;8.71;4595
8.72;8.72;8.72;8.72;440
8.62;8.62;8.61;8.61;22
9.03;9.05;9.03;9.05;355
