<OPEN>;<HIGH>;<LOW>;<CLOSE>;<VOL>
74.0;74.77;73.27;73.86;14881
73.92;73.97;72.81;73.55;36666
73.6;73.82;73.46;73.71;23893
73.71;73.8;73.16;73.33;36129
73.33;73.62;73.05;73.18;22558
73.18;73.4;72.62;72.75;32275
72.74;72.93;72.37;72.9;63305
72.87;72.87;72.87;72.87;121
74.44;74.44;73.56;73.67;21
74.19;74.19;74.19;74.19;5
74.0;75.23;74.0;75.23;14767
75.23;75.9;75.11;75.78;57903
75.78;76.36;75.66;76.16;45544
76.16;76.25;75.94;76.02;35035
76.0;76.54;75.97;76.35;37748
76.38;76.75;76.18;76.36;41692
76.34;76.9;76.32;76.68;70421
76.69;76.69;76.18;76.18;172
77.43;77.43;76.98;77.43;9
76.98;76.98;76.98;76.98;1
76.45;76.45;76.28;76.28;5
76.46;76.46;75.7;75.7;20
75.99;76.49;75.1;75.13;17559
75.22;75.45;74.35;75.32;30565
75.3;76.18;74.96;76.13;18401
76.16;76.85;76.02;76.47;19533
76.46;76.74;76.31;76.39;15396
76.37;76.42;76.05;76.21;15958
76.22;76.33;75.9;76.01;41373
75.96;75.96;75.96;75.96;43
77.4;77.4;77.4;77.4;2
77.49;77.5;77.26;77.26;17
77.26;78.59;77.01;78.28;42674
78.37;78.5;77.15;77.4;57393
77.4;77.57;76.89;77.18;34897
77.21;77.21;76.56;77.04;45294
77.01;77.03;76.15;76.67;19220
76.66;76.67;76.13;76.54;38432
76.52;76.74;74.75;74.81;120590
74.78;74.78;74.07;74.07;88
74.07;74.07;74.07;74.07;50
75.67;75.67;74.31;74.31;3
74.79;74.79;74.79;74.79;3
75.2;75.2;75.2;75.2;4
75.0;75.0;73.32;74.17;32631
74.08;74.98;73.95;74.13;70162
74.17;74.67;73.19;73.45;55983
73.47;73.78;72.48;73.75;48418
73.77;74.28;73.31;73.33;38391
73.33;74.07;73.07;73.1;38918
73.12;74.24;72.94;74.04;76347
73.95;73.95;73.01;73.01;683
