<OPEN>;<HIGH>;<LOW>;<CLOSE>;<VOL>
32.8;33.02;32.68;32.71;76556
32.71;32.81;32.49;32.59;148003
32.6;32.99;32.6;32.96;108451
32.97;33.18;32.92;33.14;113707
33.14;33.19;32.96;32.99;94178
32.99;32.99;32.8;32.98;85754
32.98;33.05;32.62;32.68;201477
32.68;32.94;32.57;32.88;36
32.88;32.89;32.88;32.89;102
33.09;33.46;33.09;33.29;21
33.1;33.14;33.1;33.14;2
33.08;33.08;33.0;33.0;2
32.84;32.85;32.84;32.85;4
32.81;32.96;32.81;32.96;8
32.93;32.93;32.8;32.8;73
32.7;32.98;32.55;32.8;90731
32.81;32.93;32.63;32.81;88588
32.81;32.97;32.81;32.94;69534
32.95;33.24;32.94;33.23;123146
33.24;33.4;33.21;33.38;75173
33.37;33.52;33.35;33.5;103767
33.49;33.51;33.2;33.32;321398
33.48;33.48;33.16;33.16;687
33.17;33.17;33.17;33.17;1
33.31;33.36;33.31;33.36;10
33.42;33.61;33.42;33.43;26
33.36;33.43;33.34;33.34;51
33.39;33.42;33.3;33.42;15
33.34;33.34;33.2;33.33;744
33.4;33.81;33.37;33.76;106637
33.75;33.94;33.74;33.74;127024
33.74;33.86;33.62;33.76;102910
33.78;34.0;33.78;33.98;115473
33.98;34.02;33.75;33.88;441857
33.88;33.89;33.78;33.88;112891
33.89;33.94;33.7;33.74;277195
33.8;33.8;33.73;33.73;463
33.34;33.75;33.34;33.75;49
33.6;33.93;33.56;33.91;29
33.83;33.97;33.8;33.8;6
33.8;33.94;33.71;33.94;154
33.84;33.95;33.84;33.95;11
33.87;34.0;33.77;33.8;206
33.8;34.06;33.73;34.06;76778
34.07;34.23;33.99;34.04;100815
34.04;34.23;34.01;34.17;79191
34.16;34.18;34.0;34.16;65115
34.15;34.15;34.03;34.07;60294
34.07;34.12;34.02;34.08;58862
34.08;34.08;33.5;33.55;216257
33.65;33.65;33.48;33.51;897
33.53;33.54;33.49;33.49;196
33.49;33.5;33.47;33.49;184
33.6;33.6;33.47;33.47;10
33.47;33.47;33.47;33.47;10
33.51;33.58;33.5;33.58;10
33.55;33.55;33.55;33.55;2
33.7;33.86;33.69;33.86;109
33.92;33.92;33.73;33.77;15
33.76;34.26;33.63;34.22;122511
34.2;34.5;34.14;34.17;273257
34.17;34.37;33.92;34.02;149865
34.01;34.08;33.74;33.99;122331
33.99;34.02;33.82;33.94;109183
33.95;34.02;33.84;33.87;111497
33.87;34.14;33.81;34.1;244537
34.1;34.4;34.1;34.4;685
33.86;34.25;33.86;34.25;129
34.0;34.35;34.0;34.35;110
34.29;34.41;34.03;34.34;100
