<OPEN>;<HIGH>;<LOW>;<CLOSE>;<VOL>
129.63;132.01;129.14;131.97;38353
132.0;132.44;131.31;131.71;36415
131.77;133.12;131.77;132.96;24601
132.98;133.55;132.37;132.5;39167
132.54;133.04;132.13;132.23;21581
132.22;132.29;131.38;131.73;27197
131.71;132.09;131.1;131.31;81378
131.33;131.33;131.33;131.33;348
133.99;135.26;133.99;135.07;16592
135.22;135.22;133.96;134.13;16878
134.24;136.41;134.07;135.9;38023
135.91;136.08;135.32;135.48;19281
135.49;135.97;135.18;135.32;17578
135.34;135.57;134.8;135.43;31667
135.44;136.88;135.41;136.61;81950
136.63;136.63;136.63;136.63;4
137.86;137.86;137.86;137.86;5
136.63;136.63;136.34;136.34;14
134.48;135.89;134.2;135.39;14517
135.43;135.6;134.27;134.45;22132
134.48;135.24;134.45;134.92;27098
134.9;135.88;134.61;135.57;19159
135.48;137.03;135.36;136.39;24292
136.4;136.84;135.98;136.05;25476
136.09;136.45;134.0;134.2;75357
134.2;134.2;134.2;134.2;5
134.9;135.65;133.61;133.98;8488
134.06;135.73;134.06;135.65;38297
135.7;136.03;134.83;135.4;21311
135.42;135.98;135.22;135.74;18343
135.75;135.75;134.44;135.12;18275
135.15;135.18;134.01;134.79;23967
134.73;134.78;132.3;132.3;57779
131.6;133.27;131.52;132.97;28230
133.21;134.85;133.2;134.03;29346
133.98;134.54;132.33;132.87;37347
133.12;133.71;132.67;133.31;21631
133.37;134.06;132.75;132.91;28505
132.8;133.5;132.78;132.87;23386
132.87;135.31;132.87;134.97;63685
