<OPEN>;<HIGH>;<LOW>;<CLOSE>;<VOL>
9.85;10.19;9.72;9.81;195
9.74;9.99;9.68;9.75;229
9.79;10.01;9.75;9.96;5
9.76;10.24;9.76;9.9;370
9.93;9.93;9.62;9.74;826
9.79;9.93;9.79;9.93;131
9.93;9.93;9.76;9.85;818
9.85;9.85;9.85;9.85;2660
10.36;10.36;10.36;10.36;3
10.39;10.39;10.39;10.39;4
10.06;10.08;9.73;9.86;152
10.25;10.25;9.87;9.92;107
9.92;10.2;9.89;10.16;328
10.22;10.35;10.22;10.29;82
10.35;10.57;10.34;10.49;955
10.49;10.64;10.49;10.64;462
10.57;10.94;10.57;10.91;4955
10.95;10.95;10.95;10.95;2859
10.5;10.5;10.5;10.5;1
10.85;11.1;10.7;10.72;3148
10.79;10.86;10.58;10.79;1842
10.79;11.1;10.79;10.85;858
10.99;11.15;10.99;11.14;538
11.04;11.09;11.03;11.03;382
11.03;11.04;10.98;11.01;1069
10.99;11.04;10.9;11.03;1945
10.75;10.75;10.75;10.75;4951
10.88;10.88;10.48;10.48;1792
10.55;10.58;10.17;10.33;514
10.17;10.17;10.09;10.09;169
10.09;10.27;9.99;9.99;430
10.01;10.26;9.98;10.0;1040
10.17;10.17;9.99;10.0;24
10.14;10.14;9.56;9.56;1522
9.77;9.77;9.77;9.77;1178
9.77;9.77;9.32;9.55;536
9.34;9.55;9.28;9.31;759
9.31;9.51;9.28;9.38;821
9.29;9.4;9.29;9.32;205
9.31;9.33;9.31;9.33;81
9.51;9.81;9.51;9.62;1434
9.62;10.12;9.62;9.77;1329
10.11;10.25;10.11;10.25;2002
