<OPEN>;<HIGH>;<LOW>;<CLOSE>;<VOL>
46.22;47.33;46.22;46.93;41877
46.92;46.94;46.4;46.52;74227
46.54;46.99;46.25;46.92;37025
46.95;47.01;46.6;46.75;27783
46.75;46.79;46.45;46.58;33290
46.57;46.71;46.19;46.37;47691
46.38;46.56;46.12;46.18;144921
46.24;46.24;46.24;46.24;141448
47.91;47.91;47.91;47.91;1
46.81;47.03;46.79;46.79;4
46.98;46.98;46.77;46.8;6
46.84;47.04;46.84;46.85;7
47.04;47.05;46.86;46.86;11
46.85;46.85;46.83;46.84;43
46.84;46.85;46.84;46.85;10
47.13;52.98;46.73;47.31;39214
47.43;47.7;47.22;47.25;52326
47.23;47.71;47.15;47.64;44232
47.64;47.85;47.48;47.59;34598
47.6;47.84;47.45;47.79;32354
47.79;47.89;47.56;47.77;32803
47.76;48.22;47.67;48.03;138575
47.99;47.99;47.99;47.99;188143
48.1;48.1;48.1;48.1;1
48.33;48.33;48.33;48.33;1
47.82;47.82;47.61;47.8;3
47.75;48.37;46.51;46.57;37153
46.56;46.76;46.45;46.55;58609
46.54;47.09;46.54;46.94;42314
46.93;47.29;46.8;47.17;37545
47.17;47.54;47.12;47.22;39983
47.24;47.27;46.84;47.1;46871
47.11;47.32;46.94;47.08;182364
47.08;47.08;47.08;47.08;165823
47.16;47.16;46.92;47.14;13
46.97;46.98;46.72;46.72;6
47.17;47.18;47.17;47.18;2
47.28;47.28;47.28;47.28;1
47.42;48.37;45.68;46.92;36363
46.95;47.09;46.74;46.9;61118
46.9;47.07;46.52;46.57;34454
46.58;46.58;46.04;46.25;33595
46.26;46.35;46.13;46.32;30025
46.33;46.6;46.21;46.5;50383
46.51;46.78;46.25;46.39;191990
46.4;46.4;46.4;46.4;141110
47.05;47.05;46.0;46.0;7
46.13;46.13;46.13;46.13;1
46.39;46.42;46.39;46.42;6
46.41;46.41;46.41;46.41;5
46.51;46.75;46.51;46.75;3
46.3;46.3;45.72;45.93;53816
45.97;46.11;45.66;45.97;58323
45.97;46.17;45.7;45.86;91799
45.87;45.94;45.64;45.81;55868
45.84;45.97;45.71;45.82;42046
45.82;45.9;45.39;45.4;66235
45.41;45.96;45.41;45.87;216610
45.86;45.86;45.86;45.86;192320
45.8;46.06;45.8;46.06;4
