<OPEN>;<HIGH>;<LOW>;<CLOSE>;<VOL>
27.23;27.5;27.03;27.08;636
27.0;27.01;26.59;26.88;2301
26.91;27.57;26.89;27.47;1082
27.45;27.62;27.36;27.44;3118
27.58;27.58;27.28;27.31;1319
27.27;27.32;27.01;27.13;2475
27.08;27.21;26.97;27.12;9237
27.13;27.13;27.13;27.13;13
27.76;28.0;27.76;27.83;791
28.11;28.11;27.7;27.7;875
27.73;27.79;27.52;27.77;1923
27.68;27.77;27.58;27.7;1629
27.77;27.81;27.66;27.74;1970
27.77;28.11;27.71;28.11;3546
28.15;28.21;28.05;28.12;10141
28.13;28.13;28.13;28.13;63
28.58;29.39;28.58;29.39;6
29.39;29.39;29.39;29.39;5
29.39;29.39;29.39;29.39;4
27.97;27.97;27.97;27.97;1
27.64;27.7;27.53;27.63;1295
27.5;27.75;27.42;27.54;2981
27.56;27.66;27.44;27.6;4661
27.64;27.86;27.55;27.86;4207
27.89;28.1;27.89;27.98;3795
27.92;27.97;27.85;27.93;4383
27.92;28.04;27.6;27.6;18921
27.58;27.58;27.58;27.58;13
27.66;27.66;27.1;27.22;554
27.28;27.33;26.88;27.1;4402
27.07;27.15;26.96;27.06;4929
27.04;27.42;26.96;27.38;3434
27.35;27.35;26.88;26.88;3728
26.88;26.88;26.57;26.59;5581
26.56;26.7;26.26;26.33;20525
26.3;26.3;26.3;26.3;53
26.5;26.5;25.5;25.56;1581
25.76;25.76;25.18;25.29;2662
25.33;25.33;25.0;25.11;2901
25.11;25.22;24.91;25.09;2110
25.11;25.21;25.05;25.05;2443
25.03;25.21;24.93;24.98;4518
25.03;25.03;24.82;25.0;12712
25.02;25.02;25.02;25.02;33
