<OPEN>;<HIGH>;<LOW>;<CLOSE>;<VOL>
33.77;36.1;33.77;35.84;15287
35.88;36.65;35.52;36.65;18908
36.52;37.07;35.85;36.41;18339
36.44;37.07;36.41;37.05;9055
37.13;37.82;37.1;37.55;9165
37.53;38.48;37.44;38.22;12593
38.26;38.44;37.07;37.56;34625
37.56;37.56;37.08;37.08;14340
37.07;37.07;37.07;37.07;1
37.0;37.0;37.0;37.0;1
37.0;37.0;37.0;37.0;2
37.0;37.0;37.0;37.0;1
39.11;39.11;37.3;37.45;9550
37.64;38.7;37.57;38.46;9961
38.48;38.92;38.09;38.71;5496
38.56;38.84;38.56;38.78;5863
38.8;38.82;38.58;38.76;3499
38.76;39.34;38.76;39.19;8672
39.18;39.45;39.13;39.41;17417
39.4;39.4;39.4;39.4;18081
39.89;39.89;39.89;39.89;10
38.07;38.07;38.07;38.07;5
39.0;39.0;39.0;39.0;6
39.4;39.78;38.33;38.77;10232
38.86;39.74;38.77;39.52;8644
39.35;40.43;39.35;40.23;12239
40.3;40.99;40.25;40.69;10808
40.67;41.65;40.54;41.54;6952
41.58;42.07;41.31;41.96;16777
42.01;42.14;41.43;41.8;34534
41.64;42.5;41.64;42.5;43106
42.52;42.52;42.52;42.52;1
42.52;43.83;41.17;41.17;15
41.21;41.21;41.2;41.2;6
41.97;43.0;41.2;41.2;13
41.2;41.2;41.2;41.2;1
41.2;42.05;41.2;41.8;11991
41.8;41.8;40.5;40.5;16529
40.38;40.67;39.99;40.14;5313
40.04;40.12;39.66;39.97;6584
40.0;40.0;39.27;39.61;3899
39.57;39.59;38.94;39.14;7999
39.07;39.21;38.23;38.44;30328
38.41;38.41;38.0;38.0;20208
38.0;38.0;38.0;38.0;1
37.99;37.99;37.99;37.99;1
37.68;37.78;37.0;37.41;6786
37.5;37.62;36.5;36.5;11715
36.57;36.71;35.94;36.18;15944
36.3;36.66;35.74;35.94;13782
36.02;36.34;35.55;35.63;5451
35.59;35.76;35.34;35.34;10494
35.33;36.01;35.17;35.85;22317
35.85;35.85;34.18;34.18;17089
37.17;37.18;37.17;37.18;10
