<OPEN>;<HIGH>;<LOW>;<CLOSE>;<VOL>
5.92;6.02;5.9;5.92;30139
5.92;5.96;5.86;5.89;37138
5.9;5.94;5.88;5.94;42261
5.95;5.96;5.84;5.85;13834
5.86;5.92;5.85;5.92;8835
5.91;5.91;5.82;5.82;16252
5.81;5.86;5.79;5.86;18816
5.86;5.88;5.82;5.86;831
5.86;5.86;5.81;5.81;8
6.1;6.37;5.86;5.99;755
5.98;5.99;5.92;5.92;147
5.93;5.96;5.92;5.94;138
5.92;5.95;5.88;5.9;437
5.95;5.95;5.91;5.94;50
5.92;5.95;5.9;5.9;102
5.91;5.99;5.9;5.97;10578
5.98;6.04;5.92;5.98;20533
6.0;6.02;5.95;5.97;17286
5.96;5.98;5.93;5.97;5679
5.98;5.99;5.93;5.96;6202
5.96;6.0;5.95;6.0;12131
6.01;6.09;5.97;6.06;62451
6.02;6.12;6.02;6.11;1197
6.11;6.11;6.07;6.08;91
6.11;6.11;6.06;6.09;23
6.4;6.4;5.9;6.02;2540
5.97;6.2;5.7;5.8;13864
5.8;5.83;5.56;5.62;26359
5.65;5.74;5.54;5.63;26729
5.63;5.74;5.46;5.51;117666
5.5;5.54;5.45;5.51;86829
5.51;5.56;5.47;5.48;85044
5.48;5.58;5.44;5.58;83515
5.58;5.59;5.5;5.52;31559
5.52;5.59;5.51;5.57;22359
5.57;5.63;5.57;5.6;26723
5.6;5.61;5.55;5.57;19546
5.57;5.6;5.56;5.58;24214
5.58;5.59;5.56;5.58;14685
5.58;5.59;5.56;5.56;388
5.58;5.6;5.55;5.6;502
5.65;5.68;5.55;5.64;8798
5.64;5.82;5.64;5.79;44923
5.8;5.86;5.8;5.84;20195
5.84;5.95;5.79;5.79;20712
5.79;5.82;5.63;5.65;59011
5.65;5.72;5.64;5.7;9408
5.7;5.7;5.53;5.58;27596
5.57;5.58;5.51;5.53;30225
5.53;5.62;5.53;5.57;25618
5.57;5.61;5.57;5.59;4666
5.59;5.6;5.53;5.53;8589
5.53;5.58;5.5;5.58;13944
5.58;5.58;5.42;5.42;52498
5.49;5.5;5.41;5.41;6886
5.41;5.48;5.4;5.48;939
5.48;5.49;5.44;5.49;383
5.4;5.49;5.34;5.44;1218
5.44;5.52;5.43;5.51;1484
5.48;5.5;5.43;5.43;662
5.44;5.49;5.43;5.49;958
5.49;5.5;5.44;5.46;1357
5.48;5.48;5.4;5.41;4495
5.41;5.41;5.21;5.29;47136
5.29;5.35;5.18;5.19;38071
5.19;5.21;5.04;5.04;150098
5.05;5.1;4.98;5.08;32569
5.08;5.14;5.04;5.07;21340
5.06;5.08;5.02;5.03;15170
5.03;5.1;5.02;5.1;56900
5.1;5.21;5.09;5.15;4440
5.18;5.21;5.15;5.2;123
5.16;5.21;5.16;5.2;250
5.09;5.28;5.04;5.07;2173
