<OPEN>;<HIGH>;<LOW>;<CLOSE>;<VOL>
5.52;5.54;5.34;5.45;19234
5.42;5.42;5.12;5.12;78045
5.12;5.27;5.12;5.2;54315
5.2;5.24;5.08;5.12;60453
5.13;5.16;4.97;5.03;67126
5.03;5.07;4.8;4.81;105496
4.81;4.96;4.75;4.93;152655
4.92;4.99;4.89;4.92;7560
4.92;5.1;4.85;5.01;244
5.01;5.2;4.9;4.9;182
5.19;5.5;5.03;5.25;636
5.25;5.25;5.1;5.2;255
5.15;5.16;5.14;5.14;118
5.18;5.18;5.12;5.12;35
5.15;5.45;5.09;5.19;1625
5.18;5.18;5.0;5.0;882
5.11;5.19;4.97;5.0;17711
5.0;5.13;4.97;5.09;59217
5.08;5.1;5.04;5.07;29079
5.06;5.08;5.01;5.06;36910
5.06;5.08;5.01;5.05;97589
5.05;5.05;4.94;5.01;97736
5.0;5.08;4.92;5.01;207207
5.03;5.19;5.01;5.09;6135
5.09;5.16;5.08;5.11;363
5.08;5.16;5.08;5.16;92
5.3;5.39;4.07;5.18;1492
5.26;5.29;5.17;5.2;366
5.2;5.2;5.16;5.19;127
5.19;5.19;5.08;5.08;259
5.06;5.29;4.76;5.29;5503
5.02;5.2;4.91;4.99;2734
4.99;5.01;4.88;4.9;61357
4.91;5.01;4.86;4.92;263086
4.92;5.01;4.88;4.98;117957
4.98;5.15;4.9;5.06;154796
5.06;5.08;5.03;5.04;64676
5.03;5.03;4.96;5.01;100933
5.01;5.05;5.0;5.04;90517
5.04;5.11;5.04;5.1;3300
5.0;5.0;5.0;5.0;2
5.1;5.1;5.1;5.1;6
4.87;5.12;4.87;5.12;89
5.12;5.12;5.02;5.06;27
5.03;5.11;5.03;5.11;44
5.05;5.12;5.05;5.12;84
5.1;5.21;4.99;5.19;624
5.02;5.19;5.02;5.06;126
5.11;5.63;5.05;5.54;95231
5.55;5.57;5.29;5.35;174459
5.35;5.4;5.22;5.36;93275
5.36;5.52;5.32;5.46;117135
5.46;5.47;5.24;5.33;105038
5.32;5.35;5.24;5.34;114889
5.35;5.51;5.34;5.43;226189
5.44;5.51;5.29;5.45;9449
5.26;5.44;5.26;5.28;78
5.3;5.43;5.3;5.31;28
5.4;5.51;5.33;5.49;258
5.49;5.49;5.35;5.35;21
5.39;5.39;5.34;5.34;12
5.37;5.37;5.34;5.37;5
5.34;5.4;5.34;5.4;504
5.35;5.39;5.08;5.18;51800
5.18;5.33;5.05;5.08;84975
5.08;5.08;4.98;5.01;49133
5.01;5.11;4.91;5.11;55891
5.1;5.24;5.04;5.17;60513
5.18;5.22;5.14;5.18;56273
5.18;5.2;5.03;5.08;97015
5.08;5.29;5.08;5.29;2549
5.05;5.05;5.05;5.05;2
5.29;5.29;5.12;5.12;41
