<OPEN>;<HIGH>;<LOW>;<CLOSE>;<VOL>
79.97;81.95;79.43;81.22;8943
81.25;82.36;80.5;81.76;18453
81.67;81.94;81.51;81.7;28686
81.73;81.73;80.19;80.58;17821
80.55;81.1;80.52;81.01;11548
80.97;81.45;80.03;80.14;13139
80.08;80.43;79.9;80.35;26394
82.48;83.57;81.8;83.57;8063
83.42;84.1;83.15;84.03;24458
83.96;84.75;83.77;84.14;11606
84.19;84.23;83.26;83.62;16793
83.58;84.49;83.58;84.49;10232
84.47;85.14;84.28;84.92;13307
84.95;85.43;84.73;84.75;23162
84.86;84.86;84.86;84.86;1
83.75;83.75;80.13;80.76;7539
80.76;80.99;79.82;80.29;15552
80.18;82.03;80.18;81.99;14458
82.05;83.33;82.0;83.24;14844
83.13;83.35;82.45;82.45;8777
82.45;82.49;81.89;82.03;13007
82.11;82.31;80.89;80.91;29757
80.9;80.9;80.9;80.9;17
80.76;80.76;80.76;80.76;13
81.18;81.69;79.28;79.81;8670
79.64;80.48;79.26;79.74;15318
79.71;80.04;79.16;79.46;13299
79.38;79.38;78.81;79.16;10623
79.15;79.15;77.96;78.53;11519
78.7;78.71;77.72;78.14;18012
78.12;78.71;77.81;77.87;48684
77.82;77.82;77.82;77.82;33
77.88;77.88;74.24;74.4;13544
74.64;75.3;74.0;74.36;51564
74.35;74.52;73.32;73.57;41024
73.61;74.21;73.16;73.75;15887
73.86;74.48;73.45;73.53;9044
73.46;73.85;73.19;73.59;9314
73.63;74.09;72.75;74.04;33693
73.94;73.94;73.94;73.94;74
