<OPEN>;<HIGH>;<LOW>;<CLOSE>;<VOL>
827.6;844.0;827.6;844.0;573
842.11;846.29;832.96;841.19;616
839.27;851.13;839.27;851.02;1128
854.97;854.97;844.49;848.09;1289
848.49;853.27;847.25;849.07;1080
848.57;849.14;837.22;844.05;801
842.55;843.1;830.08;837.52;1769
848.99;855.64;844.91;853.62;714
855.62;857.94;849.99;854.99;692
853.55;865.41;853.55;862.82;1093
862.96;863.66;858.86;863.6;739
863.4;868.5;861.96;864.68;1148
865.44;872.0;865.44;871.23;1349
871.23;877.79;869.36;869.69;2284
869.71;869.71;869.71;869.71;1
873.29;873.29;873.29;873.29;1
864.8;864.8;864.8;864.8;5
859.29;864.8;850.2;850.2;350
851.12;859.13;847.85;857.53;979
858.25;860.5;853.6;858.36;655
858.32;865.0;857.35;865.0;328
865.0;869.71;864.38;869.71;265
868.65;868.91;860.77;868.31;822
868.37;875.59;860.61;862.56;2721
858.67;858.67;858.67;858.67;1
879.0;879.0;879.0;879.0;3
864.04;873.99;856.0;858.02;260
859.09;862.06;852.45;855.89;706
854.8;858.62;851.16;851.16;473
851.07;858.25;850.13;855.98;619
854.57;854.57;847.45;852.29;403
850.0;851.62;843.34;848.35;852
847.06;848.07;832.73;835.01;1161
837.39;837.39;830.0;830.0;4
830.0;830.0;813.0;816.0;187
816.04;820.08;809.35;811.05;768
812.0;814.91;803.68;807.75;821
807.0;809.2;801.99;803.22;1060
803.05;804.32;792.66;794.16;1212
792.81;797.43;788.26;789.51;1222
791.07;794.76;781.15;793.15;1926
