<OPEN>;<HIGH>;<LOW>;<CLOSE>;<VOL>
39.97;40.0;39.5;39.84;3300
39.84;40.12;39.54;39.68;8569
39.81;40.49;39.67;40.49;20758
40.49;41.02;40.36;41.0;19527
41.04;41.29;40.74;40.74;12098
40.73;40.96;40.55;40.67;7762
40.67;40.85;40.45;40.81;30923
40.8;40.8;40.8;40.8;37459
37.23;40.7;37.22;40.7;4
40.99;40.99;40.99;40.99;1
41.0;41.86;40.71;41.2;9717
41.22;41.81;41.1;41.74;18186
41.74;42.37;41.65;42.35;29742
42.39;42.44;41.82;41.92;24329
41.92;42.03;40.99;41.06;18718
41.07;41.27;41.03;41.23;10924
41.21;41.8;41.19;41.75;65491
41.67;41.67;41.67;41.67;36297
41.75;41.75;41.75;41.75;50
42.5;43.0;38.95;42.44;30
38.53;38.53;38.53;38.53;1
42.29;42.29;42.29;42.29;2
42.3;42.3;42.3;42.3;1
41.92;41.92;40.71;40.97;5236
41.05;41.66;40.91;41.17;9756
41.25;41.34;40.86;41.09;12305
41.11;41.74;41.09;41.74;10023
41.71;42.05;41.64;41.78;9749
41.76;41.95;41.6;41.91;13369
41.93;41.98;41.44;41.51;47254
41.47;41.47;40.99;40.99;64301
42.61;42.61;42.61;42.61;2
42.17;42.17;41.06;41.2;5348
41.2;42.06;41.13;41.91;11278
41.92;42.02;41.65;41.82;15973
41.84;41.92;41.64;41.83;10975
41.84;41.87;41.27;41.58;10304
41.57;41.69;41.32;41.42;13692
41.4;41.54;40.28;40.29;35888
40.29;40.29;40.29;40.29;41874
40.41;40.41;39.62;39.84;6371
40.09;40.35;39.53;39.95;38462
39.98;40.0;39.3;39.39;11692
39.44;39.51;38.69;39.16;7960
39.08;39.08;38.74;38.88;6870
38.82;39.13;38.66;38.8;8638
38.87;39.2;38.75;38.83;52325
38.85;38.85;38.85;38.85;54949
