<OPEN>;<HIGH>;<LOW>;<CLOSE>;<VOL>
4.7;4.88;4.6;4.8;5908
4.79;4.79;4.64;4.68;8583
4.7;4.77;4.65;4.72;9462
4.72;4.76;4.66;4.72;13384
4.72;4.79;4.7;4.76;20524
4.76;4.83;4.74;4.76;24895
4.76;4.79;4.74;4.77;33834
4.77;4.8;4.77;4.8;844
4.58;4.58;4.58;4.58;3
4.7;4.85;4.7;4.77;74
4.78;4.78;4.77;4.77;47
4.78;4.83;4.77;4.77;87
4.83;4.83;4.77;4.79;99
4.79;4.83;4.79;4.83;64
4.79;4.83;4.77;4.83;19
4.77;4.98;4.77;4.9;3524
4.88;4.97;4.77;4.81;9283
4.8;4.89;4.77;4.83;7009
4.84;4.86;4.81;4.83;5765
4.83;4.9;4.81;4.89;13021
4.88;4.9;4.87;4.88;4691
4.88;4.97;4.83;4.85;46256
4.86;4.98;4.74;4.95;1460
4.98;5.0;4.95;4.95;294
4.91;4.91;4.91;4.91;2
5.0;5.0;4.81;4.96;250
4.97;5.04;4.95;4.95;92
4.95;5.03;4.95;5.02;63
5.01;5.02;4.93;5.01;68
5.0;5.0;4.85;4.99;182
4.84;4.96;4.8;4.81;380
4.86;4.9;4.6;4.65;12785
4.63;4.7;4.6;4.62;13805
4.62;4.75;4.62;4.72;11529
4.73;4.84;4.73;4.82;8189
4.82;4.87;4.82;4.83;9764
4.83;4.9;4.79;4.89;11891
4.9;4.9;4.82;4.87;27343
4.87;5.0;4.8;4.8;708
4.78;4.98;4.78;4.98;6
5.01;5.01;4.67;4.89;801
4.78;4.9;4.78;4.79;83
4.9;4.9;4.79;4.89;7
4.89;4.9;4.82;4.82;109
4.82;4.9;4.82;4.9;103
4.83;4.98;4.82;4.84;19155
4.86;4.87;4.8;4.83;23335
4.83;4.89;4.8;4.87;6725
4.89;4.91;4.87;4.89;7750
4.88;4.88;4.8;4.86;7941
4.86;4.86;4.8;4.85;10182
4.86;4.89;4.75;4.76;34822
4.76;4.87;4.75;4.78;194
4.79;4.79;4.77;4.77;3
4.83;4.83;4.69;4.72;91
4.73;4.81;4.71;4.81;162
4.82;4.82;4.71;4.82;11
4.82;4.82;4.73;4.73;15
4.82;4.82;4.73;4.74;36
4.8;4.82;4.52;4.62;20322
4.64;4.66;4.5;4.52;17673
4.5;4.52;4.41;4.45;43136
4.46;4.48;4.4;4.44;8912
4.46;4.52;4.44;4.44;12006
4.42;4.45;4.38;4.39;8992
4.38;4.45;4.35;4.45;52302
4.44;4.45;4.37;4.37;611
4.38;4.45;4.38;4.44;73
4.45;4.45;4.45;4.45;3
4.45;4.51;4.45;4.5;81
