<OPEN>;<HIGH>;<LOW>;<CLOSE>;<VOL>
77.5;77.78;76.36;76.4;119382
76.39;76.44;75.44;75.76;231610
75.76;76.91;75.55;76.77;228539
76.76;76.84;76.65;76.7;148134
76.71;76.71;76.18;76.22;158030
76.22;76.26;75.92;76.01;215350
76.0;76.05;75.43;75.6;358637
75.6;75.94;75.41;75.94;2731
75.93;75.94;75.64;75.93;223
75.94;76.31;75.94;76.31;9
76.42;77.16;76.39;76.85;451
76.83;76.84;76.25;76.41;305
76.41;76.65;76.31;76.65;55
76.61;76.82;76.41;76.49;131
76.4;76.41;76.07;76.21;38
76.25;76.31;76.12;76.28;526
76.2;76.62;75.98;76.25;95949
76.28;76.63;76.16;76.55;175992
76.56;76.96;76.48;76.66;162510
76.67;76.69;76.43;76.46;74743
76.45;76.53;76.24;76.24;88875
76.24;76.44;76.2;76.4;118868
76.41;76.61;76.3;76.39;230307
76.56;76.9;76.33;76.63;1335
76.63;77.0;76.29;76.92;82
76.92;76.92;76.24;76.24;22
77.0;77.76;76.99;77.53;214
77.53;77.57;76.66;76.66;205
76.67;76.78;76.5;76.78;177
76.75;76.76;76.45;76.45;659
76.77;76.78;76.53;76.75;76
76.53;76.74;76.36;76.55;297
76.35;77.15;75.93;77.11;116451
77.09;77.63;77.02;77.62;197502
77.62;77.72;77.28;77.62;168332
77.65;77.81;77.37;77.73;101615
77.73;78.07;77.68;77.92;123507
77.93;77.98;77.49;77.71;145340
77.72;78.07;77.72;77.9;248818
77.91;78.1;77.2;77.2;844
77.22;78.1;77.22;78.0;10
77.62;78.1;77.62;78.1;10
77.77;77.96;76.96;77.86;210
77.99;77.99;77.5;77.86;328
77.87;77.87;77.63;77.85;143
77.86;78.07;77.86;78.03;105
78.03;78.29;78.03;78.29;169
78.25;78.4;78.18;78.28;231
78.28;78.57;77.99;78.43;106971
78.45;78.69;78.01;78.3;187176
78.31;78.66;78.15;78.36;120261
78.36;78.59;78.3;78.33;73022
78.32;78.32;77.93;78.03;90656
78.04;78.26;77.94;78.1;130866
78.09;78.09;77.19;77.19;246023
77.19;78.48;76.44;76.62;2323
76.62;77.8;76.3;77.8;920
76.52;77.0;76.44;76.7;626
76.18;76.97;76.02;76.25;187
76.49;77.36;76.49;77.36;73
77.36;77.37;77.27;77.35;33
77.34;77.34;77.3;77.33;11
77.33;77.34;77.03;77.34;58
77.34;77.39;76.8;77.0;683
77.0;77.64;76.35;77.31;133569
77.31;78.47;77.15;78.06;206672
78.06;78.68;77.91;78.38;278344
78.38;78.79;77.85;78.55;159653
78.56;78.59;78.02;78.1;107853
78.1;78.39;77.76;77.8;122832
77.81;78.26;77.32;77.87;402074
77.95;78.52;77.32;78.52;5485
78.5;79.15;78.5;79.0;6298
78.75;79.0;78.75;78.97;550
78.16;78.99;78.16;78.81;87
