<OPEN>;<HIGH>;<LOW>;<CLOSE>;<VOL>
37.87;38.74;37.8;38.7;174868
38.71;38.98;38.4;38.76;188730
38.76;39.14;38.76;39.05;169265
39.06;39.12;38.8;38.99;213339
38.98;39.08;38.93;39.04;191246
39.03;39.12;38.81;38.88;138781
38.87;38.99;38.59;38.83;479622
38.83;38.95;38.67;38.67;857
38.89;38.89;38.89;38.89;1
39.09;39.1;39.09;39.1;14
39.05;39.09;38.74;39.07;521
39.07;39.49;39.07;39.48;37
39.12;39.44;39.12;39.44;17
39.4;39.4;39.02;39.2;109
39.3;39.4;39.29;39.35;38
39.32;39.55;39.21;39.48;1717
39.5;39.78;39.21;39.73;238328
39.72;39.84;39.52;39.82;297876
39.82;40.16;39.78;39.96;309200
39.97;39.98;39.62;39.83;219353
39.84;39.88;39.73;39.82;179331
39.82;39.97;39.74;39.84;193967
39.84;40.16;39.8;40.07;425673
39.76;40.19;39.76;39.78;1349
39.99;40.15;39.99;40.0;36
40.29;40.29;40.29;40.29;1
40.14;40.49;39.57;39.57;164
40.29;40.29;40.0;40.0;4
40.0;40.28;40.0;40.28;25
39.8;40.28;39.57;39.57;15
39.57;39.66;39.5;39.66;52
39.5;39.5;39.3;39.4;398
39.41;39.73;39.3;39.56;176233
39.58;39.79;39.46;39.55;266481
39.55;39.94;39.54;39.87;176069
39.88;40.06;39.78;39.91;198206
39.91;40.03;39.84;39.9;151910
39.9;39.91;39.62;39.8;202948
39.8;39.87;39.72;39.82;333418
39.83;39.83;39.7;39.7;216
39.59;39.89;39.1;39.19;35
39.91;39.91;39.4;39.91;18
39.96;40.1;39.96;39.96;21
40.0;40.34;40.0;40.34;245
40.11;40.22;40.07;40.22;612
40.21;40.21;39.35;39.35;183814
39.36;39.44;38.82;38.92;245666
38.92;39.03;38.84;38.91;195157
38.91;38.97;38.71;38.76;158862
38.77;38.8;38.39;38.6;219941
38.6;38.78;38.35;38.7;195060
38.7;38.87;38.42;38.42;485882
38.37;38.58;38.28;38.3;742
38.3;38.3;38.3;38.3;1
38.2;38.2;38.08;38.08;9
38.19;38.19;37.81;37.83;82
37.98;38.67;37.8;37.86;150
38.41;38.98;38.36;38.98;8
38.96;38.96;38.46;38.49;44
38.5;38.68;38.5;38.68;516
38.54;38.64;38.48;38.57;615
38.5;38.5;37.65;37.78;252463
37.77;37.99;37.4;37.43;251789
37.42;37.5;36.88;37.01;221635
37.02;37.19;36.67;36.86;301546
36.86;37.04;36.69;36.76;217543
36.76;36.92;36.61;36.83;213423
36.84;37.08;36.7;36.99;554359
37.03;37.39;36.72;37.3;1320
37.05;37.05;37.05;37.05;6
37.24;37.24;37.24;37.24;11
37.2;37.49;37.18;37.48;118
