<OPEN>;<HIGH>;<LOW>;<CLOSE>;<VOL>
170.86;172.41;170.86;172.41;238
172.5;173.17;171.4;172.23;2299
172.06;172.3;169.63;169.72;2260
169.94;169.98;168.06;168.7;2889
169.22;169.88;168.56;169.39;2223
169.14;169.25;168.56;168.81;4094
168.81;170.14;168.35;168.58;13896
168.59;168.59;168.59;168.59;14
171.57;173.38;170.31;173.38;624
173.64;175.7;172.92;173.44;1933
173.15;174.3;173.15;173.72;1305
173.71;173.71;171.84;172.04;2252
171.99;173.12;171.86;172.95;1814
172.78;173.12;171.04;172.88;4534
173.05;174.13;172.36;172.52;7790
172.65;172.65;172.65;172.65;4
171.57;171.57;166.37;166.77;2046
166.78;166.78;160.75;161.81;10285
161.76;163.05;160.0;160.62;8938
160.6;164.5;160.0;163.52;6037
163.63;163.66;161.49;162.0;6297
162.01;164.19;161.79;163.83;5532
163.9;164.29;161.3;161.97;16655
161.67;161.67;161.67;161.67;40
169.28;169.28;169.28;169.28;1
169.28;169.28;169.28;169.28;2
169.28;169.28;154.67;154.67;3
156.41;156.41;156.41;156.41;1
163.0;168.26;161.15;161.55;437
161.55;162.64;160.45;162.24;4455
162.44;163.23;161.93;163.23;5556
163.22;164.51;163.05;164.51;3546
164.46;164.46;161.32;162.24;3976
162.49;162.49;159.62;159.88;3381
159.99;160.37;159.34;159.77;15525
160.0;160.0;160.0;160.0;5
158.65;158.81;156.97;157.83;1913
158.11;158.42;156.0;156.06;1862
156.27;156.4;152.75;153.25;3921
153.3;153.66;151.3;153.31;4892
153.34;154.26;153.0;153.89;4490
153.51;154.03;152.44;152.44;3830
152.6;154.27;152.12;153.97;10090
154.07;154.07;154.07;154.07;46
150.0;150.0;150.0;150.0;1
