<OPEN>;<HIGH>;<LOW>;<CLOSE>;<VOL>
725.0;729.82;717.01;725.98;1257
726.47;730.51;720.98;730.51;2763
729.87;740.86;729.87;738.46;3069
738.47;741.44;735.79;738.61;2027
738.61;741.86;736.43;737.97;2335
737.8;740.9;735.6;740.64;3385
739.38;741.02;735.25;741.0;10659
732.74;740.04;732.74;740.04;3
732.8;732.8;732.8;732.8;1
741.74;741.74;741.74;741.74;1
738.11;749.9;723.06;749.9;4429
749.98;757.9;737.49;740.02;7448
739.4;739.4;726.37;729.17;2574
727.96;733.23;724.03;733.23;1447
734.04;736.5;727.29;728.09;1834
727.53;731.58;725.8;731.58;1726
730.89;731.47;714.62;720.04;5070
719.57;719.57;719.57;719.57;1
713.38;718.8;713.38;715.94;280
717.99;721.0;715.58;715.72;1796
715.67;716.51;711.6;715.28;2948
715.71;719.5;714.13;718.56;3172
718.44;720.17;712.56;712.56;3671
713.28;713.7;710.03;712.85;3771
713.46;718.25;712.95;716.49;5639
715.47;719.21;712.94;716.36;805
716.4;719.04;711.4;714.32;3408
713.39;715.76;707.06;708.44;1138
707.61;709.83;702.85;708.73;1202
708.01;708.67;705.31;706.02;2395
706.03;706.03;700.71;701.58;2629
701.52;702.17;687.67;690.12;8045
690.07;690.07;690.07;690.07;5
682.59;682.59;682.59;682.59;3
692.21;696.28;687.29;694.15;1822
698.32;702.29;696.34;697.5;2047
697.84;700.95;692.03;692.03;1658
693.63;693.63;687.73;690.74;1285
690.36;693.19;683.7;685.35;1414
685.24;691.68;683.6;684.75;1366
685.16;689.89;681.5;689.89;6085
690.88;690.88;690.88;690.88;3
