<OPEN>;<HIGH>;<LOW>;<CLOSE>;<VOL>
6.9;7.2;6.9;7.16;85022
7.16;7.39;7.03;7.34;169460
7.34;7.48;7.26;7.48;134402
7.49;7.52;7.27;7.32;154470
7.32;7.4;7.32;7.38;101908
7.37;7.46;7.31;7.32;163452
7.32;7.5;7.28;7.46;470349
7.45;7.6;7.45;7.51;634
7.55;7.84;7.55;7.68;101
7.68;7.68;7.4;7.4;18
7.4;7.6;7.4;7.53;815
7.56;7.58;7.28;7.49;251
7.48;7.53;7.48;7.53;73
7.54;7.55;7.5;7.5;15
7.5;7.56;7.48;7.54;72
7.54;7.8;7.54;7.57;835
7.79;7.8;7.33;7.38;202578
7.39;7.4;7.01;7.2;172481
7.2;7.35;7.16;7.18;99350
7.19;7.2;7.06;7.1;63710
7.11;7.21;7.1;7.12;103116
7.12;7.2;6.99;7.18;151116
7.17;7.2;7.06;7.14;289404
7.13;7.24;7.12;7.18;4352
7.19;7.2;7.12;7.12;187
7.19;7.26;7.09;7.26;269
7.19;7.2;7.13;7.2;742
7.2;7.2;7.1;7.12;266
7.1;7.15;7.09;7.15;121
7.15;7.15;7.09;7.15;85
7.15;7.15;7.09;7.09;151
7.1;7.11;7.0;7.05;827
7.09;7.11;6.79;7.0;128757
7.0;7.17;6.94;7.08;124600
7.07;7.25;7.07;7.23;373554
7.23;7.28;7.14;7.18;657547
7.18;7.23;7.16;7.18;98992
7.18;7.2;7.12;7.14;86326
7.14;7.22;7.13;7.15;257691
7.14;7.2;7.11;7.11;206
7.12;7.2;7.12;7.2;21
7.07;7.16;7.07;7.11;65
7.14;7.16;7.12;7.16;46
7.16;7.16;7.12;7.16;51
7.16;7.22;7.15;7.21;48
7.22;7.23;7.16;7.23;101
7.23;7.23;7.21;7.23;28
7.23;7.29;7.01;7.06;251575
7.05;7.12;7.01;7.04;106109
7.04;7.08;6.96;6.96;128664
6.96;6.97;6.92;6.92;85287
6.92;6.92;6.82;6.88;64291
6.88;6.9;6.8;6.81;67997
6.8;6.87;6.72;6.73;176952
6.73;7.0;6.73;6.88;1565
6.8;6.8;6.8;6.8;3
6.85;6.85;6.85;6.85;1
6.54;6.78;6.54;6.78;350
6.7;6.76;6.7;6.76;112
6.74;6.77;6.66;6.77;19
6.77;6.77;6.77;6.77;4
6.78;6.85;6.78;6.85;41
6.85;6.85;6.51;6.6;49152
6.6;6.64;6.46;6.46;76670
6.47;6.49;6.28;6.3;98896
6.29;6.45;6.26;6.42;89307
6.43;6.56;6.43;6.5;62862
6.5;6.5;6.36;6.36;98357
6.36;6.48;6.34;6.45;148239
6.45;6.8;6.45;6.8;893
6.5;6.8;6.5;6.8;4
6.51;6.8;6.5;6.8;20
6.25;6.5;6.25;6.5;28
