<OPEN>;<HIGH>;<LOW>;<CLOSE>;<VOL>
14.25;14.74;14.25;14.72;26192
14.74;14.87;14.53;14.84;58838
14.85;15.0;14.76;14.98;33167
14.99;15.17;14.94;15.16;26275
15.16;15.24;15.13;15.23;24513
15.23;15.24;15.01;15.05;37725
15.04;15.1;14.85;14.9;94784
14.91;14.91;14.91;14.91;68107
14.15;14.5;14.12;14.12;15
14.02;15.0;14.0;15.0;4
14.94;15.2;14.93;15.06;21
14.93;14.93;14.92;14.92;11
14.66;14.97;14.54;14.97;401
14.97;14.97;14.97;14.97;10
15.16;15.16;14.66;14.82;24217
14.86;14.88;14.46;14.56;36805
14.56;14.67;14.47;14.6;28955
14.61;14.63;14.35;14.47;30867
14.5;14.51;13.95;14.01;36998
14.0;14.4;13.96;14.32;36924
14.33;14.61;14.29;14.61;174210
14.56;14.62;14.11;14.2;137119
14.4;14.5;14.25;14.5;96
14.45;14.5;14.45;14.5;9
14.77;14.77;14.63;14.63;184
14.64;14.64;14.51;14.63;7
14.62;14.62;14.48;14.48;51
14.5;14.61;14.5;14.61;55
14.6;17.31;14.59;16.15;1799
15.77;15.8;15.5;15.59;35
15.41;15.41;14.9;15.38;56878
15.46;15.69;15.3;15.44;57697
15.48;15.75;15.43;15.61;76311
15.62;15.96;15.47;15.94;52459
15.94;16.05;15.86;15.86;48355
15.89;15.91;15.65;15.65;56708
15.66;15.94;15.66;15.91;98171
15.91;16.18;15.1;16.18;163695
15.31;15.31;15.31;15.31;1
15.67;15.94;15.67;15.9;85
15.9;15.9;15.78;15.78;6
15.78;15.88;15.78;15.88;20
15.76;15.81;15.76;15.81;2
15.92;16.15;15.92;16.03;12
15.79;16.06;15.79;15.94;111
15.8;16.16;15.29;15.48;49874
15.47;15.65;15.03;15.36;26510
15.36;15.57;15.34;15.48;27213
15.47;15.52;15.23;15.41;20289
15.41;15.43;15.07;15.25;21369
15.24;15.34;15.09;15.12;47365
15.12;15.14;14.27;14.36;93115
14.37;15.0;14.25;15.0;78077
14.27;14.3;14.05;14.05;157
14.27;14.27;14.16;14.18;725
14.4;14.45;14.21;14.33;181
14.44;14.44;14.33;14.33;10
14.44;14.44;14.44;14.44;1
14.47;14.48;14.47;14.48;6
14.49;14.49;14.49;14.49;46
14.5;14.7;14.0;14.4;52316
14.39;14.86;14.39;14.54;33284
14.53;14.82;14.44;14.59;49365
14.58;14.58;14.07;14.43;36560
14.43;14.59;14.3;14.53;41213
14.52;14.89;14.49;14.8;40196
14.8;15.0;14.71;14.98;72005
14.98;15.04;14.98;15.04;78891
15.2;15.2;15.2;15.2;1
14.88;14.88;14.88;14.88;11
