<OPEN>;<HIGH>;<LOW>;<CLOSE>;<VOL>
106.92;108.34;106.71;108.21;23769
108.24;108.49;107.59;108.29;28429
108.31;109.07;108.23;108.96;20057
108.98;109.19;108.42;108.47;19733
108.48;108.81;107.58;107.66;18196
107.65;108.06;107.09;107.33;16350
107.31;107.49;106.76;107.33;71630
107.33;107.84;106.0;106.0;51855
108.05;109.32;107.82;107.82;7
109.15;109.16;107.82;109.08;12
108.23;108.23;108.23;108.23;1
109.07;109.31;109.07;109.31;26
108.12;108.14;108.1;108.1;10
108.1;108.96;107.86;108.47;145
108.49;109.67;107.5;107.79;23767
107.82;108.43;107.65;107.72;35446
107.66;107.96;107.36;107.58;21845
107.6;107.96;107.6;107.82;19395
107.86;108.04;107.21;107.21;24443
107.23;107.5;107.1;107.25;21788
107.21;107.83;107.17;107.57;80629
107.59;107.6;107.59;107.6;59940
107.79;107.79;107.6;107.6;18
107.39;108.97;107.39;108.7;22
108.69;108.7;108.0;108.0;6
108.0;108.01;107.5;108.01;8
108.0;108.0;107.5;107.81;10
107.5;107.54;107.22;107.22;13
107.46;107.59;107.46;107.59;3
107.6;107.95;105.63;107.58;27596
107.73;108.69;107.28;108.29;28021
108.39;109.46;108.32;109.4;22486
109.47;109.78;109.15;109.68;18053
109.7;109.95;109.42;109.42;14690
109.46;109.46;108.99;109.33;14138
109.38;109.54;108.82;109.25;89107
109.24;109.87;109.24;109.87;85851
109.87;109.88;109.37;109.37;18
109.48;109.83;109.48;109.83;16
109.6;109.6;109.6;109.6;1
109.36;109.81;109.36;109.5;6
109.46;110.46;109.46;109.69;39
110.0;110.4;109.65;109.65;6
111.15;111.15;108.24;108.84;42966
108.88;109.97;108.69;109.87;32146
109.9;110.4;109.44;109.66;24222
109.62;110.1;109.62;110.03;13464
110.01;110.01;109.52;109.91;20497
109.92;109.97;109.49;109.77;28501
109.72;109.79;108.49;108.5;101739
108.5;110.0;106.54;109.5;92155
109.43;109.43;108.2;108.21;139
108.7;109.0;108.2;108.88;10
108.7;108.7;108.0;108.1;93
109.22;109.59;109.22;109.59;84
109.49;109.49;108.5;108.5;3
108.5;109.02;107.54;108.55;35748
108.56;109.95;108.53;109.59;28379
109.6;110.24;108.0;108.3;40626
108.26;108.47;107.41;108.14;22523
108.15;108.37;107.68;108.1;21135
108.02;108.66;107.86;108.09;24084
108.1;109.21;107.66;108.79;69472
108.89;110.0;108.89;110.0;63817
108.07;109.68;108.07;109.34;93
