<OPEN>;<HIGH>;<LOW>;<CLOSE>;<VOL>
13.35;13.73;13.35;13.72;22332
13.72;13.87;13.61;13.74;42034
13.75;13.94;13.75;13.93;47766
13.95;13.98;13.76;13.81;49510
13.81;13.82;13.75;13.78;42437
13.78;13.82;13.66;13.68;43015
13.68;13.75;13.63;13.68;109677
13.68;13.68;13.68;13.68;35
13.62;13.63;13.62;13.62;96
14.08;14.08;14.08;14.08;1
13.84;13.84;13.84;13.84;1
13.81;14.09;13.81;14.06;20597
14.07;14.22;13.91;13.99;36970
14.01;14.15;13.97;14.1;25353
14.1;14.1;14.02;14.04;21859
14.05;14.14;14.0;14.14;25613
14.14;14.18;14.04;14.04;30695
14.04;14.18;13.94;14.15;86699
14.15;14.25;14.15;14.25;106
14.09;14.09;13.82;13.82;28
14.0;14.0;13.71;13.74;17123
13.76;13.86;13.67;13.83;39691
13.82;14.0;13.81;13.98;34871
13.98;14.14;13.98;14.12;24170
14.12;14.14;14.0;14.0;20896
14.0;14.02;13.94;13.98;19738
13.99;14.05;13.94;13.95;57674
13.94;13.94;13.94;13.94;12
14.15;14.15;14.15;14.15;3
13.61;13.61;13.59;13.59;4
14.06;14.09;14.06;14.09;2
14.04;14.05;13.69;13.76;37957
13.76;13.8;13.57;13.65;67336
13.64;13.64;13.44;13.5;73957
13.48;13.5;13.35;13.42;61049
13.42;13.45;13.39;13.42;88762
13.41;13.42;13.33;13.34;60823
13.34;13.38;12.95;12.96;241047
12.96;12.96;12.96;12.96;5
13.16;13.16;13.16;13.16;2
13.14;13.14;13.14;13.14;1
12.94;12.94;12.54;12.62;29763
12.63;12.67;12.37;12.4;66390
12.41;12.42;12.16;12.2;64623
12.19;12.28;12.15;12.26;75606
12.25;12.31;12.18;12.22;51761
12.21;12.22;12.16;12.2;86166
12.2;12.32;12.2;12.27;207337
12.26;12.26;12.26;12.26;224
