<OPEN>;<HIGH>;<LOW>;<CLOSE>;<VOL>
33.09;33.09;31.85;32.34;41179
32.3;32.37;31.82;31.82;93764
31.82;31.9;31.4;31.9;76854
31.9;32.21;31.85;32.11;57248
32.12;32.22;31.85;32.12;70799
32.08;32.34;32.08;32.11;69301
32.11;32.22;32.09;32.12;175142
32.12;32.15;31.75;31.75;3967
32.08;32.14;31.76;32.14;23
32.5;32.88;32.24;32.47;668
32.49;32.52;32.36;32.52;51
32.53;32.55;32.33;32.55;293
32.6;32.68;32.54;32.64;131
32.55;32.55;32.36;32.38;78
32.47;32.55;32.38;32.55;120
32.57;33.02;32.3;33.0;63585
33.01;33.38;32.98;33.18;79155
33.18;33.33;32.94;33.08;49230
33.09;33.22;32.92;32.96;47141
32.97;33.21;32.95;32.96;35778
32.96;33.04;32.8;32.85;61040
32.86;33.05;32.69;32.77;175064
32.77;32.77;32.77;32.77;3024
32.6;32.6;32.6;32.6;1
32.6;32.6;32.6;32.6;1
33.44;33.44;32.95;32.96;338
33.18;33.18;32.96;33.07;73
33.07;33.08;32.86;32.86;79
32.85;32.85;32.72;32.75;48
32.7;32.82;32.52;32.52;20
32.52;32.78;32.5;32.5;232
32.49;32.52;31.88;32.0;17336
31.98;32.45;31.98;32.34;74026
32.32;32.67;32.29;32.56;52233
32.55;32.67;32.49;32.64;36685
32.63;32.76;32.57;32.7;31194
32.7;32.74;32.59;32.64;45416
32.66;32.74;32.5;32.5;108265
32.5;32.5;32.5;32.5;1087
32.9;32.97;32.9;32.97;2
32.46;32.46;32.24;32.3;124
32.28;32.43;32.28;32.43;46
32.42;32.43;32.4;32.43;30
32.48;32.7;32.48;32.7;4
32.69;32.7;32.53;32.7;11
32.7;32.71;32.59;32.71;13
32.66;32.85;32.4;32.49;21649
32.51;32.55;32.19;32.29;54595
32.3;32.44;32.22;32.32;29004
32.32;32.53;32.26;32.5;42874
32.51;32.52;32.3;32.52;44251
32.52;32.55;32.42;32.45;51704
32.45;32.52;32.06;32.06;131461
32.07;32.8;32.07;32.8;251
32.06;32.06;32.0;32.0;3
32.09;32.09;31.88;31.88;162
31.9;32.0;31.9;32.0;182
31.98;32.11;31.98;32.11;105
32.32;32.32;31.91;31.91;11
31.96;32.17;31.95;32.17;30
32.1;32.16;32.1;32.16;3
32.0;32.0;31.43;31.73;48246
31.73;32.05;31.54;31.68;100082
31.68;31.74;31.3;31.58;125678
31.56;31.59;31.12;31.34;62388
31.35;31.48;31.22;31.3;29556
31.29;31.48;31.17;31.17;70514
31.17;31.84;31.17;31.76;141620
31.75;31.75;31.15;31.15;745
32.69;32.7;32.69;32.7;6
32.7;32.7;32.7;32.7;1
31.3;31.77;31.3;31.61;113
