<OPEN>;<HIGH>;<LOW>;<CLOSE>;<VOL>
23.31;23.6;23.11;23.12;11101
23.07;23.31;22.94;23.01;8330
23.05;23.1;22.91;23.04;9078
23.04;23.08;22.83;22.94;10739
22.95;23.02;22.71;22.72;7184
22.7;22.84;22.65;22.83;6225
22.84;22.9;22.68;22.87;22575
22.88;22.88;22.88;22.88;16459
22.8;22.95;22.8;22.95;2
23.15;23.16;23.15;23.16;3
23.06;23.06;23.06;23.06;55
22.9;23.45;22.9;23.3;9138
23.32;23.66;23.32;23.55;10198
23.56;23.93;23.52;23.89;12103
23.9;23.99;23.84;23.99;7133
23.97;24.09;23.79;23.85;14431
23.84;23.91;23.75;23.84;6300
23.83;24.03;23.79;24.02;32134
24.02;24.02;23.8;23.92;48475
24.19;24.19;24.19;24.19;2
24.03;24.03;24.0;24.0;2
23.98;23.98;23.98;23.98;5
23.79;23.79;23.79;23.79;1
23.79;23.91;23.52;23.57;10464
23.52;23.88;23.24;23.74;11598
23.68;23.88;23.68;23.87;7132
23.89;24.26;23.89;24.26;5479
24.23;24.35;24.18;24.21;9577
24.2;24.2;24.05;24.17;10012
24.19;24.24;23.91;24.02;28327
24.02;24.03;24.02;24.03;45330
24.03;24.03;23.01;23.65;11
23.77;23.77;23.77;23.77;18
23.78;23.78;23.78;23.78;1
23.77;23.86;23.77;23.86;2
23.93;24.03;23.93;24.03;8
24.03;24.03;24.03;24.03;3
24.3;24.3;24.1;24.1;6
24.11;24.14;23.85;24.0;7285
24.06;24.26;23.96;24.19;9234
24.21;24.22;23.9;23.96;8340
23.98;24.32;23.92;24.3;10200
24.32;24.35;24.03;24.19;7166
24.18;24.2;24.07;24.13;9215
24.12;24.2;23.58;23.68;25292
23.7;23.7;22.8;23.0;25679
22.81;23.3;22.81;23.3;2
23.62;23.62;23.47;23.47;6
23.62;23.62;23.62;23.62;1
23.85;23.85;23.85;23.85;1
23.59;23.62;23.32;23.62;5288
23.67;23.92;23.61;23.75;9901
23.75;23.83;23.5;23.55;8128
23.6;23.68;23.36;23.5;10317
23.51;23.52;23.32;23.35;7534
23.32;23.46;23.25;23.39;8693
23.4;23.52;23.19;23.42;24602
23.46;23.46;23.46;23.46;28444
23.3;23.3;23.3;23.3;1
