<OPEN>;<HIGH>;<LOW>;<CLOSE>;<VOL>
13.56;13.87;12.57;13.62;22909
13.58;13.59;13.1;13.16;30039
13.14;13.16;12.92;12.99;27857
13.01;13.32;12.98;13.32;22322
13.32;13.73;13.3;13.64;13832
13.63;13.63;13.33;13.45;8492
13.46;13.8;13.43;13.67;57673
13.65;13.65;13.25;13.25;33972
13.67;13.67;13.64;13.64;14
13.66;13.66;13.66;13.66;1
13.64;13.65;13.64;13.65;5
13.65;13.99;13.5;13.95;9489
14.0;14.26;13.95;14.19;32402
14.15;14.15;13.72;13.73;22238
13.72;13.91;13.72;13.78;18130
13.78;13.78;13.52;13.69;21894
13.69;13.92;13.65;13.9;10110
13.91;13.93;13.55;13.65;81249
13.64;13.96;13.64;13.96;109015
13.88;13.88;13.88;13.88;2
13.88;13.88;13.88;13.88;2
13.75;13.75;13.75;13.75;1
13.76;13.76;13.76;13.76;1
13.68;13.68;13.68;13.68;10
13.42;13.82;13.3;13.78;28358
13.82;14.55;13.8;14.46;63722
14.51;14.83;14.47;14.83;48816
14.83;15.28;14.78;15.21;25106
15.21;15.43;15.16;15.39;29747
15.38;15.96;15.26;15.89;78078
15.86;16.3;15.6;15.62;177046
15.59;16.21;15.59;15.99;120942
15.91;15.95;15.5;15.89;60
15.94;15.94;15.94;15.94;2
15.68;15.74;15.39;15.7;146
15.7;15.7;15.67;15.67;9
15.67;15.74;15.67;15.72;43
15.75;15.77;15.67;15.77;61
15.67;15.67;15.67;15.67;5
15.75;15.8;15.75;15.8;30
15.77;15.96;15.11;15.43;28225
15.43;16.19;15.43;16.19;46431
16.18;16.9;16.16;16.88;50304
16.86;16.98;16.66;16.9;31942
16.9;16.9;16.51;16.74;27486
16.73;16.76;16.46;16.69;22941
16.7;16.83;15.91;15.91;105332
15.89;15.92;15.43;15.5;97216
15.45;15.45;15.43;15.43;2
15.9;15.9;15.68;15.68;8
16.0;16.0;16.0;16.0;2
15.77;16.1;15.77;16.1;11
15.85;16.1;15.83;16.1;7
15.94;15.94;15.94;15.94;1
16.1;16.64;15.86;16.6;27704
16.62;16.69;16.11;16.11;32285
16.12;16.19;15.31;15.41;71010
15.38;15.79;15.03;15.68;239768
15.67;15.88;15.39;15.84;14685
15.84;16.08;15.74;15.82;16453
15.79;15.99;15.67;15.75;46881
15.75;16.0;15.6;16.0;86272
