<OPEN>;<HIGH>;<LOW>;<CLOSE>;<VOL>
20.9;21.62;20.9;21.41;161508
21.42;22.1;21.25;22.02;223968
22.03;22.43;22.0;22.28;225412
22.28;22.39;22.04;22.16;230079
22.18;22.18;21.87;22.08;121127
22.09;22.09;21.82;21.88;138355
21.88;21.94;21.52;21.65;302813
21.66;21.66;21.43;21.55;155531
21.55;21.55;21.55;21.55;1
22.31;22.31;21.8;22.1;502
21.8;22.03;21.8;22.03;31
22.0;22.0;21.85;21.85;58
22.1;22.1;21.95;22.09;8
21.9;22.09;21.76;22.09;876
21.99;22.08;21.97;22.06;491
22.1;22.15;21.54;21.6;112165
21.61;22.0;21.42;21.71;167337
21.71;22.12;21.71;22.11;77165
22.12;22.24;21.95;22.06;62193
22.06;22.15;21.91;22.04;64104
22.04;22.06;21.78;22.01;101478
22.05;22.33;21.99;22.2;197225
22.2;22.5;21.9;22.4;123452
22.4;22.49;22.4;22.49;4
21.95;22.67;21.95;22.47;500
22.49;22.49;22.22;22.4;33
22.34;22.36;22.1;22.36;11
22.07;22.07;22.07;22.07;8
22.1;22.5;22.06;22.06;26
22.1;22.1;21.95;21.95;118
22.14;22.47;21.91;22.24;112450
22.25;22.64;22.14;22.48;163844
22.49;22.64;22.41;22.45;86545
22.47;22.5;22.36;22.42;70246
22.41;22.45;22.3;22.4;39378
22.41;22.44;22.26;22.42;51859
22.42;22.53;22.05;22.05;126782
22.06;22.53;22.01;22.45;174874
22.65;22.65;22.65;22.65;6
22.44;22.65;22.44;22.65;75
22.4;22.43;22.22;22.42;130
22.25;22.57;22.25;22.57;53
22.23;22.56;22.23;22.28;588
22.3;22.51;22.26;22.51;631
22.22;22.31;22.22;22.31;202
22.16;22.56;21.55;21.75;65782
21.74;22.09;21.64;22.09;76741
22.08;22.44;22.08;22.2;60088
22.21;22.32;22.14;22.28;51331
22.28;22.28;21.88;22.14;41333
22.14;22.14;21.73;21.91;52472
21.9;21.93;21.17;21.21;191093
21.21;21.98;21.15;21.15;67332
21.16;21.16;21.05;21.05;201
21.3;21.3;21.1;21.23;247
21.2;21.28;21.15;21.24;237
21.23;21.23;21.1;21.11;277
21.54;21.54;21.54;21.54;1
21.55;21.55;21.28;21.35;673
21.55;21.7;21.37;21.5;142
21.49;21.5;20.57;21.02;75290
21.01;21.2;20.3;20.33;122631
20.32;20.44;19.81;19.9;156493
19.9;20.02;19.37;19.83;134764
19.83;19.98;19.66;19.87;66300
19.86;20.04;19.71;19.8;80787
19.81;20.15;19.75;20.09;199210
20.1;20.6;20.1;20.6;129055
20.25;20.5;20.25;20.5;151
20.01;20.27;20.01;20.05;20
