<OPEN>;<HIGH>;<LOW>;<CLOSE>;<VOL>
23.45;23.59;23.33;23.35;1586
23.17;23.25;22.88;23.04;10440
23.01;23.08;22.78;22.89;9695
22.84;22.84;22.4;22.67;18557
22.67;22.83;22.6;22.6;9088
22.61;22.61;22.27;22.33;11353
22.33;22.43;22.09;22.25;33803
22.25;22.25;22.0;22.0;15382
22.27;22.67;22.0;22.64;10504
22.65;22.65;22.07;22.22;13571
22.32;22.35;21.92;22.04;34232
22.05;22.59;21.91;22.47;48304
22.52;22.73;22.34;22.52;22140
22.48;23.09;22.45;22.95;20118
22.97;23.11;22.78;23.09;39457
23.08;23.08;23.07;23.07;30017
23.07;23.07;23.07;23.07;1
22.91;23.16;22.88;22.93;8727
22.95;22.99;22.44;22.44;14712
22.46;22.65;22.22;22.25;15681
22.32;22.84;22.29;22.84;8904
22.84;22.92;22.66;22.66;10417
22.66;22.74;22.51;22.54;11715
22.54;22.91;22.5;22.64;30890
22.64;22.64;22.64;22.64;35732
22.66;22.74;22.26;22.37;7796
22.37;22.61;22.33;22.44;13715
22.39;22.68;22.32;22.68;17337
22.7;22.99;22.66;22.71;7519
22.79;22.87;22.7;22.87;11153
22.94;22.94;22.63;22.63;14812
22.62;22.8;22.42;22.47;29796
22.47;22.47;22.47;22.47;93698
22.43;22.43;21.79;22.04;6797
22.34;22.34;21.77;21.77;7083
21.79;21.91;21.33;21.63;11998
21.63;21.65;21.31;21.49;9985
21.45;21.5;21.38;21.44;8445
21.41;21.45;21.34;21.41;11378
21.42;21.75;21.35;21.59;26912
21.63;21.63;21.63;21.63;24838
