<OPEN>;<HIGH>;<LOW>;<CLOSE>;<VOL>
10.01;10.11;9.91;9.95;33143
9.95;9.95;9.75;9.75;41635
9.76;9.91;9.76;9.89;22285
9.9;9.9;9.77;9.78;23421
9.79;9.83;9.79;9.81;15111
9.81;9.91;9.8;9.9;29479
9.89;9.93;9.85;9.93;27409
9.93;9.93;9.93;9.93;41723
10.16;10.16;10.16;10.16;1
10.11;10.11;10.11;10.11;5
10.17;10.17;10.17;10.17;30
10.17;10.17;10.17;10.17;1
10.17;10.17;10.17;10.17;5
10.22;10.22;10.01;10.01;27
10.25;11.05;10.25;11.05;47648
11.05;11.06;10.88;10.93;24384
10.93;11.17;10.93;11.17;22109
11.16;11.21;11.12;11.15;14826
11.16;11.3;11.16;11.25;20108
11.25;11.38;11.24;11.31;27932
11.32;11.38;11.23;11.25;36969
11.25;11.25;10.91;10.91;41791
10.9;10.9;10.9;10.9;40
11.39;11.4;11.39;11.39;32
11.26;11.26;11.26;11.26;2
11.16;11.16;11.15;11.15;2
11.16;11.16;10.9;10.93;31291
10.93;11.03;10.86;10.9;24393
10.9;10.94;10.86;10.93;13485
10.94;11.05;10.93;11.03;8029
11.04;11.08;10.98;10.99;7698
10.99;10.99;10.91;10.96;7920
10.96;11.04;10.96;10.98;51579
10.98;10.98;10.98;10.98;81301
10.8;11.07;10.79;10.87;39453
10.88;10.91;10.81;10.91;33674
10.91;11.01;10.9;10.98;15048
10.97;11.09;10.96;11.06;20084
11.06;11.06;10.93;10.99;19481
10.98;10.99;10.91;10.95;21693
10.95;10.98;10.8;10.8;89604
10.8;10.8;10.8;10.8;65259
10.89;10.89;10.89;10.89;1
10.69;10.69;10.55;10.66;26337
10.67;10.73;10.63;10.64;23864
10.64;10.67;10.6;10.62;23660
10.61;10.77;10.57;10.76;19726
10.74;10.8;10.71;10.78;16383
10.78;10.82;10.73;10.78;32133
10.79;10.95;10.79;10.93;97708
10.93;10.93;10.93;10.93;55525
