<OPEN>;<HIGH>;<LOW>;<CLOSE>;<VOL>
148.6;151.71;148.6;151.58;22097
151.48;152.39;149.71;152.3;45903
152.5;154.83;152.5;154.19;28581
154.26;154.45;153.35;154.11;18411
154.22;155.55;154.17;154.77;17177
154.67;155.11;153.85;154.52;19213
154.5;156.23;154.17;155.57;98217
155.5;159.6;145.15;148.0;28113
149.26;151.0;149.21;150.0;365
153.03;153.03;152.99;152.99;2
149.93;149.93;149.59;149.59;3
152.52;152.52;152.52;152.52;1
152.52;152.52;151.88;151.88;36
152.0;153.1;152.0;153.1;260
154.2;158.32;146.97;150.93;69428
150.62;153.38;147.84;149.25;38368
149.55;153.89;149.55;153.63;28327
153.62;154.37;152.86;153.99;40708
153.91;153.97;151.3;151.57;36120
151.5;151.86;150.42;151.1;34614
151.19;151.49;150.1;150.75;54327
150.55;150.55;150.55;150.55;21347
150.55;151.84;150.55;151.84;3
151.14;151.14;151.14;151.14;3
149.0;149.0;147.94;147.94;13
148.78;151.8;148.5;149.93;24214
150.02;151.12;149.85;150.05;20103
149.91;150.16;149.22;149.66;12771
149.64;149.84;148.93;149.81;9398
149.71;150.48;149.61;149.65;11072
149.68;149.74;148.68;149.1;15238
149.06;149.21;148.25;148.7;40140
148.7;148.7;148.65;148.65;90130
153.0;153.0;148.0;148.0;5
147.24;147.24;147.17;147.17;5
149.51;149.51;149.5;149.5;400
152.69;152.69;146.75;148.08;23970
148.04;150.66;147.9;150.25;13744
150.34;150.87;150.05;150.7;8701
150.83;152.37;150.48;152.26;9818
152.33;152.37;150.61;151.5;13151
151.5;151.57;150.36;150.46;13386
150.43;150.66;148.22;148.62;69756
148.25;148.25;147.0;147.0;24018
147.0;147.0;147.0;147.0;265
148.0;148.0;148.0;148.0;5
151.49;151.54;151.47;151.54;4
148.6;148.6;144.53;145.92;20998
145.98;147.93;145.5;145.5;9238
145.42;146.17;142.11;142.39;28274
142.45;143.0;140.63;142.59;19136
142.58;142.58;140.83;141.03;10192
141.0;142.15;140.35;141.31;13365
141.32;143.97;141.22;143.78;37023
143.64;143.64;143.64;143.64;24002
