<OPEN>;<HIGH>;<LOW>;<CLOSE>;<VOL>
63.26;64.15;63.25;63.73;2325
63.75;64.02;63.37;63.77;6666
63.77;64.29;63.71;64.16;8466
64.19;64.19;63.19;63.4;9864
63.36;63.68;63.17;63.28;8767
63.24;63.94;63.17;63.49;14696
63.48;63.77;63.16;63.35;18598
63.31;63.31;63.31;63.31;32
64.72;65.32;64.2;65.3;2478
65.61;66.05;65.4;65.66;10016
65.67;66.68;65.55;66.05;8606
66.07;66.35;65.92;66.02;6533
66.06;66.17;65.72;66.01;5812
66.0;66.26;65.81;66.11;7079
66.13;66.83;66.13;66.71;24016
66.65;66.65;66.65;66.65;4
67.0;67.0;67.0;67.0;10
65.66;65.66;64.41;64.55;2345
64.49;64.49;63.6;63.97;10267
63.94;64.24;63.84;64.14;12248
64.17;64.92;64.14;64.89;8839
64.82;65.03;64.62;64.62;9196
64.67;65.03;64.61;64.99;14093
65.0;65.37;64.22;64.35;40658
64.3;64.3;64.3;64.3;12
64.67;64.97;64.19;64.26;2128
64.26;64.31;63.26;63.39;2852
63.35;63.49;63.13;63.27;5143
63.27;63.31;63.01;63.11;6946
63.11;63.14;62.55;62.55;4009
62.6;62.65;61.83;61.97;9336
61.96;61.96;60.83;60.83;18853
60.83;60.83;60.83;60.83;76
60.26;60.68;59.73;60.22;5163
60.47;60.62;59.59;59.65;23911
59.67;59.8;58.88;59.02;18334
59.02;59.63;58.92;59.5;16728
59.53;59.96;59.25;59.31;8723
59.3;59.54;59.12;59.12;12328
59.23;59.55;58.86;59.26;37809
59.27;59.27;59.27;59.27;17
