<OPEN>;<HIGH>;<LOW>;<CLOSE>;<VOL>
114.0;114.18;112.9;113.42;112908
113.38;113.43;112.28;112.53;196748
112.54;113.58;112.43;113.5;118241
113.52;113.71;113.01;113.08;97626
113.12;113.41;112.9;113.14;99370
113.13;113.28;112.61;112.75;123070
112.75;112.9;111.83;112.15;263884
112.17;112.74;112.17;112.22;1962
112.29;112.5;112.29;112.5;80
112.48;112.48;112.02;112.45;106
113.73;113.77;112.45;112.54;57
112.43;113.25;112.43;113.25;124
113.1;113.35;112.99;113.33;92
113.33;113.45;113.09;113.42;42
113.3;113.33;112.8;112.8;8046
112.73;113.2;112.73;113.1;536
112.95;114.84;112.95;114.72;189994
114.71;115.76;114.71;115.74;401551
115.75;116.3;115.7;115.82;327252
115.83;116.05;115.4;115.51;121204
115.51;115.71;115.2;115.51;146198
115.51;116.0;115.48;115.78;106827
115.78;116.01;115.33;115.93;275298
115.95;116.24;115.1;116.24;1494
116.36;116.36;116.35;116.36;4
116.54;116.57;116.01;116.01;80
116.29;116.29;115.78;115.8;35
116.04;116.05;115.95;115.95;10
116.05;116.36;115.87;116.24;57
116.12;116.12;115.5;115.75;16043
115.6;115.7;115.35;115.55;1750
115.7;115.99;114.94;115.33;96916
115.3;115.95;115.22;115.64;162560
115.65;116.01;115.52;115.87;130765
115.88;115.91;115.68;115.89;100351
115.89;116.0;115.44;115.49;101669
115.51;115.59;115.21;115.44;109265
115.45;115.79;115.08;115.3;191598
115.32;115.37;115.01;115.02;688
115.31;115.31;115.31;115.31;2
115.11;115.25;115.11;115.11;12
114.75;115.99;114.75;115.96;53
115.78;115.78;115.63;115.63;27
115.62;115.88;115.1;115.38;30
115.27;115.35;115.24;115.35;11
115.09;115.36;115.01;115.2;524
115.3;115.7;115.25;115.62;11743
115.6;115.89;115.09;115.79;90923
115.7;115.87;115.17;115.71;135190
115.72;115.9;115.35;115.35;137585
115.35;115.35;114.55;115.08;209779
115.06;115.29;114.88;115.18;84854
115.18;115.58;115.15;115.52;109301
115.51;115.59;114.53;114.55;445386
114.55;114.55;113.7;113.7;3040
114.01;114.01;113.7;113.7;56
113.77;114.03;113.48;114.03;585
114.86;114.96;113.98;114.1;119
114.5;114.5;114.22;114.26;25
114.5;114.76;114.03;114.76;16
114.77;115.0;114.48;114.73;24
114.99;114.99;114.62;114.62;183
114.68;114.98;113.83;114.5;871
114.25;115.23;113.5;114.56;149418
114.56;115.33;114.48;114.66;233281
114.67;114.89;114.14;114.41;212778
114.43;115.15;114.3;114.71;352176
114.74;114.82;114.34;114.56;104308
114.54;114.75;114.0;114.05;114275
114.05;114.48;113.73;113.89;261091
113.92;114.46;113.92;114.46;119
114.46;114.46;114.46;114.46;1
114.02;114.99;113.59;114.99;35
