<OPEN>;<HIGH>;<LOW>;<CLOSE>;<VOL>
153.65;158.07;153.56;156.8;18405
156.6;157.65;155.61;156.87;25629
156.9;158.5;156.6;158.5;17065
158.5;158.7;156.66;157.28;20083
157.3;158.23;157.21;157.87;13161
157.8;157.84;156.32;156.32;18392
156.37;157.3;155.45;155.81;33141
155.99;155.99;155.99;155.99;5
159.82;161.32;157.79;161.32;22004
161.38;162.52;160.83;161.36;64609
161.33;161.77;160.92;161.07;36541
161.21;161.23;160.0;160.14;25683
160.25;160.43;159.48;160.07;21669
160.05;161.0;159.84;160.95;28731
161.05;161.85;160.88;161.04;54753
161.0;161.0;161.0;161.0;43
161.98;161.98;161.98;161.98;4
161.9;161.9;161.9;161.9;1
161.66;161.66;161.66;161.66;1
161.0;161.0;161.0;161.0;5
160.5;160.5;155.29;155.67;50151
155.8;156.1;154.64;155.79;71684
155.7;157.56;155.7;157.43;59162
157.5;159.49;157.39;158.18;47408
158.18;159.69;157.96;159.39;26967
159.41;159.61;158.65;159.36;23432
159.35;160.12;158.39;158.49;51659
158.38;158.38;158.38;158.38;5
158.65;158.65;158.65;158.65;2
158.65;159.7;157.76;158.21;21215
158.26;158.5;156.8;157.3;46189
157.23;158.14;157.16;158.06;39801
158.07;158.18;157.66;157.82;18449
157.7;157.77;154.65;155.24;55836
155.27;156.33;154.82;156.33;57205
156.16;156.6;152.78;152.87;54275
152.35;152.35;152.35;152.35;200
148.0;148.0;148.0;148.0;1
153.0;153.0;148.76;150.97;36747
151.13;152.35;149.41;149.51;73483
149.45;149.65;146.84;147.17;74858
147.12;148.23;146.02;147.31;43562
147.4;147.94;146.31;146.47;37067
146.45;146.5;145.16;145.16;26390
145.15;146.89;144.47;146.78;50613
146.79;146.79;146.79;146.79;3
146.8;146.8;146.8;146.8;5
