<OPEN>;<HIGH>;<LOW>;<CLOSE>;<VOL>
60.78;61.44;60.78;61.27;2027
60.99;61.0;60.25;60.61;3387
60.56;60.89;60.29;60.89;2358
60.91;60.96;60.38;60.76;2729
60.7;60.79;60.18;60.25;2554
60.25;60.3;59.94;60.02;5723
60.05;60.44;59.87;60.34;12718
60.34;60.34;60.34;60.34;16229
61.44;62.69;61.02;62.53;2357
62.8;63.52;62.54;62.73;5699
62.75;63.73;62.38;63.69;2812
63.67;63.78;63.13;63.19;4740
63.2;63.54;62.96;63.4;9489
63.4;63.61;63.14;63.61;7044
63.67;64.19;63.52;64.18;18168
64.11;64.11;64.11;64.11;24987
63.9;63.9;62.51;62.51;7538
62.43;63.27;62.36;62.97;14899
62.75;63.56;62.75;63.56;4458
63.65;64.19;63.5;64.1;6345
64.0;64.44;63.95;64.03;3104
63.89;63.93;63.29;63.29;3521
63.15;63.45;62.1;62.32;23233
62.32;62.32;62.32;62.32;33366
63.07;63.07;61.22;61.48;2212
61.46;61.9;61.14;61.37;3732
61.45;61.82;61.25;61.25;2685
61.16;62.0;61.16;62.0;1827
61.98;62.0;61.62;61.62;4635
61.68;61.87;61.54;61.72;5658
61.61;61.75;60.24;60.39;27029
60.43;60.43;60.43;60.43;23798
59.94;59.94;59.0;59.02;2039
59.44;59.44;58.34;58.34;2160
58.24;58.44;57.82;58.18;4552
58.24;58.61;57.77;58.18;4581
58.18;58.5;58.01;58.17;3278
58.19;58.5;58.15;58.19;4757
58.21;58.65;58.0;58.14;34398
58.06;58.06;58.06;58.06;24794
