<OPEN>;<HIGH>;<LOW>;<CLOSE>;<VOL>
100.57;103.15;100.36;102.98;22343
103.01;104.38;102.22;103.6;50760
103.67;104.37;103.42;104.01;43990
104.07;104.23;101.59;102.09;29495
102.03;102.29;101.58;101.74;18522
101.71;101.95;101.14;101.48;21943
101.46;101.53;100.78;101.29;57387
101.29;101.29;101.29;101.29;3
103.04;105.24;102.71;104.8;39096
104.83;105.44;103.11;103.89;37820
103.87;104.9;103.6;104.23;23561
104.24;104.39;103.82;104.27;24657
104.33;104.48;104.15;104.48;29780
104.48;104.85;104.31;104.62;25452
104.64;105.24;104.56;105.02;85775
105.03;105.03;105.03;105.03;8
105.02;105.02;105.02;105.02;1
102.71;103.15;101.5;101.78;48222
101.76;102.42;101.06;101.17;98928
101.17;102.01;100.7;101.72;51748
101.74;102.78;101.58;102.41;52352
102.39;102.81;101.89;101.93;30049
101.99;102.18;101.01;102.05;47213
102.05;102.84;101.93;102.11;142904
102.12;112.0;102.12;112.0;799
112.5;112.5;106.25;106.25;420
106.97;106.99;106.97;106.99;221
107.29;107.29;107.29;107.29;1
107.18;107.18;107.18;107.18;1
106.83;107.45;106.83;107.45;2
106.0;108.49;106.0;106.5;3381
106.85;107.04;98.44;99.0;248858
99.04;100.25;98.68;99.35;317973
99.32;100.17;99.0;100.16;115347
100.06;100.34;99.68;99.82;75602
99.77;100.26;99.12;100.26;123030
100.27;100.44;99.49;100.31;91067
100.29;101.1;99.66;100.02;218393
100.0;100.0;99.24;99.75;59
99.1;99.1;99.1;99.1;16
99.84;99.84;99.84;99.84;16
100.46;100.47;100.43;100.43;8
101.0;101.0;101.0;101.0;1
100.19;100.19;100.19;100.19;1
100.0;100.17;100.0;100.16;369
100.0;100.09;96.77;97.64;100899
97.66;98.19;96.33;96.58;252429
96.58;96.88;94.9;95.32;117394
95.34;96.1;94.84;96.09;97890
96.12;97.23;95.83;96.07;82107
96.02;96.52;95.86;96.19;81943
96.21;96.79;95.79;96.79;267240
96.79;96.79;96.79;96.79;18
97.1;97.1;97.1;97.1;1
97.1;97.1;97.1;97.1;15
96.91;96.91;96.91;96.91;1
