<OPEN>;<HIGH>;<LOW>;<CLOSE>;<VOL>
16.94;17.05;16.5;16.87;2688
17.0;17.0;16.38;16.7;5681
16.7;16.87;16.41;16.54;2420
16.6;16.83;16.51;16.51;2886
16.73;16.74;16.35;16.35;2018
16.33;16.52;16.02;16.46;8235
16.43;16.53;16.13;16.53;13525
16.53;16.53;16.52;16.52;11168
16.51;16.51;16.51;16.51;1
16.51;16.51;16.51;16.51;2
13.5;16.3;13.5;16.3;90
16.27;16.27;16.27;16.27;20
16.25;16.25;16.25;16.25;1
16.25;16.25;16.25;16.25;8
16.01;16.1;14.5;15.5;14
16.1;17.98;16.0;17.06;2614
17.09;17.74;17.04;17.61;7940
17.64;18.08;17.37;18.05;8118
18.03;18.45;17.98;18.25;8326
18.31;18.5;18.11;18.14;3770
18.24;18.85;18.15;18.81;5190
18.81;19.51;18.6;19.08;18910
19.09;19.09;19.09;19.09;13435
16.11;22.86;16.11;22.86;49
22.85;22.86;22.8;22.86;80
22.2;22.86;20.57;22.85;18
22.85;22.86;22.35;22.35;48
22.34;22.34;22.34;22.34;5
22.34;22.35;22.34;22.35;2
20.69;20.69;17.13;17.85;4262
17.87;18.01;17.34;17.34;4395
17.27;17.78;17.19;17.65;4296
17.55;17.64;17.36;17.53;2103
17.52;18.01;17.47;18.0;5212
17.9;18.05;17.6;17.97;4131
17.85;17.94;17.21;17.45;11479
17.46;17.68;17.46;17.65;17227
17.5;17.65;17.42;17.45;33
17.45;17.65;17.45;17.65;38
17.65;17.96;16.5;17.72;254
17.1;17.72;17.1;17.7;22
17.6;17.7;17.2;17.2;13
17.2;17.65;17.2;17.26;12
17.64;17.65;17.64;17.65;2
17.27;17.27;17.27;17.27;2
17.44;18.14;16.96;17.24;2107
17.28;17.39;16.74;17.22;3849
17.2;17.63;17.01;17.08;5287
17.24;17.27;16.75;16.79;2187
16.79;17.26;16.79;17.18;3957
17.09;17.31;16.86;17.09;10600
17.18;17.51;16.87;16.95;20791
16.96;16.96;16.8;16.8;9227
16.5;18.59;16.5;16.57;18
17.66;17.66;16.93;16.93;3
16.8;16.8;16.58;16.6;20
16.6;16.9;15.9;16.85;63
17.08;17.08;17.08;17.08;1
16.77;17.11;16.57;17.08;6491
17.16;17.45;16.75;16.78;20409
16.74;16.84;16.01;16.18;4971
16.22;16.26;15.75;16.05;6474
15.99;16.57;15.91;16.47;2718
16.5;16.79;16.3;16.77;3238
16.79;17.52;16.6;17.52;19511
17.41;17.5;16.11;17.5;16329
17.51;17.69;17.51;17.69;34
17.75;17.75;17.75;17.75;428
