<OPEN>;<HIGH>;<LOW>;<CLOSE>;<VOL>
90.13;90.59;89.97;90.38;41256
90.39;90.69;89.89;90.03;57924
90.07;90.89;89.97;90.58;80254
90.6;90.8;89.53;89.61;59431
89.63;90.03;89.62;89.84;29696
89.82;90.33;89.73;90.16;43177
90.12;90.4;89.85;90.34;107628
90.36;90.36;90.36;90.36;1
91.48;92.57;91.24;92.57;22154
92.53;92.71;91.78;92.07;49076
92.09;92.62;91.88;92.26;40323
92.24;92.46;92.07;92.4;39222
92.42;92.43;92.1;92.14;33769
92.16;92.25;91.99;92.17;37800
92.18;92.33;91.74;91.96;79931
91.98;91.98;91.98;91.98;12
92.81;92.81;92.81;92.81;1
92.02;92.02;91.28;91.28;3
92.93;92.93;89.61;90.43;24543
90.45;90.66;90.03;90.1;42563
90.08;90.64;90.01;90.42;31360
90.44;90.95;90.36;90.53;41144
90.5;91.07;90.39;90.63;43321
90.63;90.65;90.14;90.44;55148
90.44;90.76;90.3;90.44;137391
90.42;90.42;90.42;90.42;10
90.44;90.44;90.44;90.44;1
90.52;91.55;90.52;91.05;29686
91.1;91.34;90.06;90.36;48906
90.3;90.56;90.08;90.54;28343
90.54;90.7;90.29;90.53;39247
90.53;90.53;89.64;89.73;39117
89.75;89.77;88.76;88.87;53726
88.87;88.96;87.6;87.67;91354
88.05;88.05;88.05;88.05;1
87.0;87.3;85.14;85.4;20034
85.35;86.11;84.63;84.64;27812
84.69;85.0;83.71;83.9;56052
83.86;84.31;83.6;84.31;68450
84.32;84.84;84.12;84.16;20299
84.14;84.36;83.78;83.9;27610
83.9;84.56;83.75;84.28;74883
84.24;84.24;84.24;84.24;42
