<OPEN>;<HIGH>;<LOW>;<CLOSE>;<VOL>
24.5;24.76;24.5;24.63;74170
24.63;24.69;24.33;24.55;133730
24.56;24.76;24.47;24.74;88795
24.75;24.8;24.6;24.69;70948
24.69;24.7;24.51;24.51;67600
24.51;24.6;24.41;24.44;61852
24.44;24.49;24.24;24.28;167414
24.26;24.29;24.26;24.26;313
24.57;24.57;24.57;24.57;100
24.89;24.89;24.76;24.81;60
24.85;24.85;24.75;24.77;18
24.9;24.91;24.9;24.91;3
24.8;24.8;24.59;24.66;209
24.67;24.67;24.47;24.64;30
24.62;24.72;24.56;24.56;55
24.8;25.07;24.7;25.02;28591
25.03;25.35;25.01;25.26;72688
25.24;25.56;25.24;25.56;74977
25.56;25.78;25.56;25.65;56168
25.65;25.92;25.64;25.92;48405
25.92;26.11;25.91;26.09;72145
26.1;26.26;26.0;26.14;280273
26.11;26.28;25.67;26.19;571
26.29;26.31;26.02;26.02;4445
26.37;26.37;26.12;26.12;26
26.05;26.05;26.01;26.01;4
26.23;26.23;26.01;26.01;89
26.02;26.02;26.01;26.01;4
26.24;26.24;26.24;26.24;3
26.01;26.01;25.75;25.89;67
25.89;26.0;24.93;24.96;89532
24.95;25.02;24.72;24.82;74673
24.83;25.19;24.79;25.08;67691
25.1;25.41;25.09;25.36;68836
25.36;25.55;25.32;25.42;50339
25.43;25.45;25.22;25.26;52360
25.26;25.34;25.23;25.25;177018
25.25;25.53;25.23;25.5;285
25.4;25.4;25.4;25.4;1
24.78;25.37;24.78;25.05;37
25.46;25.46;25.36;25.38;71
25.4;25.49;25.17;25.49;10
25.26;25.5;25.19;25.35;239
25.34;25.63;25.24;25.47;51148
25.48;25.68;25.2;25.31;89068
25.3;25.4;25.13;25.15;66815
25.15;25.24;25.05;25.22;50835
25.23;25.24;25.06;25.13;51389
25.13;25.19;25.01;25.13;63744
25.12;25.14;24.82;24.85;198096
24.85;24.85;24.8;24.8;268
24.81;24.81;24.71;24.71;52
24.71;24.71;24.71;24.71;160
24.94;24.94;24.89;24.89;5
24.98;24.98;24.98;24.98;3
24.98;24.98;24.72;24.98;9
24.97;24.98;24.97;24.98;8
24.98;25.07;24.82;24.82;11
25.0;25.0;25.0;25.0;2
25.0;25.21;24.31;24.38;89958
24.39;24.55;24.23;24.31;556528
24.31;24.42;24.02;24.13;404420
24.14;24.31;24.02;24.29;117982
24.31;24.48;24.27;24.36;90670
24.38;24.46;24.23;24.3;81576
24.31;24.6;24.31;24.55;166390
24.55;24.55;24.55;24.55;249
24.68;24.78;24.56;24.56;5
