<OPEN>;<HIGH>;<LOW>;<CLOSE>;<VOL>
141.0;145.07;139.36;144.97;2621757
144.97;146.9;142.75;144.18;1213624
144.22;146.15;143.75;145.38;818798
145.37;145.38;144.16;144.6;457900
144.63;146.55;144.42;145.58;456336
145.58;147.2;144.77;146.75;552800
146.75;146.83;143.75;146.28;1401026
146.29;146.91;145.76;146.8;1180717
146.5;146.9;146.5;146.65;533
146.9;146.93;146.35;146.75;1268
147.1;147.97;147.0;147.59;1549
147.54;147.6;146.69;146.9;937
147.0;147.13;146.68;147.12;482
147.19;147.59;146.5;146.5;882
147.05;147.3;146.4;146.49;1372
146.49;147.13;146.02;146.38;29178
146.48;146.98;141.0;144.74;1496323
144.77;145.72;144.51;144.9;490139
144.9;145.97;144.31;145.92;340734
145.92;146.34;145.53;146.19;356748
146.2;146.4;144.07;144.37;314397
144.37;145.0;143.95;144.54;264716
144.57;145.48;144.57;145.0;536381
144.96;145.5;144.73;145.5;617606
145.0;145.5;144.4;144.4;663
145.5;145.5;144.5;144.73;1014
144.81;146.97;144.81;145.96;319
145.96;145.97;145.01;145.43;248
145.24;145.24;144.1;144.18;415
144.21;144.69;143.69;143.81;405
143.85;144.19;143.11;143.42;7084
143.3;143.66;142.61;142.9;12961
142.9;144.22;142.2;143.73;550831
143.71;145.25;143.57;144.45;319541
144.49;144.96;144.01;144.16;229072
144.12;144.21;143.61;143.99;213067
143.97;144.52;143.89;144.42;202372
144.44;145.08;144.2;145.04;348788
145.04;145.17;143.81;143.96;611958
143.95;144.94;143.72;144.03;814455
143.72;144.1;143.72;143.93;865
143.93;144.94;143.93;144.94;15
143.01;143.49;142.62;143.44;993
143.01;143.49;142.6;143.08;541
143.21;143.3;142.74;143.05;146
143.44;143.75;143.11;143.41;108
143.73;144.85;143.73;144.6;579
144.41;144.96;144.02;144.5;4499
144.55;145.14;142.77;143.57;477621
143.57;144.91;143.02;144.46;400433
144.47;145.64;144.07;144.28;382773
144.29;144.87;144.21;144.6;177429
144.6;144.74;143.53;144.27;198863
144.27;144.28;143.54;144.05;218994
144.03;144.1;140.92;140.98;695659
141.03;141.99;139.82;140.84;621729
140.34;141.0;139.17;140.15;798
140.2;140.99;139.52;140.99;682
140.0;140.35;139.35;140.02;1199
140.03;140.65;139.45;139.45;287
139.8;142.04;139.79;141.28;165
141.27;141.7;141.25;141.66;241
141.66;142.0;141.29;141.52;3935
141.53;141.97;141.22;141.3;2217
141.26;143.4;139.61;143.02;618890
142.95;145.09;142.9;143.71;437102
143.72;144.32;141.31;142.01;435451
142.04;142.13;139.71;141.4;451830
141.42;142.38;140.35;141.18;341433
141.18;142.84;141.06;141.79;307758
141.82;144.2;141.4;143.78;544690
143.73;144.25;143.66;144.24;576674
144.23;144.4;144.01;144.14;748
144.38;144.75;144.14;144.17;3819
144.06;144.62;143.61;144.21;142
