<OPEN>;<HIGH>;<LOW>;<CLOSE>;<VOL>
6.04;6.12;5.98;6.01;9174
6.01;6.09;5.97;6.0;8689
6.0;6.09;5.99;6.05;5551
6.05;6.05;6.0;6.01;5641
6.0;6.0;6.0;6.0;2447
6.0;6.04;5.98;6.0;7415
6.0;6.0;5.96;5.96;21334
5.96;5.96;5.59;5.8;526
5.8;5.8;5.8;5.8;5
5.8;5.8;5.8;5.8;17
6.1;6.1;5.9;5.9;9
5.91;5.98;5.9;5.98;52
5.98;6.02;5.98;6.02;8
6.0;6.08;5.91;5.91;24
5.98;6.12;5.98;6.11;2362
6.15;6.24;6.08;6.09;6820
6.1;6.11;6.07;6.07;8293
6.08;6.11;6.05;6.08;7376
6.08;6.1;6.04;6.06;12556
6.06;6.14;6.05;6.14;13315
6.14;6.16;6.08;6.08;37255
6.09;6.09;6.05;6.05;445
6.21;6.21;6.21;6.21;1
6.18;6.18;6.18;6.18;1
6.22;6.42;6.21;6.41;59
6.42;6.42;6.41;6.42;332
6.42;6.42;6.41;6.41;266
6.42;6.42;6.41;6.42;34
6.41;6.5;6.41;6.41;12
6.42;6.49;6.42;6.48;35
6.5;6.57;6.0;6.01;12368
6.02;6.05;6.0;6.04;21472
6.02;6.03;5.83;5.89;27274
5.91;5.94;5.88;5.94;16187
5.94;6.0;5.94;5.96;25014
5.95;6.0;5.93;5.99;15904
5.99;6.02;5.94;5.95;33040
5.94;5.94;5.94;5.94;2296
6.12;6.16;6.12;6.16;102
6.05;6.29;6.05;6.27;259
6.27;6.29;6.1;6.27;336
6.27;6.27;6.09;6.09;16
6.16;6.29;6.15;6.29;23
6.27;6.29;6.15;6.15;39
6.17;6.17;5.93;6.0;3922
6.01;6.09;6.01;6.07;4289
6.06;6.09;6.04;6.09;5032
6.08;6.1;6.05;6.06;9278
6.06;6.06;6.04;6.06;4790
6.06;6.06;6.0;6.0;4073
6.01;6.04;5.9;5.9;26424
5.91;5.91;5.91;5.91;261
6.25;6.25;6.15;6.15;30
6.15;6.15;6.15;6.15;14
6.15;6.15;6.15;6.15;8
6.15;6.15;6.15;6.15;171
5.95;6.24;5.94;6.24;97
6.0;6.0;5.77;5.8;6854
5.8;5.81;5.69;5.71;11862
5.72;5.76;5.66;5.68;11557
5.68;5.7;5.56;5.6;13410
5.6;5.6;5.5;5.5;7004
5.49;5.58;5.47;5.55;15553
5.55;5.6;5.54;5.6;21043
5.6;5.6;5.6;5.6;771
5.26;5.26;5.26;5.26;1
