<OPEN>;<HIGH>;<LOW>;<CLOSE>;<VOL>
38.14;39.76;38.14;39.46;28919
39.49;39.87;38.63;39.5;41363
39.42;40.11;39.21;40.1;41697
40.1;40.18;39.2;39.38;40167
39.4;39.55;39.08;39.16;26883
39.17;39.29;38.67;38.68;27551
38.67;39.34;38.58;39.12;83369
39.12;39.12;39.12;39.12;166950
40.14;40.14;40.13;40.13;5
40.11;40.11;40.11;40.11;5
40.17;40.19;40.17;40.19;12
40.34;40.37;40.34;40.37;5
40.9;42.65;39.88;42.55;69392
42.52;43.06;41.55;41.69;90559
41.78;42.55;41.71;41.75;32206
41.81;41.94;40.98;40.98;26633
41.01;42.07;40.87;42.02;36449
42.04;42.46;41.88;42.18;54536
42.18;42.31;41.88;41.93;112546
41.96;41.96;41.96;41.96;99625
42.78;42.78;42.72;42.75;11
42.5;42.5;42.5;42.5;6
42.0;42.89;39.94;40.13;43735
40.17;40.61;39.81;40.25;58081
40.31;40.7;40.24;40.64;37888
40.65;41.23;40.58;40.93;31974
40.93;41.27;40.91;41.05;27890
41.06;41.07;40.66;40.81;28009
40.81;40.95;40.47;40.51;89376
40.58;41.0;40.58;40.99;123837
41.16;41.16;40.91;40.91;4
41.18;41.18;41.18;41.18;2
41.18;41.18;41.18;41.18;1
40.92;40.92;40.92;40.92;1
41.2;41.45;41.2;41.2;9
41.2;42.21;39.31;39.53;38331
39.5;40.16;39.48;39.72;66503
39.7;39.76;39.0;39.04;42821
39.03;39.03;38.37;38.66;44574
38.69;39.18;38.59;39.18;46520
39.17;39.32;38.92;39.04;37794
39.01;39.19;38.5;38.51;115816
38.51;38.95;38.51;38.95;141680
39.5;39.5;39.5;39.5;1
39.5;39.5;39.5;39.5;1
39.5;39.7;39.5;39.7;6
38.52;39.08;38.51;38.52;379
38.9;39.03;38.9;39.03;6
38.27;38.6;36.89;36.89;38388
36.82;37.12;36.44;36.56;47886
36.56;36.68;36.07;36.27;63463
36.32;36.64;36.0;36.55;51402
36.56;37.06;36.45;36.61;44792
36.59;36.59;36.05;36.09;48324
36.11;36.22;35.87;36.09;121161
36.07;36.07;36.07;36.07;114075
35.8;35.8;35.8;35.8;2
36.37;36.6;36.37;36.6;7
