<OPEN>;<HIGH>;<LOW>;<CLOSE>;<VOL>
46.22;46.51;43.93;43.93;9725
43.98;43.98;41.97;42.85;16518
42.92;43.32;42.52;43.32;13993
43.33;43.41;42.72;42.84;5015
42.85;43.08;42.75;42.83;8243
42.79;43.16;42.7;42.89;17886
42.88;43.18;42.8;42.99;42212
42.99;42.99;42.99;42.99;18472
43.1;43.4;43.1;43.4;8
43.0;43.0;43.0;43.0;2
44.49;44.49;43.0;43.0;5
44.33;44.5;43.0;44.47;2579
44.61;44.87;43.98;44.08;5644
44.07;44.09;43.7;43.8;5495
43.82;44.08;43.65;43.74;5594
43.71;43.86;43.49;43.8;7518
43.79;44.14;43.74;44.03;6796
44.07;44.25;43.93;44.15;23050
44.09;44.09;44.09;44.09;26782
42.0;46.0;42.0;46.0;11
43.01;43.01;43.01;43.01;1
45.0;45.0;45.0;45.0;3
43.99;43.99;42.67;42.67;3359
42.58;42.96;42.4;42.61;4941
42.56;43.1;42.54;42.92;4214
42.94;43.58;42.9;43.49;3688
43.56;43.78;43.43;43.55;2784
43.55;43.61;43.03;43.19;5922
43.21;43.32;42.62;42.76;33423
42.73;42.73;42.73;42.73;38523
43.49;43.49;42.41;42.63;3865
42.49;42.68;42.0;42.08;5124
42.06;42.13;41.58;41.7;5229
41.61;41.74;41.32;41.34;5136
41.33;41.36;41.06;41.24;4615
41.21;41.26;41.09;41.2;6559
41.13;41.26;40.38;40.42;25188
40.42;40.42;40.42;40.42;24128
40.42;42.64;40.42;42.64;5
42.64;42.64;42.64;42.64;1
39.93;40.7;38.99;39.18;7918
39.3;39.92;39.09;39.09;6080
39.01;39.08;38.5;38.85;6528
38.98;39.08;38.52;38.9;4095
38.85;39.1;38.68;38.74;4683
38.71;39.07;38.59;38.93;5628
38.95;39.11;38.6;38.81;21968
38.77;39.46;38.77;39.46;20036
