<OPEN>;<HIGH>;<LOW>;<CLOSE>;<VOL>
356.19;357.25;354.24;354.52;9723
354.95;358.96;354.37;356.86;32556
357.06;360.19;356.73;359.98;18195
360.13;360.97;359.42;359.42;20981
359.41;360.78;356.88;357.77;18918
357.49;358.23;356.69;357.8;23740
357.65;357.87;354.72;356.13;27026
356.19;356.19;356.19;356.19;1
358.62;358.62;358.0;358.0;256
360.33;361.21;358.25;358.25;4153
358.04;361.28;357.18;359.79;11385
359.78;362.18;359.75;361.43;19046
361.28;362.0;359.16;361.65;8483
361.66;362.41;359.53;359.6;10329
359.74;360.51;359.41;360.4;12905
360.4;361.0;357.75;358.37;26744
358.36;361.29;358.36;361.29;63
359.57;359.57;359.57;359.57;1
356.0;359.48;355.27;358.12;5620
358.43;363.58;357.04;362.46;28802
362.56;364.92;362.18;364.2;13616
364.19;366.39;363.55;365.76;12961
365.7;368.68;365.62;366.43;15458
366.41;366.86;364.02;365.45;10550
365.47;366.82;363.89;364.33;22792
364.12;364.12;362.51;362.51;7
364.14;365.05;364.14;365.05;16
367.76;367.76;361.0;363.62;7603
363.94;368.08;361.43;368.08;19836
367.99;367.99;363.78;364.33;17775
364.23;364.65;363.11;363.13;11517
363.24;365.62;362.56;365.14;18484
365.1;365.98;362.2;363.66;9050
363.25;363.25;357.0;357.1;17532
357.0;357.0;357.0;357.0;11
359.3;359.43;359.3;359.43;2
357.0;358.93;356.28;358.22;12211
358.19;361.15;355.76;356.2;33965
356.18;356.39;351.24;352.5;16116
352.6;353.26;350.1;351.78;14378
351.96;351.99;349.23;349.44;11113
348.9;350.12;347.4;347.9;12478
348.0;353.37;347.49;353.07;27852
352.59;352.59;352.59;352.59;2
