<OPEN>;<HIGH>;<LOW>;<CLOSE>;<VOL>
5.9;6.05;5.87;5.99;147053
5.99;6.0;5.86;5.9;161602
5.9;6.03;5.9;6.0;129248
6.01;6.08;5.99;6.06;151713
6.05;6.08;5.97;5.99;138725
5.99;6.02;5.86;5.88;148826
5.88;5.88;5.69;5.72;435876
5.8;5.86;5.7;5.75;13614
5.75;5.79;5.75;5.79;246
5.79;5.79;5.79;5.79;4
5.79;5.8;5.73;5.79;1852
5.79;5.8;5.78;5.79;366
5.79;5.79;5.75;5.75;304
5.76;5.8;5.76;5.8;1096
5.79;5.8;5.75;5.8;360
5.76;5.82;5.75;5.82;1013
5.77;5.96;5.68;5.95;118529
5.95;5.99;5.84;5.9;164516
5.9;5.95;5.87;5.88;84717
5.88;5.96;5.86;5.94;77608
5.94;5.96;5.88;5.92;100792
5.92;6.02;5.92;6.02;82349
6.01;6.18;5.99;6.17;383451
6.15;6.18;6.03;6.11;16907
6.05;6.17;6.02;6.15;1435
6.06;6.16;6.04;6.15;1902
6.2;6.2;6.0;6.1;2160
6.11;6.11;6.03;6.03;606
6.06;6.07;6.03;6.04;542
6.05;6.05;5.96;6.0;1418
5.99;6.15;5.96;6.04;1963
6.05;6.13;6.05;6.11;2970
6.09;6.36;6.08;6.28;162813
6.28;6.4;6.2;6.3;232740
6.3;6.51;6.28;6.46;181316
6.47;6.55;6.43;6.49;103049
6.5;6.5;6.31;6.32;204911
6.32;6.44;6.24;6.36;318503
6.36;6.38;6.26;6.27;221786
6.28;6.35;6.25;6.35;7802
6.35;6.36;6.29;6.32;654
6.35;6.35;6.32;6.35;7
6.15;6.37;6.15;6.26;2024
6.26;6.3;6.26;6.27;1385
6.28;6.3;6.26;6.29;750
6.29;6.34;6.29;6.32;234
6.31;6.34;6.28;6.28;508
6.29;6.34;6.29;6.34;329
6.31;6.44;6.26;6.39;104770
6.4;6.42;6.28;6.38;176566
6.38;6.47;6.37;6.45;171799
6.46;6.75;6.45;6.72;303179
6.72;6.74;6.55;6.6;242028
6.59;6.6;6.47;6.48;220408
6.48;6.52;6.32;6.34;501436
6.32;6.55;6.31;6.37;16959
6.41;6.48;6.39;6.42;1016
6.4;6.43;6.34;6.43;1536
6.49;6.49;6.37;6.41;2352
6.41;6.46;6.37;6.39;2954
6.38;6.46;6.36;6.45;4483
6.41;6.44;6.37;6.39;1164
6.39;6.39;6.32;6.39;13937
6.38;6.43;6.38;6.41;432
6.41;6.43;6.03;6.05;225808
6.05;6.22;5.91;5.91;293766
5.91;5.95;5.69;5.7;285077
5.7;5.7;5.42;5.44;299484
5.44;5.54;5.33;5.48;202325
5.48;5.54;5.28;5.28;217937
5.28;5.45;5.26;5.38;362272
5.38;5.6;5.32;5.6;25858
5.58;5.59;5.5;5.57;369
5.5;5.59;5.5;5.59;238
5.45;5.53;5.36;5.4;3608
