<OPEN>;<HIGH>;<LOW>;<CLOSE>;<VOL>
139.9;141.1;138.57;140.75;7060
140.93;142.15;140.05;141.73;22960
141.86;144.0;141.64;143.64;14460
143.74;144.95;143.51;144.85;15660
144.94;145.49;144.35;145.0;17364
144.92;145.02;142.89;143.48;12000
143.27;143.76;142.46;143.43;33395
143.33;143.33;143.33;143.33;13661
146.99;147.09;144.59;146.03;9461
145.73;147.0;144.43;144.71;17976
144.89;146.72;144.56;146.13;12229
146.22;146.9;145.42;146.86;13247
146.74;148.24;146.42;147.78;14312
147.81;148.49;146.97;147.89;19497
147.95;148.18;146.12;146.69;43491
146.55;146.55;146.55;146.55;20187
146.4;147.37;145.79;146.0;6635
146.03;148.36;145.85;146.43;14182
146.55;148.03;146.07;147.82;6397
147.93;149.14;147.85;148.25;11231
148.05;148.8;147.77;148.18;5034
148.16;148.56;147.09;147.89;8409
147.99;147.99;146.4;147.31;30144
147.07;147.07;147.07;147.07;39113
146.0;147.09;146.0;147.09;2
149.72;149.72;145.46;145.83;4997
145.41;146.3;144.39;144.86;17199
144.86;144.92;142.37;142.37;14578
142.34;142.47;140.61;142.41;16531
142.49;142.75;141.54;142.57;14903
142.6;143.1;141.44;141.48;13215
141.57;141.6;139.83;139.84;37291
139.84;139.84;139.84;139.84;18681
139.43;139.68;138.12;138.38;4990
138.3;139.64;137.39;137.39;9418
137.41;137.68;135.23;135.46;10438
135.59;135.86;133.5;135.81;7342
135.72;136.09;134.97;135.6;6727
135.53;137.35;134.84;136.6;11591
136.87;139.38;136.41;138.9;38913
138.9;138.9;138.9;138.9;20998
