<OPEN>;<HIGH>;<LOW>;<CLOSE>;<VOL>
494.74;494.74;485.0;485.0;822
484.8;488.3;479.85;480.28;3385
480.0;486.0;480.0;485.07;2114
484.73;485.34;479.76;481.52;1288
485.0;485.0;481.6;482.54;282
483.43;484.87;480.48;481.98;806
482.56;484.64;473.7;476.82;2206
477.36;477.36;477.36;477.36;5
483.6;483.6;483.6;483.6;2
487.9;491.5;487.9;491.5;296
491.2;496.86;490.16;496.86;1624
496.98;497.34;487.43;490.5;3402
490.0;492.9;488.08;488.95;1649
489.2;489.99;484.7;484.83;1321
485.32;486.81;481.4;481.4;1404
482.0;483.34;479.88;483.34;7600
482.22;482.22;482.22;482.22;2
481.01;481.01;481.01;481.01;1
480.92;480.92;480.92;480.92;2
486.36;486.36;472.9;474.5;634
474.35;478.06;470.66;476.68;3615
475.97;478.0;474.89;477.48;1342
478.09;478.49;474.72;476.84;1768
476.72;477.29;475.02;476.57;701
476.5;482.24;475.02;479.92;491
482.45;484.1;480.27;482.86;2340
481.13;481.13;481.13;481.13;3
480.82;480.82;478.17;478.17;2
483.07;485.67;483.07;485.67;2
484.75;484.75;484.75;484.75;2
481.5;490.0;481.46;490.0;1158
491.39;496.0;488.34;492.5;3459
490.73;494.08;489.05;493.55;1901
491.38;497.56;491.08;497.48;832
497.51;497.51;493.18;494.09;638
494.6;494.6;488.28;489.84;1091
489.96;490.99;483.29;484.93;4471
484.44;484.44;484.44;484.44;2
485.0;485.62;482.21;483.81;21
488.16;488.66;482.05;484.89;590
484.38;485.06;479.01;482.5;687
483.14;483.22;479.19;481.21;786
481.72;485.27;480.26;482.82;3616
482.82;484.38;480.11;480.11;1481
480.11;484.92;480.11;483.87;3732
484.46;484.46;484.46;484.46;3
