<OPEN>;<HIGH>;<LOW>;<CLOSE>;<VOL>
10.65;10.73;10.19;10.24;33183
10.27;10.33;10.05;10.18;24579
10.19;10.2;10.06;10.14;28863
10.14;10.25;10.1;10.24;39645
10.24;10.25;10.17;10.2;45191
10.2;10.2;10.0;10.01;51858
10.01;10.04;9.88;9.92;82666
9.92;9.92;9.92;9.92;25
10.12;10.49;9.91;10.49;83
10.51;10.51;10.02;10.02;8
10.16;10.16;10.01;10.01;2
10.17;10.54;10.07;10.49;20924
10.52;10.58;10.29;10.35;30966
10.34;10.49;10.34;10.46;20421
10.47;10.5;10.4;10.42;18909
10.43;10.46;10.41;10.45;15252
10.45;10.5;10.39;10.48;26294
10.48;10.55;10.44;10.49;40171
10.49;10.61;9.98;10.61;280
10.82;10.82;10.16;10.16;2
10.69;10.7;10.69;10.7;20
11.05;11.05;10.73;10.73;2
10.67;10.9;10.67;10.73;17
10.63;10.99;10.63;10.99;14
10.78;10.78;10.12;10.12;11
10.63;10.63;10.56;10.56;4
10.94;10.99;10.42;10.42;211
10.46;10.48;10.22;10.25;10309
10.26;10.32;10.1;10.27;18961
10.26;10.26;10.09;10.22;20718
10.24;10.36;10.22;10.32;8685
10.32;10.37;10.26;10.26;13759
10.27;10.27;10.15;10.16;21602
10.17;10.27;10.16;10.25;50868
10.24;10.24;10.24;10.24;76
10.4;10.4;10.4;10.4;1
10.83;10.83;10.49;10.5;7
10.5;10.5;10.5;10.5;1
10.35;10.35;10.33;10.33;6
10.25;10.3;10.25;10.3;7
10.5;10.5;10.42;10.42;2
10.38;10.59;10.14;10.21;41459
10.22;10.23;10.06;10.16;17454
10.14;10.2;10.09;10.13;13852
10.14;10.14;10.01;10.03;12032
10.04;10.06;9.87;10.01;27680
10.01;10.01;9.92;10.0;28204
10.01;10.02;9.65;9.65;77099
9.65;9.65;9.65;9.65;63
9.95;9.95;9.95;9.95;1
10.19;10.19;10.19;10.19;1
10.18;10.18;9.9;10.18;23
10.18;10.22;10.18;10.22;10
9.93;9.93;9.5;9.66;10263
9.66;9.85;9.66;9.75;32693
9.73;9.85;9.71;9.79;25868
9.79;9.85;9.64;9.84;27136
9.85;9.96;9.74;9.77;21737
9.76;9.82;9.67;9.68;26485
9.63;9.74;9.56;9.72;51906
9.7;9.7;9.7;9.7;13
9.51;9.51;9.51;9.51;1
