<OPEN>;<HIGH>;<LOW>;<CLOSE>;<VOL>
98.98;98.98;97.24;97.24;4932
97.4;97.55;96.36;96.67;4529
96.76;97.37;96.61;97.09;5173
97.12;97.2;96.38;96.64;5399
96.58;97.06;96.45;96.6;6090
96.51;96.75;96.09;96.69;6599
96.67;96.83;95.61;96.22;21783
96.15;96.15;96.15;96.15;23938
101.15;101.15;101.15;101.15;1
101.07;101.07;96.63;98.18;6223
98.12;99.23;97.96;98.62;6065
98.83;99.62;98.49;99.28;6777
99.28;99.65;99.06;99.46;4656
99.5;99.8;98.77;99.24;6970
99.2;99.77;98.85;99.7;6174
99.79;100.33;99.5;100.31;31654
100.24;100.24;100.24;100.24;31329
105.24;105.24;105.24;105.24;5
100.79;100.79;97.6;97.84;7006
97.76;98.5;97.27;97.77;6610
97.67;98.4;97.62;98.37;5936
98.48;99.27;98.2;99.16;4867
99.23;99.81;99.02;99.09;5109
99.14;99.26;98.59;98.66;9082
98.64;98.91;97.76;98.06;41723
98.06;98.06;98.06;98.06;77247
93.07;97.0;93.07;97.0;12
93.09;93.09;93.08;93.08;30
98.0;98.0;98.0;98.0;6
99.92;99.92;96.45;97.43;5860
97.55;99.54;97.37;99.26;13485
99.16;99.33;98.54;98.8;5115
98.9;99.7;98.36;99.58;5147
99.53;99.57;98.12;98.63;6921
98.67;98.81;97.63;97.66;7537
97.66;97.74;94.43;94.51;45977
94.5;94.5;94.5;94.5;44128
95.71;95.71;93.0;94.31;6638
94.79;95.41;93.81;93.92;6174
94.03;94.45;92.35;92.8;8017
92.82;93.02;91.53;91.68;10735
91.58;91.58;90.61;90.65;9488
90.6;91.34;90.34;90.67;10319
90.72;91.66;90.24;91.4;35954
91.4;91.4;91.4;91.4;43930
