<OPEN>;<HIGH>;<LOW>;<CLOSE>;<VOL>
45.87;47.7;45.87;47.2;14862
47.1;47.83;46.58;47.41;43554
47.37;48.06;47.08;48.02;29938
48.05;48.14;47.18;47.47;34050
47.49;47.67;47.27;47.37;20057
47.35;47.35;46.41;46.42;20692
46.41;47.05;46.28;46.74;40470
46.74;46.74;46.74;46.74;4
47.5;47.5;47.5;47.5;5
47.94;49.45;47.94;49.26;18087
49.26;49.6;47.91;47.91;37478
47.89;48.49;47.83;47.86;26076
47.92;48.07;47.41;47.44;26079
47.43;47.8;47.25;47.76;17472
47.71;48.26;47.68;48.22;25236
48.19;48.75;48.19;48.49;45257
48.51;48.51;48.51;48.51;74
48.96;48.96;48.96;48.96;5
48.7;48.7;48.57;48.57;2
48.4;48.4;48.4;48.4;1
47.25;47.25;45.53;45.66;17914
45.73;46.23;45.35;45.98;24304
45.98;46.56;45.98;46.29;25778
46.3;46.82;46.15;46.5;23500
46.48;46.69;46.28;46.38;33066
46.38;46.45;45.71;45.77;35753
45.79;45.89;45.28;45.28;82373
45.28;45.28;45.28;45.28;12
45.49;45.5;45.49;45.5;2
45.71;45.71;45.71;45.71;2
45.44;45.62;43.7;44.0;38779
44.0;44.15;42.92;43.09;69495
43.06;43.29;42.5;42.55;57643
42.55;42.56;42.08;42.15;60652
42.16;42.42;41.63;42.35;47170
42.35;42.37;42.05;42.09;33771
42.11;42.69;42.03;42.15;115726
42.11;44.13;42.11;44.13;490
42.05;42.05;41.75;41.75;25
42.19;43.18;42.17;43.03;59
43.28;43.28;43.28;43.28;5
42.42;42.42;39.59;39.96;97615
39.97;40.19;37.7;37.78;196260
37.78;38.44;37.52;38.44;141371
38.46;38.58;37.77;38.32;92506
38.33;39.5;38.29;38.4;76157
38.39;38.39;37.99;38.02;64983
38.02;38.33;37.77;38.23;118911
38.2;38.23;38.2;38.23;437
38.23;38.23;38.23;38.23;103
38.23;38.23;38.23;38.23;461
37.81;37.81;37.81;37.81;20
