<OPEN>;<HIGH>;<LOW>;<CLOSE>;<VOL>
55.02;56.6;55.02;56.03;7163
55.92;57.08;55.78;57.08;13721
57.13;57.83;56.66;56.98;38691
56.78;56.78;55.83;56.58;38175
56.61;56.65;56.09;56.21;25113
56.2;56.63;55.92;56.14;25044
56.09;56.32;55.78;55.88;56215
55.91;58.2;55.91;55.91;1375
55.91;55.91;55.36;55.36;20
57.25;57.25;56.43;56.83;122
56.7;56.77;56.7;56.77;9
56.85;56.9;56.55;56.9;10
56.55;56.55;56.55;56.55;6
56.52;56.52;56.51;56.51;17
56.51;56.96;56.51;56.96;2
56.6;56.6;55.5;55.5;6367
55.5;56.16;55.29;55.8;30867
55.87;56.39;55.53;56.39;37547
56.4;57.22;56.09;56.78;76086
56.81;56.94;56.22;56.22;20552
56.23;56.36;56.0;56.05;25366
56.11;56.97;56.03;56.37;89493
56.42;56.42;56.34;56.34;415
56.96;56.96;56.95;56.95;4
56.55;56.55;56.55;56.55;2
56.16;56.21;56.08;56.08;8
56.17;56.17;56.17;56.17;99
55.7;55.73;55.59;55.62;42
56.4;57.4;55.68;56.91;19923
56.99;57.46;55.39;55.81;88720
55.82;56.82;55.58;56.17;91824
56.22;56.79;56.22;56.44;52953
56.41;56.96;56.22;56.95;29991
56.95;57.36;56.95;57.1;26111
57.12;57.34;56.8;57.06;53316
56.96;57.45;56.96;57.45;183
57.33;57.45;57.33;57.45;5
57.3;57.3;57.3;57.3;1
57.77;57.77;55.25;55.66;37479
55.77;56.13;55.19;56.07;50520
56.06;56.22;55.59;55.8;44829
55.8;55.98;55.45;55.87;49607
55.86;56.36;55.46;55.57;25844
55.59;55.61;54.02;54.07;57318
54.11;54.18;52.66;52.66;94644
52.71;52.71;52.17;52.17;93
52.17;52.2;52.15;52.2;320
52.6;52.6;51.98;52.0;4
52.4;52.4;52.4;52.4;1
52.44;52.44;52.44;52.44;1
52.64;52.73;52.64;52.73;15
52.69;52.76;52.41;52.41;14
52.4;53.25;52.4;53.25;229
53.5;54.61;52.31;54.3;27725
54.4;54.63;53.59;53.59;69385
53.58;53.71;52.08;52.23;65385
52.29;52.31;50.52;51.64;75753
51.56;52.12;51.15;51.84;23317
51.82;52.22;51.46;51.62;35182
51.66;52.12;51.19;52.06;77098
52.07;52.07;52.07;52.07;925
