<OPEN>;<HIGH>;<LOW>;<CLOSE>;<VOL>
47.35;49.78;46.18;49.09;34446
49.22;49.34;47.91;48.19;83762
48.2;49.64;48.0;49.64;68489
49.65;49.94;48.99;49.54;38969
49.64;50.58;49.59;50.58;38094
50.6;51.2;50.48;50.51;50466
50.51;51.07;50.46;50.88;101847
50.79;50.79;50.79;50.79;50079
51.17;51.17;51.17;51.17;15
51.2;51.2;51.2;51.2;1
52.16;52.16;50.52;51.6;18793
51.52;52.44;51.4;51.7;21760
51.68;52.2;51.47;52.12;17121
52.13;52.38;51.99;52.2;18151
52.21;52.32;51.8;52.01;13626
52.02;52.61;52.02;52.5;16146
52.51;52.62;52.19;52.36;60369
52.36;52.36;52.36;52.36;50117
50.01;50.01;50.0;50.0;15
52.74;52.82;52.74;52.82;11
52.93;52.93;52.71;52.71;11
52.27;52.52;52.27;52.52;4
52.4;52.4;52.12;52.12;10
52.12;52.12;52.12;52.12;2
52.0;52.0;52.0;52.0;10
52.55;52.55;50.55;50.9;16758
50.9;51.3;50.75;51.19;21605
51.15;51.39;50.76;51.22;18449
51.23;51.61;51.11;51.61;12855
51.6;51.63;51.38;51.44;18171
51.46;51.97;51.35;51.94;23258
51.95;52.3;51.75;51.86;96630
51.85;51.85;51.29;51.29;153027
51.58;51.58;51.58;51.58;1
51.83;51.83;51.83;51.83;60
52.16;52.16;52.16;52.16;2
52.8;52.8;51.4;51.83;7952
51.75;52.48;51.65;52.42;20999
52.37;52.52;52.04;52.18;15353
52.19;52.19;51.41;51.53;16572
51.55;51.77;51.41;51.76;20646
51.8;51.92;51.53;51.66;22483
51.65;51.77;50.94;51.0;85419
51.0;51.0;51.0;51.0;68021
51.12;51.12;51.12;51.12;7
50.77;50.95;48.91;49.09;15383
49.16;49.35;48.51;48.72;20220
48.74;48.86;47.13;47.23;18144
47.28;47.56;46.68;47.49;19437
47.49;47.77;47.1;47.44;13418
47.39;47.67;47.26;47.52;20029
47.52;47.62;47.03;47.44;100316
47.38;47.38;47.38;47.38;51422
47.43;47.43;47.43;47.43;10
