<OPEN>;<HIGH>;<LOW>;<CLOSE>;<VOL>
24.85;24.85;24.33;24.51;28760
24.5;24.54;24.17;24.22;54901
24.22;24.46;24.2;24.4;38989
24.39;24.41;24.12;24.13;41916
24.14;24.2;23.98;24.2;63885
24.2;24.33;24.09;24.1;39438
24.1;24.17;24.0;24.13;158644
24.13;24.13;24.13;24.13;235011
24.5;24.5;24.38;24.38;211
24.38;25.08;24.38;25.04;40181
25.05;25.2;24.95;25.03;51748
25.02;25.28;24.9;25.25;32001
25.26;25.3;25.11;25.19;25376
25.2;25.27;25.06;25.2;42905
25.2;25.41;25.17;25.41;43317
25.41;25.47;25.31;25.38;153765
25.37;26.0;25.3;26.0;155518
25.28;25.28;25.28;25.28;1
25.01;25.29;25.01;25.29;461
25.29;25.29;25.07;25.07;101
25.06;25.14;24.33;24.4;56670
24.41;24.57;24.32;24.43;47498
24.43;24.58;24.21;24.49;57278
24.49;24.66;24.49;24.6;29923
24.59;24.66;24.52;24.52;38915
24.53;24.53;24.4;24.44;48125
24.44;24.52;24.27;24.31;220926
24.3;24.3;24.3;24.3;357096
24.47;24.47;24.46;24.46;3
24.54;24.54;24.54;24.54;30
24.99;24.99;23.8;24.0;79513
24.01;24.37;23.98;24.01;93461
24.0;24.08;23.86;23.98;45460
23.97;24.08;23.92;24.02;50555
24.02;24.02;23.6;23.67;74363
23.68;23.69;23.51;23.56;89930
23.56;23.56;23.23;23.23;199268
23.24;23.24;23.0;23.0;123768
23.03;23.04;23.0;23.0;4
22.98;23.08;22.98;23.08;3
23.08;23.08;23.08;23.08;20
23.0;23.0;22.41;22.53;92103
22.59;22.8;22.38;22.39;52803
22.39;22.41;21.78;21.85;108600
21.85;22.16;21.6;22.01;69372
22.02;22.23;21.99;22.04;59785
22.03;22.1;21.89;21.97;49896
21.96;22.26;21.9;22.15;189222
22.15;22.15;22.15;22.15;183592
