<OPEN>;<HIGH>;<LOW>;<CLOSE>;<VOL>
165.28;165.46;162.12;162.12;1883
161.6;162.78;160.18;160.47;2367
160.98;163.84;159.81;163.26;5308
163.18;164.63;162.85;164.63;3945
164.63;165.05;164.16;164.84;4315
164.54;170.14;163.97;170.1;15980
170.22;170.59;165.51;166.64;16176
166.5;166.5;166.5;166.5;8940
169.85;172.42;169.74;172.42;868
171.68;172.18;169.13;169.13;1198
168.7;171.46;168.7;171.3;1604
171.36;171.36;169.33;170.36;1867
170.36;170.7;168.52;168.78;1640
169.33;169.33;167.65;168.06;837
168.47;170.72;168.28;170.17;8922
170.57;170.57;170.57;170.57;15557
170.5;170.5;167.02;167.1;1951
167.8;169.64;165.44;166.08;2376
166.44;168.02;166.17;168.02;2606
168.4;169.8;167.16;169.55;2355
169.5;169.95;167.95;167.95;1745
167.72;169.54;167.6;168.21;3187
168.16;169.36;167.21;168.12;27061
168.18;168.18;168.18;168.18;47615
168.18;169.25;165.26;167.41;1635
168.18;169.15;165.38;169.15;9109
169.35;170.4;167.59;169.74;5387
170.26;173.33;169.94;172.56;6428
172.11;172.11;169.47;171.05;2036
171.44;171.72;169.21;169.21;495
169.56;170.05;163.47;164.19;13272
164.19;164.19;164.19;164.19;15525
163.18;164.73;160.9;163.41;2824
164.26;166.4;163.35;163.35;946
163.51;164.73;160.0;161.27;1716
160.36;163.63;157.73;163.63;5059
163.69;165.57;161.76;162.28;2438
163.03;164.84;162.42;162.53;4273
163.36;165.35;162.18;164.22;13025
163.88;163.88;163.88;163.88;19468
