<OPEN>;<HIGH>;<LOW>;<CLOSE>;<VOL>
167.0;167.99;165.94;166.77;14099
166.85;166.87;164.53;164.53;17725
164.59;164.75;163.9;164.59;19825
164.62;164.71;163.67;164.25;13420
164.4;164.95;164.21;164.39;7148
164.3;165.37;164.29;164.7;12079
164.7;165.2;164.29;164.76;24378
164.77;164.77;164.77;164.77;3
166.32;166.32;166.32;166.32;1
163.8;163.8;163.0;163.0;46
162.86;162.99;161.91;161.91;258
161.91;164.31;159.68;164.08;24192
164.38;164.65;162.59;163.74;25120
163.95;164.54;163.71;163.95;10519
164.05;165.51;164.05;165.45;8420
165.58;165.8;164.58;164.58;8319
164.51;165.48;164.42;165.33;8117
165.49;166.85;165.49;165.99;28433
166.06;166.06;165.96;165.96;240
166.1;166.1;166.1;166.1;3
168.04;168.04;168.04;168.04;2
166.99;166.99;166.99;166.99;1
165.62;165.62;164.44;164.44;10
165.0;165.0;165.0;165.0;1
163.5;164.53;162.64;162.77;22510
162.8;164.71;162.24;163.78;17243
163.93;165.18;163.87;165.12;21891
165.12;166.33;165.1;165.77;16143
165.73;166.22;165.19;165.2;10870
165.3;165.3;164.42;164.76;12852
164.76;165.24;163.18;163.31;34663
163.3;163.3;163.3;163.3;8
164.19;164.2;164.19;164.2;2
164.38;165.37;163.44;164.0;10269
164.06;164.75;162.8;164.3;20158
164.24;165.26;164.12;164.28;8080
164.23;164.23;163.06;163.76;12254
163.72;163.77;162.57;163.01;9068
162.95;163.62;162.75;163.41;13975
163.39;163.6;160.49;160.49;34512
160.52;160.52;160.0;160.0;129
159.55;159.55;159.0;159.0;22
161.59;161.59;160.74;160.74;5
161.5;161.5;161.5;161.5;5
160.85;160.85;158.4;159.34;17096
159.29;159.49;157.06;157.18;21896
157.23;157.63;155.36;155.96;15972
155.88;156.43;154.0;154.46;42133
154.51;154.51;153.13;153.54;25421
153.54;154.88;153.23;154.23;20780
154.26;155.96;154.07;155.4;64748
155.32;157.99;155.32;157.99;13
155.34;155.34;155.11;155.11;355
