<OPEN>;<HIGH>;<LOW>;<CLOSE>;<VOL>
23.78;24.39;23.5;24.23;30245
24.3;24.56;24.14;24.29;33553
24.36;24.66;24.29;24.43;27046
24.46;24.46;23.97;24.05;19268
24.06;24.21;23.85;23.92;18043
23.94;24.05;23.74;23.79;23877
23.79;23.82;23.3;23.33;56975
23.33;23.33;23.33;23.33;36394
23.81;23.81;23.81;23.81;2
24.25;24.25;23.83;23.83;3
23.84;23.84;23.84;23.84;4
23.94;23.94;23.05;23.13;20570
23.14;23.22;22.83;22.92;35051
22.95;23.5;22.95;23.35;23016
23.34;23.72;23.26;23.53;13931
23.51;23.76;23.2;23.2;16087
23.17;23.27;23.08;23.17;13182
23.18;23.33;23.07;23.1;49086
23.1;23.1;23.1;23.1;59360
23.43;23.64;23.42;23.43;120
23.38;23.38;23.18;23.18;8
23.1;23.1;23.0;23.0;12
23.15;23.15;22.55;22.59;14208
22.65;22.92;22.58;22.85;16300
22.86;22.97;22.56;22.69;27463
22.76;22.97;22.63;22.9;29686
22.86;23.13;22.86;23.06;19980
23.07;23.43;23.0;23.34;30960
23.36;23.49;23.19;23.28;66199
23.31;23.31;23.31;23.31;67399
23.38;23.38;23.38;23.38;100
22.97;22.97;22.96;22.96;2
23.69;23.77;23.07;23.18;9092
23.24;23.53;23.04;23.49;15782
23.51;23.79;23.33;23.75;22897
23.74;24.14;23.69;24.06;23808
24.06;24.1;23.85;23.99;20528
23.98;23.98;23.36;23.51;35349
23.49;23.64;22.93;22.95;55515
22.95;22.95;22.95;22.95;37597
22.97;22.97;22.97;22.97;4
22.98;22.98;22.98;22.98;5
23.39;23.39;23.39;23.39;1
23.47;23.48;23.47;23.48;4
22.91;23.07;22.53;22.65;19174
22.67;23.08;22.63;22.8;17618
22.83;22.97;22.49;22.78;16107
22.81;22.83;22.26;22.7;25228
22.69;22.97;22.53;22.93;17740
22.92;23.2;22.88;23.01;22881
23.0;23.2;22.85;23.13;55810
23.16;23.16;23.16;23.16;62762
