<OPEN>;<HIGH>;<LOW>;<CLOSE>;<VOL>
54.8;55.32;53.74;54.96;13166
54.86;55.59;54.41;55.0;14472
54.93;55.48;54.84;55.06;7177
55.05;55.5;54.97;55.5;6859
55.55;55.75;55.38;55.74;9424
55.68;56.15;55.5;56.08;14679
56.12;56.26;55.82;56.05;64966
56.06;56.06;56.06;56.06;28995
57.67;57.67;56.22;56.93;12825
56.86;57.25;56.1;56.41;17674
56.33;56.89;56.25;56.89;14285
56.9;56.97;56.64;56.83;7908
56.88;56.94;56.21;56.43;8686
56.42;56.88;56.24;56.7;11065
56.69;56.96;56.65;56.96;31789
56.88;56.88;56.88;56.88;35296
56.5;56.5;56.5;56.5;320
57.5;57.5;55.33;55.45;14820
55.54;56.87;55.54;56.64;22310
56.71;56.98;56.46;56.66;11168
56.67;57.13;56.56;57.05;8786
56.91;57.37;56.91;57.08;8563
57.08;57.26;56.71;57.0;12058
57.0;57.73;56.83;57.19;87076
57.16;57.16;57.16;57.16;175160
57.94;57.94;56.23;56.62;4999
56.63;57.23;56.52;57.23;20995
57.21;57.72;57.12;57.64;16999
57.63;57.85;57.19;57.78;11318
57.76;57.76;56.76;57.12;12544
57.12;57.15;56.46;56.68;17846
56.67;56.78;55.29;55.33;68885
55.32;55.33;55.32;55.33;63022
59.08;59.08;59.08;59.08;2
59.08;59.08;59.08;59.08;4
59.03;59.05;59.03;59.05;3
57.34;57.34;54.19;55.67;26627
55.71;56.1;55.32;55.33;46750
55.4;55.89;54.12;54.36;29013
54.33;54.57;53.26;53.79;12689
53.78;53.94;53.25;53.46;8468
53.43;53.92;53.17;53.17;10732
53.22;53.66;53.07;53.58;41245
53.56;53.56;53.56;53.56;92662
