<OPEN>;<HIGH>;<LOW>;<CLOSE>;<VOL>
14.08;14.08;13.9;13.99;2460
13.98;14.0;13.85;13.9;3119
13.94;13.99;13.9;13.99;1561
14.14;14.3;14.0;14.26;16194
14.26;14.29;14.15;14.22;4207
14.21;14.22;14.01;14.02;12334
14.02;14.12;14.0;14.1;1130
14.1;14.2;14.02;14.1;5123
14.1;14.1;14.01;14.07;1199
14.07;14.13;14.01;14.03;2292
14.08;14.18;14.01;14.12;2206
14.12;14.12;14.02;14.02;3666
14.06;14.25;14.06;14.18;7551
14.18;14.22;14.05;14.05;6055
14.05;14.17;13.95;14.04;13865
13.99;14.06;13.98;14.05;4120
14.04;14.1;14.02;14.07;3101
14.07;14.1;14.05;14.08;7565
14.08;14.1;14.02;14.1;3522
14.1;14.2;14.07;14.15;4468
14.19;14.28;14.08;14.24;10887
14.12;14.23;13.69;14.07;20431
14.01;14.09;13.93;14.02;3761
14.02;14.16;13.95;14.13;4909
14.14;14.41;14.11;14.39;21618
14.39;14.64;14.34;14.6;16006
14.63;14.65;14.48;14.61;11996
14.58;14.61;14.22;14.34;24356
14.27;14.42;14.2;14.23;6094
14.25;14.34;14.02;14.03;8642
14.04;14.35;13.92;14.21;8416
