<OPEN>;<HIGH>;<LOW>;<CLOSE>;<VOL>
23.39;23.43;23.18;23.38;18088
23.4;23.82;23.4;23.79;27462
23.8;24.11;23.79;23.97;40278
23.98;24.05;23.8;23.84;61475
23.84;23.91;23.55;23.77;36976
23.77;23.86;23.64;23.65;29721
23.66;23.8;23.55;23.67;85802
23.7;23.7;21.88;22.7;458
22.19;22.69;21.53;22.68;1671
21.6;21.6;21.6;21.6;20
22.76;22.77;22.12;22.35;204
22.75;22.75;22.34;22.34;13
22.36;22.37;22.36;22.36;41
22.37;22.37;22.36;22.37;19
22.32;22.37;22.3;22.34;48
22.35;22.36;22.34;22.34;53
22.34;23.1;22.17;22.27;37139
22.24;22.91;21.78;22.83;71957
22.87;23.31;22.64;22.98;76862
23.04;23.5;23.04;23.48;54483
23.49;23.55;22.84;23.01;52746
22.98;23.39;22.98;23.3;40806
23.32;23.8;23.29;23.61;130822
23.58;23.78;23.0;23.78;747
23.2;24.0;23.2;24.0;555
23.64;23.64;23.64;23.64;15
23.38;23.38;23.38;23.38;1
23.26;23.43;23.22;23.24;7250
23.25;23.46;23.21;23.26;32178
23.26;23.65;23.22;23.59;32782
23.6;23.67;23.5;23.55;26841
23.54;23.62;23.32;23.55;44145
23.55;23.62;23.24;23.24;35130
23.26;23.3;22.94;22.97;55054
22.96;22.96;22.96;22.96;71
23.15;23.15;23.15;23.15;1
23.8;23.8;23.8;23.8;1
23.17;23.23;23.17;23.23;551
23.17;23.28;22.64;22.8;7393
22.8;22.8;22.37;22.4;26242
22.38;22.41;21.97;22.02;33013
22.01;22.07;21.87;21.9;23569
21.91;21.91;21.52;21.78;27544
21.77;21.85;21.55;21.58;38765
21.57;21.62;21.17;21.17;94372
21.18;21.18;21.18;21.18;65
21.2;21.2;21.2;21.2;5
21.17;21.17;21.17;21.17;1
21.2;21.2;21.2;21.2;1
21.16;21.16;20.52;20.7;9046
20.72;20.95;20.61;20.61;47049
20.62;20.65;20.15;20.19;22526
20.21;20.22;19.96;20.02;21702
20.0;20.1;19.86;19.89;19748
19.89;19.93;19.8;19.8;31991
19.81;20.09;19.8;19.99;70437
19.98;19.98;19.98;19.98;191
20.04;20.04;20.04;20.04;2
