<OPEN>;<HIGH>;<LOW>;<CLOSE>;<VOL>
114.71;115.31;113.8;113.86;59102
113.81;114.42;113.1;113.7;93474
113.77;114.59;113.66;114.21;63255
114.23;114.69;114.16;114.48;54021
114.49;114.49;113.6;113.78;50134
113.76;113.85;113.21;113.85;57784
113.85;113.98;113.16;113.32;142054
113.36;113.73;113.1;113.65;251
113.5;113.5;113.34;113.35;130
114.5;114.82;114.29;114.82;4
114.67;114.72;114.67;114.72;4
114.73;115.01;113.93;115.01;18
114.95;115.02;114.82;114.94;6
114.5;114.5;113.9;113.9;5
114.0;114.56;113.52;114.13;766
114.13;115.63;114.12;115.42;59253
115.45;116.22;115.13;116.21;110937
116.22;116.82;116.16;116.22;89442
116.23;116.31;115.71;115.74;39664
115.73;116.22;115.5;115.75;55094
115.74;116.01;115.67;115.78;51260
115.8;116.37;115.77;115.84;142021
115.83;116.45;115.07;116.45;4523
116.45;116.6;116.45;116.6;138
115.84;115.84;115.84;115.84;1
117.08;118.18;117.08;118.0;42
118.0;118.0;116.82;116.93;28
116.83;116.83;116.83;116.83;1
116.0;116.69;116.0;116.69;2
116.11;116.67;115.7;115.7;82
115.71;115.99;115.05;115.1;63
115.98;118.1;115.5;117.93;102804
117.94;118.55;117.27;117.34;119534
117.34;118.89;117.32;118.65;99646
118.72;120.0;118.68;119.79;104486
119.79;120.0;119.51;119.76;174369
119.78;120.51;119.29;120.42;103455
120.46;120.74;119.99;120.19;147587
120.18;120.79;120.18;120.79;5990
120.42;120.79;120.18;120.79;1130
120.56;120.56;120.56;120.56;30
120.0;120.0;119.02;119.5;27
119.01;119.5;119.01;119.14;16
119.88;119.88;119.1;119.1;86
119.89;120.89;119.89;120.89;25
120.89;121.5;120.35;121.5;127
120.82;121.0;120.82;121.0;134
121.0;121.84;119.93;120.95;88334
120.96;122.2;120.92;122.01;143435
122.02;122.95;121.66;122.63;98298
122.62;122.76;121.83;121.95;71172
121.95;122.11;121.06;121.64;57101
121.67;121.74;120.44;121.15;77008
121.12;121.16;119.43;119.43;155739
119.39;119.39;118.02;118.9;466
118.95;118.95;118.95;118.95;1
119.28;119.28;116.2;117.0;176
118.16;118.4;118.16;118.26;19
118.3;119.0;118.27;118.32;6
119.19;120.0;119.19;120.0;7
120.0;121.76;120.0;120.8;732
120.36;120.49;119.83;120.0;1165
120.01;120.5;118.36;119.12;60269
119.05;120.61;119.02;119.83;89001
119.85;120.59;119.06;119.3;114140
119.3;119.49;118.14;119.18;94566
119.17;119.65;118.94;119.24;79455
119.21;119.85;118.79;118.79;69780
118.82;119.51;118.25;119.2;147772
119.14;119.5;119.07;119.5;237
119.99;119.99;118.55;118.55;413
118.75;118.99;118.75;118.91;12
