<OPEN>;<HIGH>;<LOW>;<CLOSE>;<VOL>
37.33;38.0;35.83;36.66;4526
36.51;36.56;35.75;36.25;7698
36.19;36.91;36.02;36.88;5844
36.88;37.0;36.48;36.74;9013
36.75;37.05;36.74;37.05;7455
36.99;37.02;36.59;36.65;9533
36.66;36.97;36.65;36.9;26352
36.9;36.9;36.9;36.9;17971
37.87;38.27;37.67;38.27;4613
38.34;38.89;38.34;38.85;6039
38.85;39.4;38.85;39.4;6255
39.36;39.68;39.36;39.52;6216
39.53;39.56;39.3;39.54;5267
39.53;39.67;39.35;39.36;6320
39.36;39.39;38.69;39.14;27314
39.09;39.09;38.18;38.18;31544
39.0;39.0;37.68;37.72;14545
37.61;37.81;37.43;37.45;4186
37.46;37.57;37.3;37.55;5055
37.56;38.52;37.56;38.48;8843
38.46;38.78;38.38;38.62;2279
38.65;39.01;38.51;38.89;5347
38.92;39.27;38.79;39.12;33830
39.12;39.12;39.12;39.12;47367
39.26;39.5;38.44;38.55;4148
38.72;39.01;38.38;38.72;7540
38.64;38.78;38.42;38.78;7671
38.73;39.21;38.69;39.08;6660
39.08;39.14;38.79;39.1;8418
39.15;39.15;38.77;39.01;12989
38.97;39.02;38.04;38.19;30991
38.18;38.18;38.18;38.18;47999
38.22;38.22;37.18;37.32;5937
37.47;37.66;36.99;37.12;3216
37.08;37.3;36.6;36.75;4837
36.82;37.04;36.61;37.0;4554
37.0;37.14;36.62;36.62;3134
36.58;36.64;36.42;36.44;3284
36.36;37.13;36.36;37.0;32814
37.0;37.0;37.0;37.0;23508
