<OPEN>;<HIGH>;<LOW>;<CLOSE>;<VOL>
113.75;113.75;111.62;113.05;13221
112.95;113.26;111.01;111.79;15584
111.83;112.99;111.5;112.5;15336
112.42;112.96;112.23;112.5;19186
112.54;112.61;111.96;112.23;24974
112.18;112.45;110.89;110.89;20249
110.86;111.09;110.21;110.33;41983
110.33;110.33;110.33;110.33;1
103.46;103.46;103.45;103.45;4
110.67;110.67;110.67;110.67;2
113.0;114.05;111.54;113.63;16083
113.71;115.58;113.23;114.71;34488
114.71;114.96;113.94;114.71;24580
114.76;115.72;114.67;115.34;18160
115.32;115.53;114.25;114.48;17604
114.53;114.7;114.04;114.23;15813
114.26;115.24;114.12;115.1;39448
115.09;115.09;112.83;112.83;31
115.09;115.09;115.09;115.09;10
114.65;114.65;113.44;113.48;152
112.0;114.06;112.0;113.27;9526
113.27;114.28;112.78;113.37;14003
113.28;116.92;113.28;116.87;26822
116.94;117.2;116.73;116.77;32397
116.75;117.91;116.6;117.6;29780
117.72;117.85;117.16;117.72;41025
117.71;118.32;117.36;117.5;64321
117.42;117.42;117.42;117.42;1
112.0;117.0;112.0;117.0;8
123.76;123.76;123.76;123.76;1
118.36;118.36;118.36;118.36;2
118.36;118.7;116.19;117.24;10140
117.58;117.9;116.12;116.9;24657
116.76;116.91;115.92;116.36;11724
116.31;117.42;116.24;117.3;13666
117.28;117.28;115.25;116.72;8379
116.72;117.24;115.32;115.52;13157
115.5;115.67;113.39;113.47;25895
113.4;113.6;113.4;113.6;7
119.86;119.86;119.86;119.86;20
119.86;119.86;119.86;119.86;4
114.2;114.2;114.2;114.2;213
114.0;115.44;112.42;114.59;25201
114.66;116.79;114.66;116.02;26191
116.16;116.49;114.44;114.98;33465
114.99;115.43;112.53;112.9;53597
112.98;113.69;111.77;112.93;23721
112.91;113.79;112.5;113.13;17732
113.13;114.3;113.13;113.95;39632
113.92;113.92;113.92;113.92;24
