<OPEN>;<HIGH>;<LOW>;<CLOSE>;<VOL>
117.88;118.46;117.06;117.25;9795
117.3;117.5;116.74;117.06;15311
117.0;117.68;116.99;117.21;14675
117.24;117.51;117.06;117.38;11185
117.35;117.66;117.19;117.35;13863
117.34;117.5;117.02;117.26;9415
117.28;117.32;116.31;117.01;29091
116.94;116.94;116.94;116.94;21
118.79;118.92;118.09;118.3;9378
118.43;118.88;118.2;118.48;9581
118.33;118.96;117.91;118.47;13720
118.53;118.88;118.15;118.77;6932
118.84;118.84;118.26;118.41;6868
118.42;118.93;118.14;118.81;9089
118.9;118.97;118.33;118.64;21212
119.16;119.16;119.16;119.16;1
118.95;119.18;118.24;118.7;8554
118.8;119.41;118.31;118.62;13323
118.69;119.68;118.68;119.68;8857
119.75;121.38;119.64;121.38;10174
121.27;121.27;120.57;120.64;6233
120.6;121.4;120.24;121.28;12461
121.33;121.9;121.15;121.45;27787
121.36;121.36;121.36;121.36;2
121.2;121.2;121.2;121.2;1
122.5;122.64;120.66;120.81;4242
120.9;122.26;120.66;122.26;9703
122.19;122.71;122.0;122.28;7581
122.39;122.61;122.01;122.15;4367
122.19;122.19;121.35;121.79;7605
121.81;121.81;121.33;121.55;12106
121.49;121.5;119.04;119.1;43626
119.07;119.07;119.07;119.07;1
118.85;119.79;117.78;118.47;5830
118.56;119.39;117.92;117.97;15495
118.01;118.21;117.15;117.56;13111
117.55;117.76;116.81;116.91;15419
116.9;117.09;115.75;115.88;22059
115.79;116.19;115.24;115.53;15656
115.6;116.97;115.36;116.64;42807
