<OPEN>;<HIGH>;<LOW>;<CLOSE>;<VOL>
14.89;15.01;14.87;14.92;10562
14.92;15.1;14.9;15.05;59236
15.05;15.05;14.93;14.99;16351
15.0;15.0;14.84;14.88;22317
14.87;14.92;14.81;14.92;16340
14.92;14.98;14.84;14.93;16437
14.94;15.0;14.85;14.94;69067
14.92;14.92;14.92;14.92;27192
15.15;15.15;15.15;15.15;1
15.06;15.17;15.05;15.17;4
15.09;15.1;15.09;15.1;10
15.1;15.1;15.1;15.1;1
15.08;15.25;14.95;15.14;32894
15.19;15.3;15.12;15.29;37533
15.27;15.27;14.94;14.94;24736
14.98;15.12;14.88;15.0;11311
15.01;15.07;14.94;15.01;7833
15.01;15.22;14.95;15.21;9763
15.22;15.28;15.15;15.18;30271
15.18;15.18;15.18;15.18;92867
15.13;15.13;15.06;15.1;12
15.06;15.15;14.89;15.09;11775
15.11;15.5;15.1;15.45;18684
15.46;15.55;15.35;15.52;19501
15.58;15.75;15.54;15.74;25935
15.75;15.85;15.73;15.78;15185
15.78;15.95;15.78;15.92;15234
15.92;15.95;15.78;15.82;51079
15.82;15.82;15.82;15.82;75293
15.82;15.82;15.82;15.82;1
15.89;15.96;15.57;15.68;20733
15.71;15.71;15.19;15.25;39770
15.26;15.55;15.21;15.43;43814
15.42;15.46;15.31;15.42;17519
15.43;15.45;15.32;15.41;14785
15.38;15.53;15.31;15.5;20316
15.49;15.54;15.33;15.35;109854
15.35;15.36;15.35;15.35;51229
15.28;15.48;15.03;15.29;10390
15.32;15.36;14.93;14.93;21166
14.95;15.02;14.75;14.78;35915
14.77;14.83;14.4;14.79;34248
14.77;14.91;14.74;14.84;17834
14.81;15.0;14.79;14.9;21930
14.9;15.0;14.82;14.98;62705
14.99;14.99;14.99;14.99;46036
15.02;15.02;15.02;15.02;3
