<OPEN>;<HIGH>;<LOW>;<CLOSE>;<VOL>
17.37;17.37;16.45;16.86;1512237
16.85;17.52;16.57;17.16;873891
17.16;17.5;16.99;17.0;598751
17.02;17.03;16.59;16.69;481524
16.68;16.82;16.51;16.54;374107
16.53;16.61;16.38;16.39;407359
16.39;16.69;16.22;16.41;1365070
16.41;16.53;16.22;16.3;834852
16.33;16.45;16.3;16.45;379
16.35;16.45;16.35;16.4;229
17.09;17.09;16.4;16.69;6768
16.7;16.71;16.6;16.71;797
16.71;16.71;16.65;16.65;715
16.65;16.65;16.36;16.42;1474
16.42;16.78;14.93;16.45;17190
16.54;16.77;16.5;16.54;21595
16.54;17.26;16.5;17.26;556781
17.26;17.52;17.19;17.29;658440
17.29;17.85;17.22;17.74;651359
17.74;17.94;17.68;17.88;289123
17.89;17.97;17.8;17.86;334643
17.87;18.08;17.87;17.99;303351
18.0;18.22;17.99;18.09;627644
18.08;18.13;18.04;18.12;591961
18.12;18.12;18.05;18.07;1853
18.1;18.2;18.07;18.1;855
18.65;18.65;18.1;18.26;2948
18.27;18.5;17.6;17.99;3261
18.0;18.0;17.84;17.85;526
17.96;18.2;17.78;17.79;689
17.79;18.0;17.79;17.87;2560
17.84;17.95;17.67;17.94;7585
17.95;18.5;17.83;17.85;839947
17.85;17.85;17.37;17.7;683016
17.71;18.07;17.66;17.99;416229
17.99;18.39;17.95;18.36;391468
18.37;18.37;18.13;18.14;203391
18.12;18.24;18.02;18.11;234799
18.11;18.17;17.98;18.04;538632
18.04;18.08;18.0;18.0;536667
18.1;18.25;18.1;18.25;2166
18.12;18.12;18.12;18.12;266
17.7;18.44;17.56;18.01;581
18.1;18.1;17.98;18.0;200
17.99;18.09;17.98;18.08;218
18.08;18.1;17.99;17.99;108
17.99;18.3;17.99;18.16;840
18.19;18.34;18.15;18.15;2353
18.14;18.38;17.8;17.92;270453
17.92;18.06;17.74;17.86;349118
17.86;18.35;17.82;18.34;336443
18.34;18.49;18.32;18.44;317737
18.44;18.44;18.21;18.31;241632
18.31;18.35;18.11;18.34;227187
18.34;18.59;18.19;18.26;767793
18.25;18.29;18.01;18.1;855865
18.0;18.01;17.8;18.0;1451
18.0;18.44;17.85;17.85;17
17.71;18.3;17.7;18.0;318
17.86;18.0;17.86;18.0;63
18.0;18.0;18.0;18.0;12
17.91;18.24;17.91;18.24;161
18.25;18.3;18.0;18.26;589
17.92;18.35;17.92;18.34;871
18.24;18.24;17.23;17.45;691390
17.46;17.56;17.03;17.04;537601
17.04;17.08;16.39;16.43;764455
16.44;16.71;16.32;16.62;379106
16.62;16.81;16.59;16.64;299477
16.64;16.84;16.58;16.75;340274
16.76;16.89;16.66;16.86;733172
16.85;17.19;16.85;17.12;615715
17.12;17.13;17.08;17.1;2347
17.1;17.11;17.1;17.11;469
17.12;17.48;17.0;17.06;368
