<OPEN>;<HIGH>;<LOW>;<CLOSE>;<VOL>
11.6;11.6;10.63;11.15;25470
11.15;11.54;11.04;11.13;24429
11.12;11.44;11.02;11.34;33284
11.31;11.61;11.17;11.56;42453
11.57;11.57;11.41;11.41;8005
11.39;11.47;11.25;11.3;14661
11.31;11.4;11.22;11.23;41410
11.23;11.23;11.17;11.17;34741
11.52;11.53;11.52;11.53;8
11.69;11.69;11.69;11.69;1
11.65;11.65;11.65;11.65;1
11.5;11.55;11.1;11.37;12445
11.39;11.5;11.36;11.41;10616
11.4;11.46;11.16;11.19;24039
11.18;11.31;11.08;11.15;30266
11.14;11.14;11.01;11.11;13910
11.12;11.22;11.06;11.2;14595
11.2;11.24;11.13;11.14;32294
11.15;11.16;11.15;11.15;47686
11.6;11.6;11.28;11.28;4
11.2;11.2;11.2;11.2;8
11.19;11.2;11.19;11.2;193
11.2;11.54;11.08;11.49;36889
11.49;11.59;11.41;11.53;13048
11.54;11.61;11.48;11.59;14990
11.62;11.8;11.61;11.79;17487
11.8;11.8;11.67;11.72;16226
11.72;11.82;11.64;11.8;17965
11.8;11.85;11.72;11.8;54030
11.8;11.8;11.79;11.79;88511
11.57;11.57;11.33;11.33;8
11.8;11.81;11.8;11.8;7
11.89;12.06;11.65;11.85;14512
11.83;11.93;11.78;11.91;16147
11.92;12.21;11.9;12.13;27202
12.12;12.19;12.07;12.11;19311
12.12;12.12;11.88;11.89;13354
11.88;11.92;11.73;11.75;21374
11.76;11.77;11.35;11.35;54980
11.38;11.38;11.38;11.38;54999
10.92;10.92;10.92;10.92;5
11.68;11.68;11.68;11.68;1
11.68;11.84;11.68;11.84;50
11.57;11.92;11.21;11.45;15857
11.48;11.65;11.34;11.42;13919
11.4;11.4;11.06;11.12;13911
11.15;11.22;10.89;11.13;18968
11.11;11.15;11.02;11.13;12747
11.13;11.26;11.07;11.18;15624
11.2;11.33;11.13;11.28;37415
11.28;11.28;11.28;11.28;63031
10.93;10.93;10.93;10.93;4
