<OPEN>;<HIGH>;<LOW>;<CLOSE>;<VOL>
9.3;9.4;9.25;9.25;118
9.19;9.38;8.97;9.18;2762
9.15;9.34;9.11;9.17;981
9.17;9.2;8.93;9.01;839
9.08;9.09;8.98;9.0;1224
8.99;9.05;8.9;8.91;669
8.92;8.92;8.75;8.83;1810
8.86;9.15;8.86;9.15;12
8.89;9.04;8.89;9.04;3
9.14;9.14;8.89;9.04;6
9.05;9.05;9.05;9.05;1
8.91;8.91;8.91;8.91;3
8.93;9.47;8.93;9.39;941
9.42;9.42;9.33;9.33;918
9.33;9.47;9.28;9.4;1422
9.41;9.41;9.34;9.34;295
9.35;9.36;9.25;9.33;1548
9.34;9.48;9.34;9.45;1217
9.42;9.63;9.33;9.63;3248
9.65;9.65;8.88;8.88;962
9.6;9.6;9.6;9.6;3
9.6;9.7;9.55;9.7;172
9.7;9.7;9.7;9.7;2
9.6;9.6;9.6;9.6;2
9.6;9.6;9.6;9.6;1
9.59;9.59;9.45;9.45;2
9.59;9.59;8.85;9.27;612
9.18;9.59;9.18;9.48;1016
9.41;9.67;9.41;9.62;558
9.65;9.66;9.54;9.57;505
9.66;9.81;9.66;9.72;1570
9.69;9.88;9.63;9.77;6585
9.8;9.85;9.7;9.81;2866
9.8;9.8;9.0;9.0;647
9.95;9.95;9.06;9.95;10
9.82;9.82;9.67;9.82;15
9.82;9.95;9.69;9.83;259
9.7;9.71;9.69;9.71;44
9.78;10.0;9.78;9.94;44
9.96;9.99;9.96;9.96;35
10.23;10.5;9.94;10.41;1195
10.52;10.79;10.37;10.56;1775
10.56;10.89;10.56;10.82;2135
10.88;10.99;10.67;10.95;1490
10.9;10.9;10.53;10.58;2804
10.61;10.64;10.21;10.22;535
10.2;10.21;9.79;9.91;3837
9.92;9.92;9.92;9.92;288
9.83;10.01;9.83;9.98;6
10.25;10.25;9.98;9.98;4
9.98;9.98;9.97;9.97;8
10.0;10.03;10.0;10.03;2
10.0;10.05;10.0;10.05;10
10.0;10.02;10.0;10.02;26
10.38;10.43;9.98;10.19;1144
10.39;10.39;9.55;9.64;1101
9.66;9.66;9.03;9.22;3410
9.2;9.21;8.96;9.16;1741
9.03;9.12;8.98;9.0;1697
8.9;9.07;8.84;8.84;2447
8.81;8.89;8.8;8.86;5734
8.86;8.86;8.86;8.86;106
8.95;8.95;8.79;8.79;16
