<OPEN>;<HIGH>;<LOW>;<CLOSE>;<VOL>
53.8;55.23;53.8;54.96;14155
54.84;55.3;54.58;54.78;48044
54.75;55.49;54.62;55.49;46562
55.49;55.6;54.68;54.87;43886
54.85;55.4;54.85;55.37;29710
55.34;55.57;54.95;55.0;37932
55.02;55.31;54.87;55.25;82754
55.26;55.26;55.26;55.26;8
54.87;54.87;54.81;54.81;5
55.25;55.25;55.25;55.25;21
56.3;56.97;55.97;56.83;17681
56.89;57.06;56.5;56.57;33258
56.59;57.37;56.59;57.06;26813
57.06;57.15;56.73;56.84;23502
56.87;57.22;56.87;57.2;26448
57.2;57.25;56.82;57.0;49085
57.02;57.35;57.0;57.32;65151
57.32;57.32;57.32;57.32;183
56.13;56.13;56.13;56.13;1
57.98;57.98;55.0;55.05;12160
55.15;55.39;54.7;54.82;30249
54.83;55.01;54.68;54.89;21520
54.91;55.41;54.89;55.25;24386
55.26;55.36;54.94;54.94;26881
54.94;55.1;54.82;54.97;21154
55.0;55.18;54.62;54.67;69812
54.65;54.65;54.65;54.65;19
54.99;55.28;54.18;54.65;13589
54.7;55.01;54.26;54.28;20781
54.26;54.74;54.17;54.63;19862
54.65;54.78;54.54;54.69;18935
54.7;54.7;54.23;54.35;29801
54.36;54.43;53.85;53.96;25139
53.96;54.02;52.58;52.6;68350
52.59;52.59;52.59;52.59;3
52.49;52.49;50.84;51.62;18427
51.74;51.96;50.54;50.56;50185
50.57;50.65;49.94;50.21;41949
50.16;50.62;49.82;50.62;64319
50.65;50.88;50.24;50.36;38145
50.34;50.62;50.17;50.35;50296
50.33;50.93;50.33;50.86;116769
50.82;50.82;50.82;50.82;10
