<OPEN>;<HIGH>;<LOW>;<CLOSE>;<VOL>
40.38;41.0;40.38;40.65;863
40.42;40.54;40.24;40.4;3089
40.41;40.87;40.38;40.79;5197
40.79;40.83;40.46;40.69;6218
40.66;41.0;40.64;40.99;3610
40.95;41.15;40.84;41.04;7010
41.01;41.25;40.71;40.74;14716
40.78;40.78;40.78;40.78;5
40.95;40.95;40.76;40.76;681
40.8;41.2;40.67;41.12;4823
41.18;41.64;41.09;41.63;3248
41.7;41.95;41.56;41.58;4726
41.57;41.59;41.11;41.14;2630
41.17;41.79;41.1;41.72;8856
41.71;42.4;41.67;42.39;16168
42.35;42.35;42.35;42.35;1
44.2;44.2;44.2;44.2;2
44.2;44.2;44.2;44.2;1
44.2;44.2;44.2;44.2;30
42.85;42.85;42.85;42.85;2
42.0;42.63;41.31;42.43;2161
42.5;42.88;42.07;42.08;7614
42.12;42.56;42.07;42.56;3764
42.61;42.82;42.57;42.82;11040
42.78;42.81;42.49;42.51;11750
42.49;42.6;42.27;42.47;8088
42.49;42.64;42.35;42.49;15422
42.46;42.46;42.46;42.46;31
44.3;44.3;44.3;44.3;10
44.15;44.15;44.15;44.15;1
42.1;42.1;42.1;42.1;1
42.42;42.42;41.3;41.55;346
41.45;41.84;41.26;41.77;6388
41.74;42.05;41.6;41.73;2665
41.73;42.37;41.73;42.37;6332
42.4;42.4;41.65;41.93;3139
41.79;41.83;41.18;41.25;3667
41.27;41.31;39.9;40.15;28272
40.12;40.12;40.12;40.12;20
41.96;41.96;41.96;41.96;1
41.96;41.96;41.96;41.96;1
39.64;40.07;39.17;39.88;1270
40.18;40.18;39.58;39.58;6064
39.66;39.75;39.42;39.68;7641
39.76;39.76;38.67;39.08;12654
39.01;39.1;38.66;38.68;6905
38.65;39.0;38.37;38.7;4560
38.78;39.31;38.68;39.2;19851
39.18;39.18;39.18;39.18;32
