<OPEN>;<HIGH>;<LOW>;<CLOSE>;<VOL>
18.44;19.07;18.44;18.85;137212
18.85;18.93;18.67;18.67;188261
18.66;18.87;18.56;18.83;153424
18.84;18.87;18.39;18.51;55817
18.51;18.74;18.5;18.56;78655
18.55;18.66;18.43;18.44;90552
18.45;18.71;18.39;18.62;195366
18.63;18.63;18.2;18.2;1083
18.75;18.75;18.3;18.3;10
18.75;18.94;18.73;18.73;57
18.73;18.73;18.51;18.52;17
18.71;18.74;18.56;18.74;12
18.58;18.6;18.58;18.6;2
18.63;18.63;18.51;18.51;160
18.5;18.8;18.5;18.71;222
19.01;19.47;18.92;19.45;110303
19.46;19.58;19.3;19.36;134089
19.36;19.56;19.34;19.4;83699
19.4;19.46;19.25;19.25;53367
19.25;19.44;19.16;19.41;66722
19.42;19.78;19.4;19.78;88930
19.78;19.86;19.73;19.84;158349
19.85;19.94;19.31;19.31;3238
19.88;19.88;19.33;19.33;17
19.8;20.06;19.8;20.06;380
19.91;19.91;19.82;19.82;53
19.72;19.85;19.7;19.85;40
19.85;19.85;19.66;19.66;35
19.55;19.65;19.55;19.65;56
19.55;19.64;19.55;19.55;563
19.6;19.7;19.22;19.3;77259
19.3;19.36;18.98;19.27;88510
19.28;19.44;19.27;19.31;56250
19.32;19.55;19.3;19.52;89349
19.5;19.5;19.28;19.37;59054
19.36;19.49;19.3;19.4;48464
19.41;19.44;19.31;19.34;100202
19.35;19.35;19.35;19.35;99
19.18;19.18;19.18;19.18;1
19.21;19.32;19.21;19.32;7
19.24;19.35;19.24;19.29;70
19.49;19.63;19.49;19.63;26
19.55;19.57;19.55;19.57;48
19.55;19.69;19.46;19.46;122
19.41;19.51;18.95;19.04;55684
19.04;19.1;18.65;18.67;87960
18.65;18.8;18.56;18.7;135253
18.7;18.7;18.47;18.6;84368
18.6;18.67;18.49;18.66;97861
18.67;18.67;18.53;18.56;75085
18.56;18.63;18.21;18.21;193464
18.2;19.25;18.07;18.07;755
18.4;18.42;18.24;18.42;80
18.38;18.38;18.38;18.38;1
18.44;18.44;18.44;18.44;7
18.45;18.45;18.3;18.31;41
18.51;18.51;18.3;18.45;204
18.27;18.27;17.54;17.65;88455
17.67;18.02;17.52;17.54;143372
17.55;17.7;17.32;17.36;180084
17.35;17.52;17.24;17.38;105375
17.38;17.51;17.3;17.42;102111
17.42;17.42;17.15;17.18;171537
17.19;17.3;17.02;17.05;469540
17.05;17.05;17.05;17.05;624
16.94;16.98;16.85;16.98;82
