<OPEN>;<HIGH>;<LOW>;<CLOSE>;<VOL>
62.06;63.53;61.5;61.74;109777
61.59;61.7;60.58;60.65;125807
60.66;61.12;60.17;60.97;88324
61.0;61.04;60.49;60.77;71733
60.78;61.36;60.67;61.0;70165
61.0;61.33;60.61;60.63;81066
60.62;60.72;59.82;59.96;338053
59.96;59.97;59.96;59.97;339198
61.34;61.34;60.76;60.76;5
60.82;60.82;60.82;60.82;1
60.68;60.68;60.22;60.22;5
61.25;61.25;60.3;60.56;113517
60.58;60.69;60.05;60.05;102957
60.06;60.27;59.94;60.1;74651
60.11;60.3;60.09;60.11;65202
60.12;60.3;59.88;60.15;61298
60.16;60.38;60.04;60.15;62447
60.16;60.46;60.04;60.31;211366
60.31;60.31;60.02;60.25;285408
60.26;60.26;60.26;60.26;3
60.56;61.35;60.56;61.35;12
60.73;60.73;60.73;60.73;1
60.67;60.67;60.67;60.67;2
59.77;59.77;59.74;59.74;2
60.18;61.47;59.04;59.16;92256
59.14;59.28;58.94;59.09;69717
59.08;59.66;59.02;59.62;48558
59.62;59.99;59.52;59.93;62640
59.92;60.24;59.84;60.03;59517
60.04;60.06;59.59;59.98;69239
59.99;60.23;59.91;60.13;202866
60.13;60.13;60.03;60.03;617926
62.68;62.68;59.67;60.0;90050
59.98;60.22;59.56;59.76;107373
59.78;60.05;59.59;59.63;58379
59.63;59.63;58.85;59.14;58436
59.15;59.16;58.79;59.03;59176
59.04;59.38;58.81;59.13;85954
59.13;59.31;58.72;58.79;256604
58.79;59.0;58.4;58.4;407984
58.5;58.5;58.35;58.35;10
57.5;57.5;57.5;57.5;2
57.51;57.51;57.51;57.51;7
58.61;58.77;58.61;58.73;10
58.03;58.03;58.03;58.03;1
58.21;58.33;57.61;57.83;127402
57.84;58.08;57.43;58.03;90046
58.03;58.21;57.65;57.75;144488
57.77;57.89;57.45;57.67;113065
57.67;57.8;57.46;57.6;92487
57.57;57.89;57.55;57.65;118649
57.65;58.22;57.65;58.07;240288
58.06;58.08;58.06;58.06;946647
