<OPEN>;<HIGH>;<LOW>;<CLOSE>;<VOL>
45.08;45.27;44.66;44.93;284616
44.92;44.93;44.47;44.53;324891
44.54;44.95;44.54;44.84;225680
44.86;45.19;44.54;44.78;296176
44.76;44.77;44.28;44.46;263323
44.45;44.49;44.02;44.12;255187
44.11;44.31;43.98;44.23;382747
44.24;44.58;44.16;44.34;7528
44.32;44.59;44.31;44.4;150
44.4;44.48;44.38;44.45;41
44.46;45.0;44.46;45.0;2015
44.91;45.0;44.8;44.95;828
44.95;45.03;44.88;45.03;1115
45.05;45.25;45.0;45.04;936
45.01;45.01;44.55;44.7;2566
44.7;45.08;44.63;45.06;12709
45.06;45.62;45.0;45.39;324178
45.39;45.59;44.98;45.17;338887
45.16;45.43;45.08;45.34;162097
45.34;45.47;45.29;45.4;115372
45.39;45.77;45.33;45.66;173797
45.66;45.91;45.57;45.9;164087
45.91;46.22;45.83;46.19;485659
46.18;46.28;46.15;46.23;5911
46.23;46.32;46.23;46.26;3389
46.3;46.4;46.22;46.4;2144
46.57;46.98;46.26;46.39;2491
46.39;46.42;45.75;45.78;1906
45.8;46.0;45.7;45.8;1681
45.8;45.8;45.55;45.58;1313
45.59;45.79;45.45;45.49;3959
45.5;46.1;45.4;45.93;16320
45.96;46.3;45.65;45.76;256357
45.76;45.94;45.54;45.58;321459
45.58;45.77;45.55;45.7;287002
45.7;46.08;45.68;45.91;178623
45.9;45.98;45.68;45.68;205306
45.68;45.71;45.51;45.55;265037
45.56;45.93;45.56;45.74;480775
45.73;45.99;45.7;45.85;8515
45.85;45.96;45.78;45.89;2850
45.96;45.97;45.89;45.91;513
45.32;46.96;44.9;45.24;1132
45.21;45.24;45.06;45.15;477
45.15;45.27;44.95;45.18;1301
45.18;45.3;45.04;45.3;663
45.31;45.59;45.23;45.55;1776
45.52;45.55;45.35;45.47;5977
45.47;45.67;45.0;45.11;384326
45.11;45.2;44.59;44.73;462941
44.72;45.2;44.7;45.16;353637
45.16;45.33;45.11;45.2;191061
45.2;45.21;44.7;44.78;213304
44.79;44.85;44.5;44.62;276426
44.62;44.73;44.13;44.13;579785
44.12;44.77;43.84;43.95;8147
43.94;44.0;43.82;43.94;880
43.9;43.99;43.85;43.93;1709
44.2;44.52;44.02;44.09;667
44.03;44.03;43.58;43.99;1377
43.99;44.15;43.9;44.15;317
44.15;44.66;44.15;44.61;907
44.61;44.61;44.28;44.4;502
44.4;44.46;44.12;44.12;8186
44.1;44.1;42.4;42.5;614632
42.5;42.96;42.1;42.13;657662
42.14;42.33;41.87;42.04;450650
42.04;42.44;41.97;42.13;397245
42.13;42.33;41.91;42.05;316436
42.04;42.12;41.8;41.8;416548
41.8;42.08;41.6;41.93;715977
41.93;42.19;41.88;42.1;9109
42.19;42.19;42.01;42.09;672
42.12;42.15;42.12;42.15;132
42.24;42.3;41.92;42.3;1194
