<OPEN>;<HIGH>;<LOW>;<CLOSE>;<VOL>
17.0;17.39;16.95;17.25;50000
17.26;17.39;17.11;17.28;128622
17.29;17.59;17.2;17.59;62696
17.59;17.61;17.2;17.33;39605
17.34;17.36;17.18;17.26;28219
17.26;17.34;17.21;17.29;41025
17.28;17.38;17.17;17.34;89691
17.24;17.48;17.1;17.17;6391
17.35;17.35;17.35;17.35;300
17.44;17.48;17.4;17.42;410
17.42;17.48;17.4;17.41;404
17.41;17.41;17.25;17.37;684
17.37;17.4;17.29;17.37;100
17.31;17.41;17.3;17.41;127
17.4;17.64;17.34;17.41;1070
17.43;17.89;17.42;17.88;30237
17.88;17.94;17.6;17.62;59345
17.61;17.94;17.61;17.83;36745
17.83;17.87;17.76;17.77;25733
17.77;18.0;17.76;18.0;40853
18.0;18.23;17.95;18.15;39235
18.15;18.27;18.07;18.13;111000
18.13;18.2;17.72;17.72;7867
17.82;18.13;17.82;18.13;133
18.13;18.13;17.88;17.88;36
18.49;18.5;17.92;18.13;1345
18.25;18.29;18.12;18.12;515
18.2;18.2;18.0;18.03;556
18.0;18.04;17.95;18.02;430
18.03;18.04;17.95;17.95;237
17.95;18.0;17.8;17.94;518
17.85;17.85;17.31;17.32;28604
17.32;17.41;17.13;17.36;34940
17.35;17.65;17.3;17.63;32050
17.65;17.84;17.63;17.82;23664
17.81;17.87;17.77;17.82;13706
17.82;17.84;17.7;17.72;15342
17.74;17.82;17.54;17.58;60718
17.58;17.88;17.58;17.61;738
17.84;17.84;17.63;17.63;4
17.84;17.84;17.84;17.84;2
17.61;17.65;17.6;17.64;156
17.64;17.7;17.63;17.69;297
17.78;17.78;17.71;17.71;325
17.75;17.75;17.7;17.75;518
17.75;17.75;17.74;17.75;214
17.74;17.78;17.68;17.74;181
17.75;17.97;17.55;17.65;20402
17.64;17.67;17.26;17.36;31336
17.35;17.44;17.3;17.38;19677
17.38;17.57;17.37;17.53;28376
17.53;17.54;17.24;17.34;31516
17.35;17.38;17.2;17.27;36572
17.27;17.34;16.9;16.91;294976
16.91;17.42;16.9;17.29;1166
17.0;17.16;16.98;17.05;878
17.01;17.09;16.95;16.95;179
17.01;17.15;17.0;17.13;1503
17.1;17.15;17.1;17.1;123
17.13;17.19;17.0;17.19;188
17.19;17.2;17.13;17.19;345
17.19;17.19;17.16;17.18;10
17.19;17.2;17.09;17.09;685
17.08;17.08;16.12;16.18;75657
16.18;16.33;15.93;15.97;201304
15.96;16.01;15.4;15.45;154218
15.45;15.6;15.36;15.58;76947
15.58;15.64;15.34;15.38;88556
15.38;15.44;15.21;15.21;90824
15.21;15.43;15.17;15.36;104393
15.37;15.79;15.37;15.69;6457
15.61;15.72;15.6;15.67;349
15.68;15.71;15.68;15.71;69
15.77;15.77;15.33;15.63;1058
