<OPEN>;<HIGH>;<LOW>;<CLOSE>;<VOL>
44.1;46.11;44.1;46.04;142117
46.02;46.91;45.42;46.91;178543
46.93;47.29;46.66;47.12;189598
47.1;47.48;46.74;47.38;151844
47.36;48.12;47.29;48.07;85204
48.07;49.59;47.99;48.05;324545
48.08;48.63;47.93;48.51;559299
48.56;48.6;45.23;47.28;183454
47.07;51.7;47.07;48.52;35404
48.55;48.55;48.04;48.04;342
48.51;48.51;48.5;48.5;5
48.6;48.6;48.46;48.46;2
48.54;48.54;48.54;48.54;7
49.8;50.5;49.8;50.5;1465
50.85;52.36;49.01;52.23;348327
52.37;55.22;52.21;55.09;483617
55.1;56.43;55.1;55.89;412177
55.89;57.17;55.53;56.65;223112
56.68;57.1;54.22;54.49;345865
54.5;55.03;52.92;53.04;272488
53.07;53.66;52.87;52.97;568235
52.97;53.24;52.25;52.25;228713
52.96;52.96;52.96;52.96;100
52.79;52.79;52.79;52.79;1
53.03;53.03;52.82;52.82;101
52.95;52.95;52.23;52.25;98
52.25;54.45;51.51;54.07;159838
54.09;54.9;53.98;54.04;158829
54.1;54.64;53.59;54.63;149718
54.64;55.68;54.58;55.68;98351
55.69;56.03;55.55;55.66;73723
55.67;56.09;55.23;56.06;96135
56.05;56.26;55.77;55.8;312245
55.76;55.76;55.76;55.76;295827
55.76;55.76;55.76;55.76;2
55.73;55.76;55.73;55.76;286
55.2;55.2;55.19;55.2;41
55.31;55.31;55.31;55.31;2
54.24;54.49;53.59;53.99;2584
53.64;54.0;51.55;51.82;396277
51.8;52.55;51.35;51.8;214730
51.76;52.8;51.68;51.91;174083
51.92;52.31;51.61;51.78;194587
51.78;51.78;50.88;51.67;192833
51.66;51.74;50.0;50.21;244985
50.22;50.5;48.88;49.22;822463
49.22;49.31;48.88;48.88;200103
48.9;49.01;48.9;48.91;49
48.59;48.59;46.41;46.43;205
45.99;47.42;45.9;47.42;207
47.14;47.14;46.25;46.25;11
46.91;47.9;46.91;47.7;19680
47.7;47.73;46.85;46.91;87310
46.91;47.72;46.32;47.07;984485
47.1;47.5;46.67;46.82;623937
46.82;47.35;45.47;45.82;448825
45.82;46.72;45.41;46.01;331902
45.99;46.51;45.46;45.46;193057
45.45;45.78;45.04;45.17;309734
45.18;46.97;45.18;46.52;813463
46.53;47.0;45.97;46.92;479526
47.19;47.19;46.71;46.71;308
