<OPEN>;<HIGH>;<LOW>;<CLOSE>;<VOL>
234.5;237.2;233.84;234.0;9007
234.14;234.14;231.69;232.15;7821
232.17;235.68;231.79;234.81;14426
234.86;235.58;234.53;235.18;8779
235.18;235.9;234.82;234.95;11284
234.87;235.38;234.0;234.99;6786
235.0;235.36;233.26;234.1;22800
233.86;233.86;233.86;233.86;24736
238.35;240.24;235.29;236.19;9606
236.51;239.23;236.22;238.76;10617
238.73;240.77;238.73;240.7;11088
240.8;242.89;240.44;242.54;11056
242.79;243.12;240.79;241.26;8949
241.33;241.7;240.62;241.09;9982
241.2;243.3;240.92;242.92;29609
242.92;243.6;242.92;243.6;30190
239.62;239.62;239.62;239.62;10
242.92;242.92;236.54;236.74;13003
236.53;237.31;234.43;236.22;13431
236.19;237.53;234.82;237.32;8128
237.43;238.48;236.85;238.45;5068
238.28;238.8;236.44;236.63;10309
236.64;236.64;235.44;235.68;7929
235.79;236.31;234.4;235.19;24169
235.26;235.26;234.0;234.0;22808
237.11;238.4;233.47;234.8;15611
235.39;236.8;234.16;235.44;6984
235.15;236.85;235.15;236.6;6195
236.47;238.18;236.42;237.89;5512
237.64;237.64;235.76;236.12;4715
236.05;236.28;234.19;234.93;5777
234.75;234.88;230.07;230.2;33739
230.2;230.26;230.0;230.0;31829
227.75;231.85;226.2;227.93;6928
227.93;229.07;227.06;227.06;25361
227.09;227.33;222.58;223.05;16732
222.94;223.33;220.5;222.08;17669
222.04;222.64;220.57;221.42;20257
221.26;223.53;221.25;222.09;11517
222.21;223.22;221.68;223.0;55263
223.08;223.08;223.08;223.08;31474
