<OPEN>;<HIGH>;<LOW>;<CLOSE>;<VOL>
29.96;30.71;29.88;30.54;108926
30.55;30.68;30.24;30.45;127555
30.46;30.64;30.37;30.62;76034
30.62;30.66;29.9;30.02;74523
30.02;30.02;29.72;29.79;68281
29.78;29.86;29.69;29.76;88055
29.75;29.79;29.46;29.59;219966
29.57;29.57;29.57;29.57;199707
30.1;30.1;30.1;30.1;8
30.49;30.67;30.23;30.49;104747
30.47;30.67;29.95;30.09;129541
30.09;30.47;30.02;30.37;71135
30.37;30.45;30.2;30.3;59892
30.3;30.45;30.3;30.45;61436
30.45;30.6;30.41;30.59;78507
30.59;30.84;30.54;30.72;212674
30.72;30.72;30.72;30.72;167015
30.75;30.75;30.75;30.75;2
30.74;30.74;30.74;30.74;2
30.74;30.74;30.74;30.74;1
30.74;30.74;30.47;30.47;10
30.79;30.79;29.61;29.71;72898
29.71;29.81;29.49;29.51;77860
29.51;29.78;29.34;29.68;48539
29.72;29.99;29.68;29.83;49539
29.83;29.91;29.58;29.58;44702
29.58;29.6;29.3;29.4;58301
29.4;29.48;29.2;29.21;154589
29.22;29.22;29.21;29.21;118449
29.15;29.15;29.15;29.15;7
29.17;29.17;29.15;29.15;3
29.4;29.4;29.4;29.4;1
29.75;29.75;28.49;28.62;95567
28.62;28.72;28.13;28.31;89300
28.3;28.44;28.1;28.26;75185
28.26;28.41;28.2;28.32;65616
28.32;28.37;28.19;28.36;82828
28.37;28.38;28.12;28.26;63954
28.25;28.44;27.78;27.82;172605
27.83;27.83;27.68;27.68;164632
27.68;27.68;27.68;27.68;1
28.0;28.0;28.0;28.0;1
28.09;28.09;28.09;28.09;2
27.82;27.82;26.82;26.93;117904
26.95;27.11;26.38;26.4;106857
26.4;26.49;25.94;26.04;80789
26.04;26.27;25.84;26.24;104610
26.26;26.64;26.25;26.46;82039
26.45;26.47;26.29;26.34;60193
26.34;26.42;26.1;26.31;209350
26.31;26.31;26.31;26.31;195867
26.42;26.42;26.42;26.42;1
