<OPEN>;<HIGH>;<LOW>;<CLOSE>;<VOL>
127.16;127.81;125.78;126.0;26881
126.02;126.03;123.47;124.29;68507
124.34;124.4;123.43;123.89;83348
123.9;125.17;123.9;125.02;99173
125.03;125.25;124.42;124.58;60660
124.56;125.93;124.52;125.93;97760
125.89;126.27;124.12;124.25;163956
124.24;125.08;124.24;125.08;84
124.57;124.57;124.35;124.49;15
126.75;126.75;126.75;126.75;1
126.7;127.0;126.69;127.0;8
125.14;125.15;124.5;124.9;207
125.5;125.93;124.93;125.82;16855
125.95;126.36;125.72;125.78;20825
125.83;126.19;125.65;125.95;16322
125.97;126.16;125.6;125.94;17702
125.96;125.96;124.81;125.27;28802
125.27;125.56;125.13;125.38;32236
125.39;125.74;124.91;125.45;65552
125.47;125.47;125.47;125.47;128
125.22;125.22;124.95;124.95;8
125.6;125.6;125.6;125.6;1
124.86;126.65;124.86;126.28;28050
126.34;126.65;125.82;126.19;26929
126.22;126.31;125.06;125.28;29131
125.29;125.91;125.06;125.61;30071
125.61;126.63;125.56;126.23;16722
126.22;126.3;125.07;126.1;53499
126.1;126.84;126.07;126.35;79706
126.39;126.39;126.39;126.39;8
126.4;127.43;125.19;127.43;40
127.0;127.0;125.88;125.88;4
127.13;127.69;126.31;126.69;58060
126.75;127.01;125.47;126.79;43281
126.77;127.17;126.34;126.68;40444
126.64;126.8;125.74;126.1;41359
126.07;126.39;125.41;125.76;47400
125.76;126.46;125.66;126.15;53484
126.11;126.2;123.89;123.98;112930
124.01;124.01;123.36;123.36;186
123.36;123.36;123.2;123.2;65
125.24;125.24;125.24;125.24;1
124.82;124.82;124.82;124.82;1
124.04;124.16;122.82;123.66;35706
123.6;125.08;123.4;124.19;25619
124.25;124.77;122.56;122.73;21587
122.73;123.43;122.08;123.1;27597
123.09;123.19;122.12;122.25;35641
122.22;122.68;121.85;121.87;32350
121.92;123.27;121.76;123.17;84070
123.03;123.03;123.03;123.03;18
121.91;121.91;121.91;121.91;7
