<OPEN>;<HIGH>;<LOW>;<CLOSE>;<VOL>
10.65;10.89;10.65;10.8;5280
10.77;11.0;10.76;10.9;26837
10.91;10.99;10.87;10.88;25160
10.88;10.93;10.84;10.91;19655
10.91;10.95;10.83;10.95;19786
10.94;10.99;10.92;10.98;20879
10.98;11.0;10.88;10.98;44686
10.99;10.99;10.99;10.99;200
11.35;11.35;11.01;11.15;21
11.03;11.03;11.03;11.03;1
11.04;11.04;10.74;10.95;17871
10.99;11.31;10.97;11.14;30311
11.14;11.3;11.1;11.3;20232
11.3;11.43;11.28;11.4;21136
11.41;11.41;11.18;11.22;17581
11.22;11.23;11.17;11.23;23750
11.23;11.27;11.16;11.27;42314
11.26;12.0;11.26;11.5;1071
11.6;11.6;11.6;11.6;1
11.38;11.4;11.38;11.4;18
11.29;11.29;11.29;11.29;1
11.26;11.26;11.24;11.24;8
11.27;11.29;11.27;11.27;56
11.27;11.46;11.04;11.46;6092
11.45;11.74;11.44;11.69;26765
11.69;11.71;11.58;11.67;15519
11.68;11.77;11.66;11.72;16545
11.7;11.83;11.7;11.79;17319
11.79;11.82;11.58;11.59;21585
11.6;11.84;11.54;11.54;60446
11.53;11.85;11.53;11.85;851
11.62;11.62;11.61;11.61;5
11.6;11.64;11.59;11.64;17
11.99;11.99;11.64;11.78;140
11.63;12.38;11.63;11.87;29956
11.87;11.98;11.65;11.8;35319
11.83;12.07;11.83;12.04;14707
12.01;12.22;11.99;12.18;13087
12.17;12.21;12.02;12.07;14591
12.06;12.06;11.77;11.84;19348
11.85;11.88;11.46;11.48;33616
11.49;11.5;11.49;11.5;615
10.17;10.17;9.5;9.5;2
11.72;11.72;11.51;11.51;41
11.52;11.52;11.52;11.52;50
11.6;11.6;11.53;11.53;2
11.65;11.65;11.65;11.65;13
11.65;11.65;11.19;11.54;16997
11.54;11.59;11.35;11.45;17328
11.47;11.49;11.04;11.11;15185
11.14;11.16;10.79;10.87;32952
10.85;10.89;10.71;10.82;15735
10.8;10.83;10.7;10.72;19897
10.72;10.85;10.65;10.82;43932
10.82;10.82;10.82;10.82;13
10.74;10.74;10.74;10.74;1
